<?xml version="1.0" encoding="utf-8"?>
<!-- Generator: Adobe Illustrator 16.0.0, SVG Export Plug-In . SVG Version: 6.00 Build 0)  -->
<!DOCTYPE svg PUBLIC "-//W3C//DTD SVG 1.1//EN" "http://www.w3.org/Graphics/SVG/1.1/DTD/svg11.dtd">
<svg version="1.1" id="レイヤー_1" xmlns="http://www.w3.org/2000/svg" xmlns:xlink="http://www.w3.org/1999/xlink" x="0px"
	 y="0px" width="322.864px" height="114.136px" viewBox="0 0 322.864 114.136" enable-background="new 0 0 322.864 114.136"
	 xml:space="preserve">
<path fill="#9FA0A0" d="M144.471,11.341l2.072-5.261c-2.551,0.797-5.102,1.594-7.652,3.029c-2.551,1.434-3.826,2.551-6.855,2.551
	s-3.507,1.434-5.58,3.028c-2.072,1.595-6.058,2.231-12.914,4.942s-17.696,8.928-24.871,12.754s-15.783,9.406-18.494,10.522
	c-2.71,1.116-10.682,4.464-14.03,4.782c-3.348,0.319-7.812,3.029-11.638,4.943c-3.826,1.912-8.609,3.029-9.885,3.029
	c0,0-31.407,13.072-30.61,13.232c0.797,0.158,23.755,2.869,23.755,2.869l18.813-1.913l29.494-13.392l4.305-3.826
	c0,0,0-3.349-1.754-3.826c-1.753-0.479-2.232-0.798-3.507-1.436c-1.275-0.479,3.507-4.783,7.812-7.813
	c4.305-3.028,6.536-4.145,10.363-6.057c3.826-1.914,6.058-3.029,7.812-4.146s6.058-3.667,7.812-4.942
	c1.754-1.435,5.899-3.348,7.174-3.348s0.797,2.231,1.594,2.231c0.797,0,1.594,3.028,1.275,3.827
	c-0.319,0.796-3.507,3.348-4.304,3.666c-0.797,0.318,1.594,0,3.826,0s6.855,0.479,6.855,0.479s0.159,0,0.319-0.16
	c-2.073,2.711-4.464,6.059-5.421,6.696c-1.594,1.116,0.319,3.667,0.319,3.667l-2.232,3.348l1.754,1.594c0,0,1.275,2.711-0.319,3.349
	c-1.595,0.478-0.797,1.913-5.261,4.146c-4.623,2.231-12.435,6.377-12.435,6.377s6.058-0.479,9.725-1.436
	c3.507-0.797,10.363-3.348,11.957-3.826s4.304-1.912,6.058-2.23c1.754-0.32,2.232-0.32,1.754-0.32c-0.479,0-5.102,0-5.102,0
	l4.624-3.348h-3.348c0,0,3.348-1.116,4.623-1.913c1.276-0.798,4.305-1.913,5.899-1.913s-6.855-0.318-8.45-0.318
	s-3.348-1.914-1.275-3.029c2.072-1.117,3.986-3.029,3.507-4.783c-0.478-1.594-0.797-5.262,0.797-6.855
	c0.319-0.318,0.797-0.956,1.435-1.594c0,0,0,0,0.16,0c0.957-0.479,5.898-2.551,6.536-3.826c0.797-1.436,4.305-6.855,4.305-6.855
	l1.754-3.826L144.471,11.341z"/>
<path fill="#9FA0A0" d="M207.604,26.805c2.392,1.754,10.682,3.826,14.03,4.942s2.87,0.478,6.537,2.551
	c3.826,1.913,1.275,0.478,6.537,2.551c5.261,1.913,8.131,2.231,11.638,3.667c3.507,1.435,10.203,3.029,10.203,3.029L207.604,26.805z
	"/>
<path fill="#9FA0A0" d="M187.834,17.08c-11.638-6.059-19.769-11.32-22.798-12.436c-3.029-1.116-3.826-0.479-6.537-0.318
	c-2.87,0.318-9.406,0.797-11.957,1.594l16.262,0.638l44.799,20.247C205.372,25.211,199.473,23.297,187.834,17.08z"/>
<path fill="#9FA0A0" d="M149.572,6.877c0,0-0.319,7.174-0.319,9.406c0,2.231,0.797,1.912,1.753,3.826
	c0.957,1.913,0.957,3.826,3.029,6.855c2.073,3.029,3.03,3.826,6.856,8.289c3.826,4.465,5.261,2.711,5.261,2.711
	s-8.928-9.088-10.363-12.436c-1.594-3.348-2.551-6.059-2.551-6.059s2.232-1.115,1.754-2.231c-0.479-1.116-2.232-2.551-2.232-4.782
	c0-2.232,0.319-4.146-0.319-4.943c-0.479-0.797-1.754-1.594-1.754-1.594L149.572,6.877z"/>
<path fill="#9FA0A0" d="M163.442,11.021c0,0,1.594,3.826,3.348,6.695c0.159,0.16,0.159,0.319,0.318,0.319
	c1.595,2.551,2.073,3.667,4.146,6.855c2.072,3.348,5.102,7.493,5.898,10.044c0.797,2.551,2.87,3.029,4.624,5.262
	c1.754,2.231,4.305,4.782,4.305,4.782s1.275-0.319,0.319-3.826c-0.957-3.667-0.957-5.261-2.551-7.812s-0.797-2.711-3.827-4.943
	c-3.029-2.23-7.174-5.58-8.928-7.174C169.022,19.312,163.442,11.021,163.442,11.021z"/>
<path fill="#9FA0A0" d="M169.341,17.398c0,0,8.131,4.942,10.204,6.377c2.072,1.436,4.624,1.595,8.928,3.668
	c4.305,1.913,9.406,3.666,11.957,4.145s3.985,1.914,2.87,1.914c-1.275,0-5.898-2.232-6.058-0.799
	c-0.319,1.436,12.436,6.697,14.667,7.813c2.232,1.116,5.58,1.913,4.783,1.913c-0.797,0-16.421-5.579-21.363-7.492
	c-4.783-1.914-6.377-2.552-12.436-6.06C176.675,25.211,169.341,17.398,169.341,17.398z"/>
<path fill="#FFFFFF" d="M164.399,58.053h-1.275l-1.276,0.16l-3.029,0.637l0.797,0.639l0.319,0.478V61.4h0.319l0.319-0.159
	l0.478-0.159l1.913,0.318l0.797,0.319l0.319,0.159v0.318l-0.319,0.319l-0.319,0.319l-2.392,0.957l-1.275,0.797l-0.16,2.71
	l0.479-0.159l1.275-0.159l1.275,0.318h0.319l0.797-0.638l0.478-0.797l0.957-2.87l0.319-1.913v-0.957v-1.912l-0.319-0.479
	l-0.478-0.318L164.399,58.053z M156.746,67.3l-1.753,1.275l0.797,0.159l0.797-0.159l0.159-0.159V67.3z M147.181,58.053l0.478,0.16
	h0.319l0.638,0.158l0.478,0.319l0.638,0.479l1.116,0.479l-0.16,0.797v0.638v1.594l0.16,0.957l0.638,2.551l1.116,2.869l0.16,0.798
	v0.956l-0.16,0.479l-0.319,0.479l-0.478,0.159h-0.479l-0.478-0.318l-0.638-0.798l-1.275-2.551l-0.957-2.71l-0.957-5.739
	L147.181,58.053z M162.645,46.893l1.435,0.319l2.231,0.956l1.276,0.639l0.638,0.478l0.16,0.319l-0.16,0.797l-3.029,1.594
	l-2.072,1.116l-2.392,1.116l-0.318,0.318l0.797,1.117l0.159,0.478v0.479l0.16,0.159l0.478-0.159l2.392-0.319l1.275-0.318
	l0.637-0.318h0.957l1.435,0.478l0.797,0.319l1.594,0.957l0.319,0.318l0.16,0.318v0.318l-0.16,0.479l-0.957,1.116l-0.638,0.956
	l-0.478,1.436l-0.479,2.072l-0.638,2.232l-0.957,2.391l-0.797,1.275l-0.638,0.479l-0.638,0.16h-0.319l-0.797-0.319l-1.594-1.435
	l-0.797-0.318l-0.638,0.158l-2.391,0.479l1.275,0.479l0.796,0.638l-0.318,2.87l3.188-0.16l0.797-0.159l1.754-0.797l0.797-0.159
	l0.957,0.159l1.913,0.797l1.913,1.116l0.957,0.797l0.16,0.479v0.479l-0.319,0.479l-1.275,1.435l-0.797,1.116L169.5,81.17
	l-0.638,2.232l-1.275,3.348l-0.957,1.754l-0.797,1.115l-1.116,1.116l-0.638,0.479l-0.797,0.319h-0.957v-0.16l-0.319-0.159
	l-0.319-0.638l-0.478-1.275l-0.319-0.638l-0.638-0.638l-4.146-3.348v-0.16h0.16l3.667,0.957l1.435,0.318h1.594l1.116-1.275
	l0.478-0.797l0.319-0.797l0.479-1.436l0.638-3.188l0.16-1.595l-0.319-1.116l-0.478-0.479l-0.797-0.159h-1.594l-1.753,0.159
	l-1.754,0.319l-0.478,1.275l-0.16,0.638l-1.116,1.754l-1.435,1.912l-0.797,0.957l-1.753,1.595l-2.71,2.231l-3.985,2.551
	l-1.913,0.957l-0.957,0.318h-0.478V89.46l4.305-3.667l2.072-1.913l1.913-2.072l1.754-2.231l1.594-2.232l0.638-1.116l-0.159-0.319
	l-0.957-0.158l-2.391,0.637l-2.392,0.479l-2.392,0.16l-1.116-0.16l-0.637-0.159l-0.16-0.159l1.116-0.479l3.667-1.116l5.739-0.956
	l0.16-0.479l0.159-0.639l0.159-1.912l-0.159-0.319l-0.319-0.159l-1.275,0.159l-0.638-0.159l-0.638-0.479l-0.479-0.638l3.507-3.507
	l0.16-0.639V64.43l-1.594,0.479h-0.638l-1.275-0.318l-0.638-0.319l-0.638-0.478v-0.16l0.319-0.16l3.986-0.637l0.318-0.16l0.16-0.318
	l-0.16-2.232l-0.638-0.637l-1.913,0.159l-1.116-0.159l-0.16-0.16l0.16-0.318l1.116-0.479l3.029-0.957l0.638-0.158l0.319-0.16
	l-4.305-3.348l-1.435-1.117l-0.16-0.158l0.16-0.16h0.478l2.392,0.16l1.594,0.318l1.754,0.479l2.71-3.189l0.319-0.797l-0.319-0.318
	h-0.797l-2.551,0.479l-5.261,1.275l-1.754,0.479h-0.797l-0.797-0.16l-0.159-0.318l0.797-0.639l1.754-0.797l1.753-0.637l1.754-0.479
	l0.956-0.16l4.624-0.797l0.956-0.479H162.645z M140.644,50.082h2.392l0.638,0.158l0.957,0.319l1.275,0.638l0.797,0.479l0.319,0.318
	l0.159,0.319l0.16,0.478v0.957l-0.319,0.479l-0.479,0.318h-0.797h-0.637l-1.435,0.319l-0.797,0.319l-2.71,1.115l-0.957,0.479
	l-1.116,0.479h-0.319v-0.16l2.87-3.348l0.479-0.638l-4.942-2.072l2.392-0.638L140.644,50.082z M136.34,62.357h2.391l0.798,0.159
	l0.318,0.319h0.16l1.116,0.797l0.638,0.638l0.318,1.116l-0.478,0.797l-0.478,0.318l-1.116,0.479l-0.478,0.478l-0.479,0.638
	l-1.116,2.073l-1.275,4.941l-0.319,2.392l0.159,0.638l0.319,0.638l0.638,0.638l0.638,0.318h0.319l0.318-0.158l0.319-0.319
	l0.319-0.798l1.275-3.348l3.029-8.13l0.478-1.116l0.319-0.479h0.16l0.159,0.318l-1.594,8.449l-0.478,1.436l-0.16,0.797l-0.319,0.797
	v0.16l-0.638,3.188l-0.319,1.753l-0.159,3.508l-0.16,0.797l-0.478,0.798l-0.479,0.319l-0.478,0.158l-0.16-0.478l-1.116-0.638
	l-0.479-0.479l-0.638-0.957l-0.638-1.435l-0.797-2.072l-0.478-2.073l-0.319-2.231v-2.231l0.159-2.393l0.319-2.391l0.638-2.551
	l0.797-2.711l-1.594-0.637l-2.551-0.797l-0.797-0.479l0.638-0.319l2.87-0.638H136.34z"/>
<polygon fill="#80D7FF" points="198.356,48.009 199.154,48.009 201.545,48.646 202.662,49.125 204.096,50.082 204.416,50.4 
	204.575,50.879 204.575,51.676 204.096,53.27 203.618,56.14 203.458,57.734 203.299,65.387 206.168,63.154 209.198,60.444 
	210.792,58.85 211.271,58.053 211.271,57.096 210.952,56.617 210.952,56.459 211.111,56.299 211.749,55.98 212.227,55.98 
	213.184,56.299 214.3,56.617 215.416,57.256 216.532,58.053 217.329,59.169 216.851,59.966 216.532,60.125 209.517,63.793 
	204.894,65.865 207.125,67.618 210.474,70.01 214.141,72.242 216.054,73.198 221.952,75.271 225.141,76.705 226.257,77.344 
	226.417,77.662 226.097,77.981 224.503,78.3 222.271,78.459 217.169,78.459 215.256,78.141 214.141,77.503 211.43,75.271 
	207.444,71.445 204.256,67.938 203.458,67.141 203.299,70.967 203.458,75.75 203.937,83.242 203.937,84.996 203.299,87.547 
	202.662,89.301 202.183,90.257 201.386,91.055 200.908,91.373 200.27,91.373 199.792,91.055 199.473,90.576 198.357,88.185 
	197.879,87.229 194.69,83.402 192.458,81.17 192.139,80.691 192.299,80.531 192.618,80.691 193.574,81.17 197.719,83.084 
	198.517,83.402 198.995,83.084 199.313,82.604 199.632,81.488 199.951,78.3 199.951,69.053 199.792,66.662 196.604,70.328 
	193.096,73.996 190.705,76.228 188.154,78.459 185.603,80.373 184.328,81.17 184.009,81.329 183.69,81.648 182.893,81.648 
	181.298,80.691 180.023,79.575 179.704,78.938 179.704,78.619 180.023,77.981 180.182,77.662 181.458,77.662 182.096,77.662 
	182.733,77.344 184.009,76.068 185.125,74.633 187.835,70.328 189.27,67.459 189.11,67.141 188.951,67.141 185.603,67.777 
	184.806,67.938 183.211,67.938 181.617,67.618 180.979,67.299 180.82,66.821 182.414,66.502 184.009,66.184 187.197,65.067 
	188.792,64.271 190.705,62.676 193.096,62.995 194.69,63.473 195.487,63.793 195.806,64.111 195.966,64.43 195.806,64.748 
	193.893,66.662 193.255,67.459 188.154,73.198 193.096,69.531 199.154,64.59 199.154,57.256 198.835,53.43 198.356,51.676 
	198.038,50.719 197.4,49.763 196.444,49.125 196.922,48.328 197.4,47.85 197.879,47.85 "/>
<path fill="#FFFFFF" d="M249.693,54.705h-0.479l-2.073,0.479l-2.232,0.797l-1.753,0.797l-2.232,1.436l-1.275,0.956l-0.957,0.956
	l-2.232,2.551l-1.116,1.914l-0.479,1.115l-0.319,1.116l-0.319,1.116v2.072l0.16,1.436l0.319,1.594l0.319,0.957l0.478,0.479h0.797
	l1.116-0.479l0.957-0.639l0.957-0.797l1.913-1.754l2.073-2.231l1.594-2.073l1.435-2.072l1.116-1.594l1.754-3.508l0.956-2.869
	l0.159-0.957l-0.159-0.797H249.693z M251.766,52.951h2.231l2.87,0.638l1.913,0.798l1.115,0.478l1.116,0.798l1.275,1.115l1.436,1.594
	l1.115,1.754l0.957,2.711l0.479,2.391l0.159,1.755v2.231l-0.319,2.232l-0.318,1.594l-0.957,2.232l-1.115,2.072l-0.797,0.957
	l-1.117,0.956l-0.956,0.797l-1.116,0.638l-2.232,1.275l-1.115,0.479l-3.029,0.957l-3.985,0.797l-2.87,0.318l-1.753-0.159
	l-0.319-0.319l0.159-0.158l3.188-1.117l3.348-1.435l1.754-0.797l2.072-1.116l2.393-1.754l1.754-1.754l1.434-2.231l0.798-2.072
	l0.319-1.913l0.158-2.072v-2.393l-0.318-2.231l-0.318-1.275l-1.116-2.71l-1.435-1.914l-1.436-1.115l-1.275-0.797l-1.275-0.479
	l-1.275-0.318h-1.435l0.159,0.797v0.956l-0.957,4.305l-1.594,4.464l-1.594,3.029l-0.957,1.594l-1.753,2.392l-1.435,1.754
	l-1.594,1.595l-1.594,1.435l-2.551,1.913l-2.392,0.957l-1.754,0.158l-0.957-0.158l-0.957-0.479l-0.638-0.957l-0.159-1.275
	l0.159-0.797l0.159-3.826v-0.638v-2.232l-0.318-2.231l0.159-1.914l0.479-1.275l0.797-1.434l1.595-2.232l1.435-1.436l0.957-0.637
	l2.073-1.436l2.71-1.435l3.348-1.275l2.232-0.638l1.754-0.318L251.766,52.951z"/>
<path fill="#FFFFFF" d="M302.623,73.677h-1.275l-2.073,0.319l-1.116,0.318l-0.637,0.318l-0.32,0.319l-0.158,5.58l3.029-1.754
	l3.028-2.231l1.116-1.117l0.16-0.318v-0.479l-0.639-0.479l-0.637-0.158L302.623,73.677z M304.695,51.038h-2.072l-2.072,0.159h-1.436
	l-2.072,0.479l0.797,0.638l0.318,1.116l-0.159,3.826l0.159,0.16l0.319-0.16l1.753-0.797l2.073,0.318l1.116,0.479l0.159,0.318
	l-0.159,0.639l-4.146,3.028l-1.595,1.275l-0.158,2.87l0.158,0.159h0.479l0.957-0.159l1.913-0.16l0.479,0.16h0.956l0.479-0.319
	l0.479-0.478l1.275-2.87l0.797-2.392l0.318-1.275l0.639-3.986v-1.434l-0.16-0.797l-0.318-0.32l-0.318-0.318L304.695,51.038z
	 M294.173,65.227l-0.478,0.16l-1.275,1.275l0.956-0.16l0.797-0.318V65.227z M283.332,50.879l0.957,0.318l0.797,0.479l0.479,0.479
	l1.115,0.479h0.16l0.158,0.158l-0.158,0.479l-0.16,0.639l0.16,2.551l0.158,1.115l0.639,2.87l0.637,2.551l0.639,1.913l1.115,2.711
	l0.319,1.115v0.638l-0.159,0.638l-0.639,0.479h-0.637l-0.639-0.318l-0.637-0.479l-1.116-1.595l-0.798-1.753l-0.637-1.754
	l-0.639-1.914l-1.115-5.26l-0.318-3.508v-2.551L283.332,50.879z M306.928,48.487l1.115,0.159l1.116,0.318l2.073,0.957l1.274,0.797
	l0.638,0.639l0.16,0.479v0.637l-1.117,1.116l-1.115,1.116l-0.797,1.913l-0.957,3.507l-1.115,3.189l-1.117,2.551l-0.797,1.435
	l-1.115,1.435l-0.797,0.638l-0.639,0.319h-0.797l-0.318-0.319l-0.479-0.797l-0.638-0.798l-0.319-0.318l-0.797-0.159h-0.957
	l-2.072,0.478v5.262l2.392-0.638l1.275-0.159h2.71l1.436,0.159l1.594,0.159l1.436,0.638L309,73.677l0.479,0.638l0.158,0.797
	l-0.318,1.116l-0.797,0.798l-0.797,0.637l-1.594,1.116l-1.754,0.956l-3.668,1.754l-3.985,1.754l-0.638,1.116l3.348-0.319l6.855,0.16
	l1.116-0.16l2.392-0.797l1.594,0.319l1.275,0.478l0.639,0.319l1.275,0.638l1.912,1.275l0.639,0.638l0.159,0.319l-0.159,0.637
	l-0.319,0.16l-0.638,0.159l-1.435-0.319l-4.305-1.275l-6.058-1.115l-3.189-0.16h-3.348l-3.348,0.319l-1.754,0.319l-3.508,0.797
	l-1.754,0.479l-3.666,1.275l-1.914,0.797h-1.912l-1.914-0.16l-0.956-0.158l-0.479-0.16l-0.478-0.318l-0.319-0.479v-0.479l0.638,0.16
	l0.956,0.158h1.435l0.479-0.158l0.957-0.16l3.188-0.957l6.536-2.71l2.232-1.116l-0.638-1.275l-0.798-1.115l-0.956-1.116
	l-0.478-0.318l0.158-0.319l1.117,0.319l1.754,0.318h0.637l0.479-0.479v-0.319l0.16-2.709l-1.436,0.637l-1.115,0.639l-4.465,2.869
	l-0.638,0.159l-1.275-0.159l-2.551-0.638l-0.319-0.159l-0.479-0.479v-0.318l0.16-0.16l1.594,0.16l0.639-0.16l1.275-0.479l2.71-1.275
	l4.146-1.913l1.594-0.638v-5.739l-0.159-0.159l-0.319,0.159l-1.115,0.319h-0.797l-0.798-0.479l-0.638-0.638v-0.318l3.667-3.667
	l-0.159-2.87l-1.914,0.319h-0.637l-0.319-0.16l-0.797-0.159l-1.116-0.638l-0.318-0.318v-0.16l-0.16-0.159l0.318-0.319l2.393-0.159
	l0.797-0.159l1.594-0.479l-0.159-4.145l-0.159-0.798l-0.318-0.797l-0.319-0.319l-1.913,0.319h-0.797l-0.798-0.159v-0.318
	l0.798-0.479l2.391-0.957l2.072-0.479l3.508-0.479l5.262-0.318l0.318-0.16l0.797-0.158L306.928,48.487z"/>
<path fill="#FFFFFF" d="M121.194,80.373c0,14.826-22.639,26.783-50.539,26.783c-27.899,0-50.539-11.957-50.539-26.783
	c0-14.668,22.639-26.785,50.539-26.785C98.555,53.748,121.194,65.705,121.194,80.373z"/>
<path d="M59.814,108.91"/>
<path d="M38.132,56.938C38.132,56.938,38.292,56.938,38.132,56.938c0.159-0.16,0.159-0.16,0.159-0.319L38.132,56.938z"/>
<path d="M51.206,53.27C51.365,53.27,51.365,53.27,51.206,53.27C51.365,53.27,51.365,53.27,51.206,53.27z"/>
<path d="M17.885,80.691c0,0.16,0,0.16,0,0.318C17.885,80.852,17.885,80.852,17.885,80.691z"/>
<path d="M84.207,108.272c-0.319,0,0-0.159,0.159-0.159c-0.319,0-0.638,0-0.957,0.159C83.41,108.432,84.047,108.272,84.207,108.272z"
	/>
<path d="M121.991,85.953"/>
<path d="M22.827,79.576v0.158C22.827,79.576,22.827,79.576,22.827,79.576z"/>
<path d="M118.165,92.33v0.158C118.165,92.33,118.165,92.33,118.165,92.33z"/>
<path d="M38.292,56.618"/>
<path d="M63.641,51.676C63.641,51.676,63.641,51.836,63.641,51.676C63.641,51.836,63.641,51.836,63.641,51.676z"/>
<path d="M118.962,72.879l-0.159-0.159C118.962,72.879,118.962,72.879,118.962,72.879z"/>
<path d="M80.54,52.633c-0.16-0.16-0.957-0.16-1.913-0.319v0.159L80.54,52.633z"/>
<path d="M97.121,60.763c-0.479-0.319-0.957-0.638-1.435-0.956c5.261,1.594,7.493,2.869,11.638,4.941h-0.319
	c0.319,0.16,0.638,0.16,1.594,0.639c0.957,0.478,2.71,1.594,4.783,4.463c0.16,0.16,0.16,0.16,0.479,0.479
	c-0.16-0.318-0.479-0.638-0.638-0.957c0.638,0.479,1.275,0.798,1.913,1.436c0.16,0.16,0.16,0.318,0,0.318
	c0.478,0.639,0.957,1.275,1.435,1.914l0.159,0.797c0.479,0.479,0.797,0,1.275,1.914c0-0.32,0.16-0.16,0.319,0
	c0.16,0.318,0.319,0.637,0.319,0.477c0,0.16,0,0.319,0,0.479c0.479,1.116,0.797,3.189,0.957,3.667c0,0,0-0.319,0.16-0.797
	c0.159-0.479,0.159-1.116,0.159-1.754c0-1.275-0.319-2.87-0.319-3.507c0.638,1.594,0.16,0.479,0.16,0h-0.16
	c-0.319-0.957-0.159-1.116-0.319-1.595c0,0,0,0-0.159,0c0,0-0.16,0-0.16-0.319c-0.319-0.318-0.638-0.956-0.797-1.275l0.159-0.158
	c-0.319-0.16-1.116-1.436-1.913-2.551c-0.797-1.117-1.753-2.232-2.073-2.711c-0.638-0.957-1.913-1.594-3.029-2.392
	c-1.754-1.275-0.797-0.797-1.594-1.595c-1.116-0.797,0.159,0.319-0.319,0c-0.479-0.318-0.797-0.797-1.275-1.115
	c0.797,0.479,0.478,0.159,0.319,0c-1.275-0.797-3.188-2.072-3.667-1.914c-1.753-0.956-1.594-1.115-2.391-1.434
	c0.159,0.158,0.797,0.478,0.638,0.478c-0.638-0.478-0.319-0.159-0.16,0c-1.116-0.319-5.58-2.87-5.899-2.392
	c-0.318,0.16,0,0.639-0.796,0.639l-0.479-0.319c-0.319,0-0.478,0-0.797-0.159c-0.479-0.319-0.16-0.319-0.16-0.319
	c-1.275-0.159-3.029-0.797-4.624-1.275c0.479,0.319,0.957,0.798,1.435,1.275c-1.275-0.478-3.667-1.435-3.986-1.116l-0.797-0.479
	c-2.551-0.956-1.913,0-3.029-0.318l-1.275-0.479l1.116,0.639c-1.276-0.319-1.914-0.479-2.87-0.798h0.16h-0.16
	c-0.159,0.159-0.957,0.159-1.913,0c-1.435-0.159-2.391,0-4.623-0.478l-0.479,0.318l-1.594-0.159v-0.319c1.594,0,4.624,0,6.696,0.16
	v-0.16c-1.275-0.158-2.71-0.158-3.507-0.158c-0.319,0-1.435-0.32-0.638-0.479l-0.957,0.479c-4.145,0-4.145,0-8.45-0.16l0.319,0.16
	c-0.797,0.158-1.753,0.318-1.913,0c-2.551,0.158-5.261,0.318-7.015,0.158l-0.319,0.319c-0.479,0-1.435-0.319-1.594,0.159
	l-1.116,0.318c-0.797,0.16-1.116,0.319-2.072,0.319h-0.16c-1.753,0.159,0,0.319-1.913,0.478c-0.638,0-0.638,0.479-1.594,0.639
	l-0.957,0.159c-1.754,0.159-1.913,0.638-4.305,1.435c-1.116,0.16-1.913,0.16-1.275-0.479c-0.957,0.797-0.319,0.479-1.753,1.117
	c-0.319,0-0.16-0.16,0.159-0.479c-1.275,0.318-0.638,0.479-1.594,0.797c-0.16,0.318-0.319,0.956-0.478,1.115h0.318
	c-0.957,0.639-1.913,1.116-3.029,1.436v-0.16l-1.116,0.639l-1.594,0.956h0.319c-0.319,0.319-1.594,0.956-2.232,1.435v-0.159
	c-2.073,0.956-3.348,2.551-5.42,4.464l0.159-0.479c-0.797,0.479,0,0.479-0.797,1.116l-0.16-0.159
	c-0.478,0.957-0.957,0.957-1.435,1.275h0.478c-0.319,0.318-0.638,0.638-0.797,0.957c-0.956,1.115-0.956,0.478-0.956,0.158
	c-0.16,0.319-0.16,0.639-0.319,0.957h-0.319c-0.16,0.797-0.479,0.639-0.957,1.914c-0.16,0,0-0.319-0.319,0.158
	c-0.16,0.798-0.319,1.436-0.479,2.232c0-0.479,0.16-0.797,0.319-1.275l0.319,0.318c-0.159,1.436-0.638,1.754-0.797,2.711
	c0-0.16,0-0.479,0-0.637c-0.319,1.594-0.479,1.594-0.797,2.55c0.16-0.318,0.319-0.638,0.319,0c0,0.478-0.159,0.159-0.319,0.638
	c0.16,0,0.16,1.115,0,2.072c0,0-0.159,0-0.159-0.159c0,0.319,0.159,0.319,0.159,0.797l-0.319-0.319
	c0.16,0.319,0.319,0.639,0.479,0.799c0,0.637,0.319,1.435,0.159,1.435c-0.159,0.159-0.159,0-0.159-0.16
	c0.319,1.435,0.638,2.87,1.275,4.305l-0.16,0.159c0.479,0.318,0.957,2.232,1.275,1.913c0.16,0.798,1.913,2.551,1.275,2.392
	c1.754,2.232,3.188,2.869,5.58,5.262c0.638,1.115,3.507,2.869,5.261,3.826c3.667,1.753,6.218,2.71,10.203,3.826
	c2.232,1.435,5.898,1.594,8.45,2.391l0.797-0.159c1.594,0.798,4.304,0.798,6.696,1.435c0.638,0,0.957,0,1.116,0
	c-0.16,0-0.319-0.159-0.319-0.318c0.638,0.159,2.073,0.159,1.914,0.479h-0.16c-0.159,0.318,2.073,0,2.87,0.318L63.8,108.91
	l1.275,0.159h-0.319c5.739-0.479,8.45,0.478,13.71-0.479c-0.638,0.479,1.116-0.318,1.116,0.159c1.435,0.319,2.551-0.318,3.667-0.637
	c0,0,0,0,0-0.16l1.913-0.159c-1.116,0.638,1.275-0.638,0.319,0c5.101-0.479,11.638-2.392,17.058-4.624h-0.318
	c1.435-0.479,3.029-1.435,4.145-1.754c1.116-0.318,2.073-1.434,2.392-1.753c0.957-0.798,2.232-1.116,1.753-0.798
	c1.116-0.797,1.913-1.912,3.507-2.869c0.319,0,1.276-0.957,2.073-1.912c0.797-0.957,1.435-1.914,1.753-1.754
	c1.914-1.754,2.71-3.986,3.827-6.537c0,0,0,0,0,0.159c0.159-1.913,0-3.825-0.479-5.58c-0.638,0.479-1.116,0.956-1.753,1.276
	c-0.638,1.275-1.275,2.391-2.232,3.348c-1.116,3.188-3.508,5.898-6.377,8.29c-2.391,1.595-5.102,3.028-7.812,4.146
	c-6.537,3.188-13.871,5.102-21.364,6.058l-1.594,0.479c-2.232-0.159-4.783,0.159-7.333,0.159c-2.551,0.16-5.261,0.16-7.493-0.159
	l-0.159,0.319c-1.275,0-1.275-0.319-1.594-0.319c-6.218-0.479-12.595-1.435-18.334-3.188c-5.898-1.754-11.319-4.465-15.464-7.972
	c-0.797-0.798-3.029-2.869-3.348-3.507c-2.551-2.232-3.986-5.421-4.145-8.609v0.159c0-0.479,0-0.956,0-1.435c0,0,0,0,0.159,0
	c-0.159-1.754,0.797-4.146,2.073-5.898v0.158c1.595-2.551,3.826-4.941,6.537-6.855c2.551-1.912,5.42-3.507,8.45-4.941
	c6.058-2.711,12.595-4.305,19.45-4.942c6.377-0.319,13.87-1.116,21.044,0c0.638,0.159,4.624,0.638,8.609,1.435
	C92.816,59.328,96.642,60.604,97.121,60.763z"/>
<path d="M115.136,71.285"/>
<polygon points="89.627,54.386 89.787,54.386 89.309,54.227 "/>
<path d="M108.918,61.4c-0.797-0.479-0.797-0.479-0.797-0.318C108.44,61.241,108.759,61.4,108.918,61.4z"/>
<path d="M118.483,76.865C118.643,77.184,118.643,77.024,118.483,76.865c0-0.479-0.159-0.638-0.159-0.638
	C118.483,76.228,118.483,76.547,118.483,76.865z"/>
<path d="M119.6,74.474"/>
<polygon fill="#FFFFFF" points="31.915,45.937 31.915,83.082 70.975,97.432 110.034,83.082 110.034,45.937 "/>
<path d="M62.524,91.852"/>
<path d="M107.165,57.255c0-0.159-0.16-0.159-0.16-0.159L107.165,57.255z"/>
<path d="M106.686,81.967c-0.159,0-0.159,0-0.159,0.16C106.527,82.127,106.527,81.967,106.686,81.967z"/>
<path d="M41.321,84.357c0.319,0.16-0.159,0-0.159,0c0.319,0.16,0.478,0.319,0.797,0.319C41.958,84.677,41.48,84.518,41.321,84.357z"
	/>
<path d="M33.668,50.719"/>
<path d="M109.875,85.952c-0.159,0-0.159,0.159-0.319,0.159C109.715,86.111,109.875,85.952,109.875,85.952z"/>
<path d="M33.509,57.256"/>
<path d="M107.005,57.096"/>
<path d="M97.439,48.168"/>
<path d="M39.408,45.776C39.408,45.776,39.567,45.776,39.408,45.776h0.319C39.567,45.776,39.567,45.776,39.408,45.776z"/>
<path d="M81.656,47.53c0.16,0.159,0.957,0.159,1.914,0.159V47.53H81.656z"/>
<path d="M64.438,43.066l1.754,0.318c-5.42,0.16-7.971-0.159-12.595,0.16l0.319-0.16c-0.638-0.159-1.116,0.797-8.45-0.318
	c-0.319,0-0.319,0.159-0.797,0l1.276,0.159c-0.798,0.159-1.435,0.319-2.392,0.319c-0.16,0-0.319-0.16-0.319-0.16h-2.551
	l-0.797-0.318c-0.797,0.159-0.478,0.637-2.551,0.318c0.797,0.318-0.957,0.16-0.797,0.479c-0.16,0-0.319-0.16-0.479-0.16
	c-1.275,0-3.507,0.16-4.145,0.319c0,0,4.783,0.798,6.058,1.116c-1.753-0.159-0.478,0-0.159,0.159l0.159-0.159
	c0.957,0.159,0.957,0.318,1.594,0.318c0,0,0,0,0-0.159c0,0,0-0.159,0.319,0c0.479,0,1.116,0,1.435,0v0.159
	c0.797-0.318,5.102,0.639,6.218,0.639c0.956,0.318,2.232,0,3.667,0c2.073,0,0.957,0.318,2.073,0.478
	c1.275,0.159-0.319-0.159,0.319-0.159l1.594,0.318c-0.957,0-0.478,0.16-0.319,0.16c1.275,0,3.507,0.318,3.826,0
	c1.754,0.159,1.754,0.318,2.551,0.318c-0.319,0-0.797-0.159-0.797-0.159c0.797,0.159,0.319,0,0,0
	c1.116-0.159,5.739,0.638,5.899,0.319c0.319-0.319-0.16-0.639,0.638-0.798l0.478,0.159l0.797-0.159
	c0.479,0.159,0.319,0.159,0.319,0.159c1.275-0.159,3.029,0,4.464,0l-1.594-0.797c1.275,0.16,3.667,0.638,3.826,0.318l0.797,0.319
	c2.551,0.479,1.754-0.159,2.87,0l1.275,0.319h-1.275c1.275,0.159,1.753,0.318,2.87,0.479h-0.16h0.16
	c0.159-0.16,0.797-0.319,1.753-0.319c1.276,0,2.232-0.159,4.305,0.159l0.478-0.318l1.595,0.159v0.319
	c-1.435,0-4.305,0.158-6.218,0.158v0.16c1.116,0,2.392-0.16,3.188-0.16c0.319,0,1.276,0.319,0.638,0.479l0.638-0.318
	c3.826,0,3.826,0,7.812,0.318l-0.319-0.159c0.797,0,1.594-0.159,1.753,0c2.392,0,4.942,0.159,6.537,0.479l0.319-0.319
	c0.479,0,1.276,0.479,1.594,0l1.116-0.159c0.159,0,0.319,0,0.319,0h0.159h0.16c0.159,0.159,0.159-0.159,0.478-0.159v0.159
	c-0.637,0.798,0,0.479,0,0.798c-0.159,0.158-0.319,0.318-0.478,0.318c-0.319,1.436,0.159,1.754,0.159,4.145
	c-0.159,1.117-0.478,1.595-0.797,0.957c0.319,0.957,0.319,0.479,0.479,1.754c-0.16,0.159-0.16,0-0.319-0.16
	c-0.159,1.117,0.16,0.799,0.16,1.595c0.319,0.319,0.797,0.638,0.797,0.798l0.16-0.319c0.16,0.956,0.319,1.913,0.16,3.029h-0.16
	v1.116h-0.16v1.754v-0.16c0,0.318,0.16,1.754,0,2.392h-0.159c-0.319,2.072,0.159,3.826,0.159,6.218l-0.159-0.318
	c-0.16,0.797,0.319,0.158,0.159,1.275h-0.319c0.319,0.797,0,1.115-0.159,1.754l0.319-0.32v1.117
	c-0.16,1.275-0.478,0.797-0.638,0.637l0.319,0.797l-0.319,0.16c0.319,0.638,0,0.638,0.16,1.754c-0.16,0.159-0.16-0.16-0.319,0.159
	l0.479,1.753l-0.159-1.115l0.478,0.159c0.159,0.319,0.159,0.479,0.159,0.798c0,0.158,0,0.478,0,0.478c0,0.159-0.159,0.159,0,0.319
	l-0.159-0.16c0,0.16,0,0.319,0,0.319c-0.16,0-0.16,0-0.319,0c0.159,0,0.319,0.159,0.159,0.159c-0.159,0-0.159-0.159-0.318-0.159
	c0.159,0.159,0.159,0.319,0,0.319l-0.479,0.16c-0.16,0-0.479,0.158-0.638,0.158v-0.158c-0.16,0.158-0.319,0.158-0.638,0.318
	l0.159-0.479l-0.638,0.638c-0.478,0-1.116,0.638-1.116,0.318l0.159-0.159l-3.507,1.115v-0.158c-0.159,0.478-1.913,0.637-1.594,0.956
	c-0.797,0-2.551,1.116-2.232,0.478c-2.232,0.798-3.348,1.754-6.218,2.551c-1.116,0-3.827,1.117-5.58,1.754
	c-3.348,1.436-5.58,2.392-9.087,3.826c-0.956,0-1.913,0.479-2.869,0.799c-0.479,0.158-0.957,0.478-1.595,0.637l-0.319,0.159
	c-0.159,0-0.159,0-0.159,0s-0.16,0-0.16,0.159c0,0-0.159,0-0.159-0.159c0,0-0.16,0-0.319-0.159c-0.159,0-0.318-0.159-0.318-0.159
	H69.54c-1.435-0.957-3.826-1.276-5.899-2.552c-0.638-0.159-0.797-0.159-0.957-0.159c0.159,0,0.159,0.159,0.159,0.319
	c-0.638-0.319-1.913-0.639-1.594-0.957h0.16c0.159-0.318-1.913-0.479-2.551-1.115l0.319,0.478l-1.116-0.478h0.319
	c-5.261-1.116-7.174-3.029-12.117-4.146c0.797-0.159-0.956-0.159-0.956-0.638c-0.957-0.957-2.232-0.638-3.189-0.957c0,0,0,0-0.159,0
	l-1.754-0.637c1.116-0.16-1.435,0-0.319-0.16c-1.116-0.479-2.232-0.956-3.348-1.434c-0.638-0.16-1.275-0.479-1.754-0.639
	l-0.638-0.16v-0.637v-2.232c0-1.436,0-2.869,0-4.305l-0.159,0.318c0-1.434-0.16-3.188,0-4.145c0.159-1.116-0.319-2.232-0.319-2.711
	c-0.16-1.115,0.159-2.231,0.159-1.753c0-1.275-0.478-2.392-0.319-4.146c0.479-0.637-0.479-4.623,0-4.782
	c0.319-2.232-0.319-4.305,0-6.696c0,0,0,0,0,0.16l-1.435-4.783l-1.594,1.435l-1.275,4.146l0.319,11.318l-0.478,9.088l0.159,13.232
	l11.957,4.305l1.594,0.159c3.827,2.073,9.247,3.349,13.552,5.421l0.159-0.318c1.275,0.478,1.116,0.637,1.435,0.797
	c4.464,1.594,8.928,3.188,13.392,4.782c3.986-1.435,7.812-3.028,11.638-4.464c3.507-1.275,7.015-2.551,10.363-3.667
	c1.116-0.159,3.986-1.435,4.942-1.435c3.188-1.594,6.696-2.869,10.044-4.145h-0.16l1.913-0.798c0.16,0,0.16,0,0.16,0
	c0.797-0.319,1.594-0.797,2.551-1.116c0-0.797,0-1.594,0-2.551c0-0.479,0-0.797,0-1.275v-0.797c0-0.957,0.16-1.913,0.16-2.869v0.158
	c0-5.42,0-10.682-0.16-15.941c0-2.552,0-5.262-0.159-7.813c0-3.508,0-6.855,0-10.363c-2.073,0-4.305,0-6.377,0
	c-1.275,0-2.551,0-3.986-0.159c-6.217-0.478-13.551,0.159-20.725-0.159C80.221,42.747,65.713,42.906,64.438,43.066z"/>
<path d="M43.075,43.545"/>
<polygon points="73.047,47.211 72.887,47.211 73.207,47.371 "/>
<path d="M53.756,47.211c0.797,0,0.957,0,0.797,0C54.234,47.211,54.075,47.211,53.756,47.211z"/>
<path d="M36.06,43.704C35.582,43.704,35.741,43.863,36.06,43.704c0.479,0.159,0.797,0.159,0.797,0.159
	C36.538,43.863,36.219,43.863,36.06,43.704z"/>
<path d="M37.813,45.617"/>
<polygon fill="#FFFFFF" points="70.975,60.284 31.915,45.937 70.975,31.588 110.034,45.937 "/>
<path d="M36.857,41.631"/>
<path d="M90.743,35.893C90.743,35.893,90.903,35.893,90.743,35.893c0.16,0,0.16,0,0.16-0.16L90.743,35.893z"/>
<path d="M98.874,39.24"/>
<path d="M70.655,29.355c-0.16,0-0.16,0.159-0.16,0.159C70.496,29.355,70.655,29.355,70.655,29.355z"/>
<path d="M39.727,50.879"/>
<path d="M39.408,51.037c-0.159-0.159,0.159,0,0.159,0c-0.159-0.159-0.318-0.159-0.638-0.318
	C39.089,50.719,39.408,50.878,39.408,51.037z"/>
<path d="M62.843,59.009"/>
<path d="M109.078,43.066C109.078,43.226,108.917,43.226,109.078,43.066C108.917,43.226,109.078,43.226,109.078,43.066z"/>
<path d="M75.917,58.371"/>
<path d="M105.411,49.443c0.319,0,1.116-0.318,2.073-0.638l-0.319-0.159L105.411,49.443z"/>
<path d="M91.541,49.762h1.275c-3.507,1.436-5.261,1.754-8.29,3.189l0.159-0.16c-0.478,0.16-0.478,0.957-5.739,1.754
	c-0.159,0-0.159,0.16-0.478,0.16l0.957-0.16c-0.479,0.319-0.798,0.639-1.594,0.957c-0.16,0-0.16,0-0.319-0.16l-1.594,0.639h-0.638
	c-0.478,0.318,0,0.797-1.435,0.956c0.638,0.159-0.638,0.479-0.319,0.638c-0.16,0-0.319,0-0.479,0
	c-0.797,0.318-2.232,0.957-2.551,1.275c0,0,3.507-0.479,4.464-0.318c-1.116,0.318-0.319,0.159,0,0.159v-0.159
	c0.638-0.16,0.797,0,1.116,0c0,0,0,0,0-0.16c0,0,0-0.159,0.16-0.159c0.318-0.159,0.797-0.319,0.956-0.319v0.16
	c0.319-0.479,3.667-0.797,4.305-0.957c0.797,0,1.435-0.637,2.392-0.797c1.435-0.479,0.797,0,1.594-0.159
	c0.957-0.159-0.319-0.159,0.159-0.319l1.116-0.159c-0.638,0.319-0.159,0.159-0.159,0.319c0.956-0.319,2.391-0.479,2.551-0.957
	c1.275-0.318,1.275-0.159,1.753-0.318c-0.159,0-0.478,0-0.638,0c0.478,0,0.16-0.16,0-0.16c0.638-0.479,3.986-0.797,3.986-1.115
	c0-0.319-0.319-0.479,0.159-0.957h0.319l0.479-0.318c0.319,0,0.159,0.159,0.319,0.159c0.797-0.478,2.072-0.638,3.029-1.116
	l-1.435-0.479c0.957-0.159,2.551-0.318,2.71-0.638l0.638,0.159c1.914-0.159,1.116-0.637,1.914-0.797c0.319,0,0.797,0,1.275-0.159
	l-1.116,0.478c0.638-0.158,0.957-0.158,1.435-0.318c0.478-0.159,0.957-0.159,1.435-0.318c-0.159,0-0.159,0-0.159,0h0.159
	c0-0.16,0.638-0.479,1.435-0.797c1.275-0.479,1.753-0.798,4.464-1.436c0-0.159-0.159-0.159-0.159-0.318l1.913-0.479h0.637
	c-1.594,0.638-4.304,1.594-6.217,2.391l0.159,0.16c1.275-0.479,2.392-0.957,3.189-1.275c0.478-0.16,2.072-0.479,1.753-0.16
	c0.16-0.158,0.16-0.318,0.319-0.318c1.435-0.479,2.392-0.797,3.029-1.115c-1.594-0.639-2.391-0.957-5.101-2.073l0.159,0.159
	c-1.116-0.318-2.073-0.637-1.913-0.797c-1.275-0.479-2.71-1.116-3.986-1.594c-0.638-0.319-1.116-0.479-1.753-0.798
	c-0.479-0.159-0.638-0.318-0.957-0.478l-0.319,0.159c-0.319-0.159-0.638-0.798-0.957-0.479l-0.797-0.159
	c-0.479-0.16-0.797-0.16-1.275-0.479c0,0,0,0-0.159,0c-0.957-0.479-0.16,0.318-1.276-0.318c-0.318-0.319-0.478,0.158-1.116,0
	l-0.479-0.639c-0.957-0.637-1.275-0.318-2.87-0.797c-0.638-0.479-0.957-0.957-0.319-0.957c-0.797,0.16-0.319,0.16-1.275,0
	c-0.159-0.158,0-0.158,0.319-0.318c-0.797-0.479-0.478,0-1.116-0.318c-0.319,0.159-0.638,0.637-0.797,0.479l0.159,0.158
	c-0.638,0-1.435-0.318-2.072-0.637l0.159-0.16l-0.797-0.159v-0.159l-1.116-0.318l0.16,0.158c-0.319,0-1.116-0.318-1.594-0.637v-0.16
	c-1.275-0.797-2.551-0.797-4.145-1.435l0.319-0.159c-0.479-0.479-0.319,0.318-0.957,0v-0.318c-0.638,0.158-0.797-0.319-1.116-0.639
	v0.479l-0.797-0.318c-0.797-0.479-0.319-0.639-0.16-0.798h-0.638v-0.319c-0.478,0.16-0.319-0.158-1.116-0.318
	c0-0.159,0.159-0.159,0-0.318H74.96h0.797l-0.16,0.637c-0.797,0-0.957-0.478-1.594-0.478h0.479
	c-0.957-0.159-0.957-0.479-1.275-0.638c0.159,0.159,0.319,0.318,0,0.318c-0.319-0.159,0-0.159-0.479-0.318
	c-0.159,0.159-0.957,0.159-1.594-0.16c-0.319-0.158-0.478-0.158-0.797-0.158c0,0,0-0.16,0.159-0.16
	c-0.319,0.16-0.319,0.318-0.797,0.318l0.159-0.478c-0.319,0.159-0.478,0.478-0.797,0.638c-0.319,0-0.797,0.479-0.797,0.159
	l0.16-0.159l-2.392,0.957l-0.16-0.319c-0.159,0.478-1.435,0.319-1.116,0.797c-0.479,0-1.754,0.798-1.594,0.319
	c-1.594,0.479-2.232,1.275-4.305,1.754c-0.797-0.16-2.71,0.638-3.986,1.115c-2.391,1.116-3.826,1.754-6.377,2.87
	c-1.753,0-3.667,1.595-5.42,1.913l-0.319,0.318c-0.638,0-1.275,0.319-2.073,0.639c-0.319,0.159-0.797,0.318-1.116,0.478
	c-0.16,0-0.319,0.159-0.638,0.159s-0.638,0.16-0.957,0.319c-0.637,0.319-0.956,0.478-1.116,0.478c0.16,0,0.319,0,0.479,0
	c-0.797,0.16-2.232,0.798-2.392,0.639l0.16-0.16c-0.16-0.159-0.638,0.16-1.275,0.479c-0.638,0.319-1.435,0.639-2.073,0.639h0.957
	l-1.435,0.478l0.318-0.159c-1.913,1.115-3.667,1.754-5.58,2.392c1.116,0.478,2.232,0.956,3.508,1.435s2.87,0.957,4.783,1.594
	c-1.275,0,1.275,0.319,0.957,0.639c0.478,0.478,1.275,0.637,1.913,0.797c0.797,0.159,1.435,0.159,1.913,0.318l1.116,0.479
	c-0.956,0.159,0.957-0.16,0.16,0.159c3.029,1.595,7.174,2.71,10.841,4.146l-0.16-0.16c0.957,0.319,2.073,0.639,2.71,1.117
	c0.637,0.478,1.594,0.318,1.913,0.318c0.797,0,1.435,0.797,1.116,0.639c0.797,0.318,1.753,0.158,2.87,0.637
	c0.159,0.479,3.188,0.797,3.188,1.275c1.275,0.797,2.87,0.797,4.305,1.754c0,0,0,0-0.16,0l3.667-0.16l-0.319-1.912l-2.232-2.232
	l-7.653-2.551l-5.58-3.029l-14.189-5.102c-0.159,0.159-0.159,0.159-0.479,0.318c0-0.159,0-0.318-0.159-0.318
	s-0.319-0.159-0.638-0.159c0.16,0,0.319-0.159,0.797-0.159l-0.637-0.16c0.159,0,0.478,0,0.478,0l0.319-0.158l2.71-1.117
	c2.072-0.797,3.986-1.594,6.058-2.392c3.986-1.594,7.812-3.028,11.638-4.146c0.797,0,2.87-0.956,3.507-0.956
	c1.116-0.638,2.232-1.116,3.508-1.595c0.638-0.158,1.275-0.478,1.753-0.637l0.957-0.319h0.319h0.16c0,0,0,0,0,0.159c0,0,0,0,0.159,0
	c0.16,0,0.319,0.16,0.638,0.16c0.319,0.159,0.797,0.318,1.275,0.479c0.797,0.318,1.754,0.797,2.392,1.115h-0.16
	c4.464,1.754,8.928,3.188,13.233,4.623c2.232,0.797,4.304,1.595,6.536,2.393c1.116,0.478,2.232,0.797,3.188,1.275
	c0.479,0.158,1.116,0.478,1.594,0.637l0.797,0.32c0.319,0.158,0.638,0.318,0.638,0.318c0.16,0.318,0.16,0.159,0.638,0.318
	c0,0-0.319,0.159-0.638,0.159c0,0,0,0-0.159,0c-0.16,0-0.319,0.159-0.319,0.159c-1.116,0.319-2.392,0.797-3.667,1.275
	C94.57,48.486,91.859,49.443,91.541,49.762z"/>
<path d="M77.511,55.342"/>
<path d="M98.555,51.516h0.319H98.555z"/>
<path d="M85.96,56.299c0.638-0.16,0.638-0.16,0.478-0.16C86.279,56.139,86.12,56.139,85.96,56.299z"/>
<path d="M72.887,57.256C72.568,57.414,72.728,57.414,72.887,57.256c0.319,0,0.479,0,0.479,0S73.047,57.256,72.887,57.256z"/>
<path d="M74.8,58.531"/>
<path d="M73.844,83.401h0.159H73.844z"/>
<path d="M73.207,78.938C73.207,78.938,73.207,78.777,73.207,78.938C73.207,78.777,73.207,78.938,73.207,78.938z"/>
<path d="M73.047,67.618C72.888,67.618,72.888,67.777,73.047,67.618C73.047,67.777,73.047,67.618,73.047,67.618z"/>
<path d="M68.424,79.097C68.264,79.097,68.264,79.097,68.424,79.097C68.264,79.097,68.264,79.097,68.424,79.097z"/>
<path d="M72.569,62.038"/>
<path d="M72.569,89.619c0.159,0,0.159-0.16,0.159-0.318h-0.159V89.619z"/>
<path d="M68.104,92.329l0.319-0.319c0.159,0.798-0.16,1.275,0.159,1.914h-0.159c-0.16,0.16,0.797,0.16-0.319,1.275
	c0,0,0.16,0,0,0.159l0.16-0.159c0.16,0.159,0.318,0.159,0.318,0.318h-0.159v0.318l-0.319,0.16c0.16,0.159,0.638,0,0.319,0.318
	c0.318-0.159,0.159,0.16,0.478,0.16c0,0-0.16,0-0.16,0.159s0.16,0.478,0.319,0.638c0,0,0.797-0.797,1.116-0.957
	c-0.16,0.319,0,0,0.16,0h-0.16c0.16-0.159,0.319-0.159,0.319-0.318c0,0,0,0-0.159,0c0,0-0.16,0,0,0v-0.16h0.159
	c-0.319-0.158,0.638-0.797,0.638-0.956c0.319-0.159,0-0.318,0-0.638c0-0.318,0.319-0.158,0.479-0.318c0.159-0.16-0.16,0-0.16,0
	l0.319-0.319c0,0.159,0.159,0,0.159,0c0-0.159,0.319-0.478,0-0.638c0.16-0.318,0.319-0.318,0.319-0.479l-0.16,0.16
	c0.16-0.16,0,0,0,0c-0.16-0.16,0.638-0.957,0.319-0.957s-0.638,0-0.797-0.159l0.159-0.159l-0.159-0.16c0.159-0.159,0.159,0,0.159,0
	c-0.159-0.159,0-0.479,0-0.638l-0.797,0.319c0.159-0.16,0.638-0.639,0.319-0.639l0.319-0.158c0.478-0.479-0.16-0.319,0-0.479
	l0.318-0.16v0.16c0.16-0.16,0.319-0.319,0.479-0.479c-0.159,0-0.319-0.159-0.319-0.318c0-0.16-0.16-0.319,0.16-0.639l-0.319-0.159
	l0.16-0.319h0.319c0,0.16,0.16,0.639,0.16,0.957h0.159c0-0.159-0.159-0.318-0.159-0.479c0,0,0.319-0.159,0.478-0.159l-0.319-0.159
	c0-0.638,0-0.638,0.319-1.275h-0.159c0-0.16-0.16-0.318,0-0.318c0-0.319,0.159-0.798,0.478-0.957h-0.319c0-0.16,0.479-0.16,0-0.318
	l-0.159-0.16c0-0.159-0.16-0.159,0-0.318c0.159-0.319-0.319,0-0.16-0.319c0.16-0.159-0.319-0.159-0.319-0.319l0.479-0.158
	c0.319-0.319-0.16-0.319-0.16-0.639c0.16-0.159,0.479-0.318,0.797-0.159c-0.319-0.159-0.319,0-0.479-0.318c0.16,0,0.16,0,0.319,0
	c0.16-0.159-0.159-0.159-0.159-0.319c-0.319,0-0.797-0.158-0.797-0.158H72.25c-0.16-0.16-0.319-0.32-0.16-0.479h0.16v-0.159h0.159
	V81.17c0,0-0.159-0.319,0-0.319h0.16c0.319-0.319-0.16-0.638-0.16-0.956h0.16c0.159-0.16-0.319,0-0.16-0.16h0.319
	c-0.319-0.16,0-0.16,0.16-0.318h-0.319v-0.16c0.159-0.159,0.478-0.159,0.638-0.159l-0.319-0.159h0.319
	c-0.319-0.16,0-0.16-0.16-0.319c0.16,0,0.16,0,0.319,0l-0.478-0.319l0.159,0.16h-0.478c-0.319-0.16,0-0.318,0-0.318l0.159,0.158
	c-0.159-0.158,0.16-0.158,0.16-0.318c-0.16,0-0.16,0.16-0.319,0c0,0,0.159,0,0.159-0.159c-0.319,0-0.478-0.159-0.319-0.319h0.16
	c0,0-0.16,0,0-0.159h0.319l-0.319-0.159c0.159,0-0.16-0.16,0-0.16l0.159-0.637h0.319c-0.319,0,0.16-0.319-0.319-0.319
	c0.319-0.159-0.159-0.478,0.319-0.319c0-0.318-0.478-0.637-0.159-1.115c0.478-0.16,0.319-0.638,0.319-0.957
	c-0.16-0.637-0.319-0.956-0.479-1.594c0.638-0.318-0.159-0.957,0.16-1.275l-0.319-0.159c0.319-0.319-0.16-0.638,0.319-0.957
	c-0.16-0.159-0.16-0.159-0.16-0.159s0,0-0.159,0c0.159-0.16,0-0.318,0.319-0.318s-0.16-0.319,0.159-0.479h-0.319v-0.16
	c-0.797-0.797,0.319-1.275-0.319-2.072c0.319,0.159-0.159-0.16,0.16-0.16c0.478-0.158-0.16-0.318-0.319-0.478v-0.319
	c0.478,0.16-0.479-0.159,0,0c0.319-0.797,0-1.754,0.159-2.551H72.25c0-0.158-0.16-0.479,0-0.637c0.159-0.16-0.319-0.319-0.319-0.479
	c-0.159-0.16,0.16-0.319,0.16-0.319c0-0.159-0.478-0.319-0.319-0.638c0.479-0.159-0.479-0.797,0-0.797
	c0.319-0.318-0.319-0.638,0-1.116l-1.435-0.797l-1.595,0.159l-1.275,0.638l0.319,1.754l-0.478,1.435l0.159,3.508l0.319,0.318
	c-0.638,0.638,0.16,1.594-0.319,2.232h0.319c0,0.16-0.159,0.16-0.159,0.318c0,1.914,0.478,3.826,0.159,5.58
	c-0.159,0.16-0.159,0.639-0.319,0.797c0.319,0.639,0.319,1.116,0.319,1.754v0.318c0,0,0,0-0.159,0c0.319,0.319,0,0.798-0.16,1.117
	c0,2.072,0.479,4.145,0.16,6.217c-0.479,0.957,0.159,2.072-0.16,3.189C67.786,89.938,67.945,92.17,68.104,92.329z"/>
<path d="M68.583,95.678"/>
<path d="M72.25,91.054h0.159H72.25z"/>
<path d="M72.25,94.084C72.409,93.924,72.409,93.924,72.25,94.084C72.25,93.924,72.25,94.084,72.25,94.084z"/>
<path d="M68.743,96.793C68.743,96.953,68.902,96.953,68.743,96.793C68.902,96.793,68.902,96.793,68.743,96.793
	C68.902,96.793,68.902,96.793,68.743,96.793z"/>
<path d="M70.656,96.634"/>
<path fill="#FFFFFF" d="M150.369,96.475c-0.638,0-1.116,0.479-1.435,1.275l-3.029,9.725h-1.116l-2.232-7.652l-2.391,7.652h-0.638
	l-2.87-9.725c-0.159-0.478-0.159-0.797-0.319-0.797c-0.159-0.479-0.478-0.479-0.797-0.479v-0.638h4.942v0.638
	c-0.638,0-0.797,0.16-0.797,0.318c0,0.16,0,0.319,0.159,0.479l1.435,5.261l1.275-3.986c-0.159-0.479-0.319-1.115-0.638-1.754
	c-0.159-0.318-0.478-0.478-0.957-0.478v-0.638h5.102v0.797c-0.638,0-0.957,0.16-0.957,0.318c0,0.16,0,0.319,0.16,0.479l1.594,5.739
	l1.594-5.102c0-0.16,0.16-0.479,0.16-0.638c0-0.638-0.478-0.957-1.594-0.957v-0.638h3.507v0.797H150.369z"/>
<path fill="#FFFFFF" d="M158.021,102.852l-1.913-4.782l-1.753,4.782H158.021z M163.92,107.316h-5.739v-0.639h0.478
	c0.479,0,0.638-0.159,0.638-0.637c0-0.16-0.319-1.117-1.116-2.711h-4.146c-0.478,1.436-0.797,2.072-0.797,2.232
	c0,0.318,0,0.637,0.16,0.797c0.159,0.159,0.478,0.318,0.957,0.318h0.797v0.639h-4.623v-0.639h0.638c0.318,0,0.637-0.159,0.956-0.479
	c0.319-0.318,0.479-0.637,0.638-1.115l3.188-8.609l2.072-1.115l4.146,9.406c0.319,0.637,0.478,1.115,0.638,1.275
	c0.319,0.318,0.638,0.637,1.116,0.637V107.316z"/>
<path fill="#FFFFFF" d="M176.994,107.316h-6.058v-0.479h0.638c0.318,0,0.638-0.16,0.638-0.319s-0.16-0.319-0.319-0.638l-2.71-4.305
	l-0.478,0.319v3.826c0,0.797,0.319,1.116,0.957,1.116h0.478v0.479h-5.899v-0.479h0.479c0.638,0,0.957-0.319,0.957-1.116v-8.131
	c0-0.318-0.159-0.479-0.319-0.798c-0.159-0.158-0.478-0.318-0.797-0.318h-0.478v-0.638h5.899v0.638H169.5
	c-0.319,0-0.478,0.16-0.638,0.318c-0.159,0.16-0.319,0.479-0.319,0.798v3.667l3.667-3.348c0.319-0.319,0.478-0.479,0.478-0.957
	c0-0.318-0.319-0.318-0.957-0.318h-0.638v-0.639h5.102v0.479c-1.116,0-2.073,0.479-2.87,1.275l-2.072,1.913l3.826,5.899
	c0.16,0.318,0.478,0.637,0.957,0.956c0.318,0.319,0.638,0.479,0.957,0.479V107.316z"/>
<path fill="#FFFFFF" d="M183.211,107.316h-5.58v-0.639h0.478c0.479,0,0.797-0.479,0.797-1.435V97.75c0-0.318,0-0.638-0.16-0.957
	c-0.159-0.318-0.318-0.478-0.638-0.478h-0.478v-0.479h5.58v0.638h-0.638c-0.479,0-0.638,0.479-0.638,1.436v7.652
	c0,0.956,0.319,1.435,0.797,1.435h0.479V107.316z"/>
<path fill="#A2E2FF" d="M198.197,107.316h-5.898v-0.639c0.478,0,0.957,0,1.116-0.159c0.319-0.159,0.479-0.479,0.479-0.956v-6.059
	l-2.87,7.813h-0.638l-3.667-8.609v6.855c0,0.797,0.478,1.115,1.275,1.115h0.479v0.479h-3.826v-0.479h0.479
	c0.797,0,1.116-0.318,1.116-1.115V97.75c0-0.318-0.159-0.638-0.319-0.957c-0.319-0.318-0.478-0.478-0.797-0.478h-0.479v-0.638h3.986
	l3.348,7.812l2.87-7.812h3.667v0.797c-0.479,0-0.957,0.16-1.116,0.318c-0.16,0.16-0.319,0.479-0.319,0.957v7.971
	c0,0.479,0.159,0.798,0.478,0.957c0.16,0.16,0.478,0.16,1.116,0.16v0.479H198.197z"/>
<path fill="#A2E2FF" d="M204.734,107.316h-5.58v-0.639h0.479c0.479,0,0.797-0.479,0.797-1.435V97.75c0-0.318,0-0.638-0.16-0.957
	c-0.159-0.318-0.319-0.478-0.638-0.478h-0.479v-0.479h5.58v0.638h-0.638c-0.479,0-0.638,0.479-0.638,1.436v7.652
	c0,0.956,0.319,1.435,0.797,1.435h0.478V107.316z"/>
<path fill="#A2E2FF" d="M215.256,103.648l-0.957,3.668h-8.928v-0.957l6.696-10.044h-1.435c-1.594,0-3.188,0.957-4.624,3.028
	l-0.478-0.158l1.116-3.349h8.291v0.956l-6.537,10.045h1.594c0.797,0,1.594-0.319,2.551-0.957s1.754-1.435,2.232-2.391
	L215.256,103.648z"/>
<path fill="#A2E2FF" d="M228.647,96.475h-0.478c-0.319,0-0.479,0.16-0.797,0.318c-0.16,0.16-0.319,0.479-0.319,0.798v5.898
	c0,1.275-0.479,2.392-1.435,3.029c-0.957,0.638-1.914,0.956-3.348,0.956c-1.275,0-2.392-0.318-3.348-1.115s-1.435-1.754-1.435-3.029
	v-5.898c0-0.479-0.16-0.797-0.479-0.957c-0.16-0.159-0.638-0.159-1.116-0.159v-0.638h5.898v0.797c-0.478,0-0.797,0-1.116,0.16
	c-0.319,0.158-0.479,0.478-0.479,0.956v5.898c0,1.116,0.319,1.913,0.957,2.392c0.479,0.479,1.275,0.797,2.073,0.797
	c0.797,0,1.594-0.318,2.072-0.797c0.638-0.638,0.957-1.275,0.957-2.232v-6.058c0-0.479-0.16-0.956-0.638-1.116
	c0,0-0.479-0.159-1.276-0.159v-0.638h3.986v0.797H228.647z"/>
<path fill="#FFFFFF" d="M246.982,96.475h-0.639c-0.318,0-0.478,0.159-0.637,0.479c-0.159,0.318-0.319,0.637-0.319,0.956v9.726
	h-0.957l-7.493-9.247v7.333c0,0.319,0.16,0.479,0.479,0.798c0.319,0.159,0.638,0.319,0.957,0.319h0.319v0.637h-3.826v-0.637h0.319
	c0.319,0,0.638-0.16,0.797-0.319c0.159-0.159,0.318-0.479,0.318-0.798v-7.652c0-0.318-0.159-0.637-0.318-0.956
	c-0.16-0.319-0.479-0.479-0.797-0.479h-0.478v-0.478h3.985l6.218,7.174v-5.102c0-0.319-0.16-0.639-0.319-0.957
	c-0.16-0.318-0.479-0.479-0.638-0.479h-0.797v-0.479h3.986v0.16H246.982z"/>
<path fill="#FFFFFF" d="M256.707,101.576c0-1.594-0.318-2.711-0.797-3.826c-0.479-1.116-1.275-1.594-2.072-1.594
	s-1.595,0.478-2.073,1.594c-0.478,0.957-0.797,2.232-0.797,3.826s0.319,2.869,0.797,3.826c0.479,1.116,1.276,1.594,2.073,1.594
	s1.594-0.478,2.072-1.594C256.548,104.445,256.707,103.17,256.707,101.576z M259.896,101.576c0,1.754-0.479,3.188-1.596,4.305
	c-1.115,1.115-2.551,1.594-4.463,1.594c-1.914,0-3.349-0.479-4.465-1.594c-1.115-1.116-1.594-2.551-1.594-4.305
	s0.479-3.188,1.594-4.305c1.116-1.115,2.551-1.754,4.465-1.754c1.912,0,3.348,0.639,4.463,1.754
	C259.258,98.388,259.896,99.822,259.896,101.576z"/>
<path fill="#FFFFFF" d="M274.723,103.968c0,1.116-0.479,1.913-1.275,2.71c-0.797,0.639-1.754,0.957-2.711,0.957
	c-0.318,0-0.956-0.16-1.753-0.318c-0.798-0.16-1.275-0.319-1.595-0.319c-0.159,0-0.637,0.319-1.275,0.797l-0.797-4.464l0.479-0.16
	c0.318,0.957,0.957,1.754,1.913,2.551c0.956,0.798,1.913,1.276,3.028,1.276c0.479,0,0.797-0.159,1.117-0.479
	c0.318-0.319,0.478-0.798,0.478-1.275c0-0.956-0.638-1.754-1.753-2.231c-1.117-0.319-2.073-0.798-3.189-1.116
	c-1.115-0.638-1.754-1.595-1.754-2.87c0-0.957,0.318-1.753,1.116-2.391c0.638-0.639,1.595-0.798,2.551-0.798
	c0.638,0,1.435,0.159,2.392,0.479c0.16,0,0.318,0,0.479,0c0.318,0,0.797-0.159,1.275-0.638l0.638,3.985h-0.479
	c-0.478-0.956-1.116-1.913-1.913-2.391c-0.797-0.479-1.594-0.798-2.232-0.798c-0.478,0-0.797,0.16-1.275,0.638
	c-0.318,0.319-0.478,0.638-0.478,0.956c0,0.639,0.638,1.275,1.753,1.595c1.754,0.638,2.87,0.956,3.189,1.275
	C274.244,101.418,274.723,102.533,274.723,103.968z"/>
<path fill="#FFFFFF" d="M282.535,102.852l-1.914-4.782l-1.754,4.782H282.535z M288.434,107.316h-5.74v-0.639h0.479
	c0.479,0,0.639-0.159,0.639-0.637c0-0.16-0.32-1.117-1.117-2.711h-4.145c-0.479,1.436-0.797,2.072-0.797,2.232
	c0,0.318,0,0.637,0.158,0.797c0.16,0.159,0.479,0.318,0.957,0.318h0.798v0.639h-4.624v-0.639h0.639c0.318,0,0.637-0.159,0.956-0.479
	c0.319-0.318,0.478-0.637,0.638-1.115l3.188-8.609l2.073-1.115l4.145,9.406c0.318,0.637,0.479,1.115,0.638,1.275
	c0.319,0.318,0.638,0.637,1.116,0.637V107.316z"/>
<path fill="#FFFFFF" d="M301.027,99.504l-0.318,0.159c-0.479-0.798-1.115-1.435-1.913-2.073c-0.797-0.637-1.435-0.956-1.913-0.956
	c-0.159,0-0.318,0.159-0.479,0.319c0,0.159,0,0.318,0,0.797v8.131c0,0.797,0.319,1.115,1.116,1.115h0.319v0.639h-5.899v-0.639h0.319
	c0.797,0,1.115-0.318,1.115-1.115V97.75c0-0.318,0-0.638,0-0.797c0-0.16-0.159-0.319-0.479-0.319c-0.478,0-1.115,0.319-1.912,0.956
	c-0.798,0.639-1.436,1.436-1.914,2.073l-0.478-0.159l1.275-3.508h9.884L301.027,99.504z"/>
<path fill="#FFFFFF" d="M310.435,101.576c0-1.594-0.319-2.711-0.798-3.826c-0.479-1.116-1.275-1.594-2.072-1.594
	s-1.594,0.478-2.072,1.594c-0.479,0.957-0.797,2.232-0.797,3.826s0.318,2.869,0.797,3.826c0.479,1.116,1.275,1.594,2.072,1.594
	s1.594-0.478,2.072-1.594C310.115,104.445,310.435,103.17,310.435,101.576z M313.463,101.576c0,1.754-0.478,3.188-1.594,4.305
	c-1.115,1.115-2.551,1.594-4.464,1.594s-3.349-0.479-4.464-1.594c-1.116-1.116-1.595-2.551-1.595-4.305s0.479-3.188,1.595-4.305
	c1.115-1.115,2.551-1.754,4.464-1.754s3.349,0.639,4.464,1.754C312.985,98.388,313.463,99.822,313.463,101.576z"/>
<path fill="#FFFFFF" d="M153.717,39.559c0.16,0.479-0.159,0.957-0.797,1.275c-0.479,0.16-0.797,0.319-1.116,0.479
	c-0.797-0.638-1.275-1.435-1.594-2.232c-0.16-0.478-0.638-0.955-1.116-1.594c-0.159-0.159-0.319-0.479-0.319-0.638
	C150.529,37.327,152.283,38.125,153.717,39.559z M146.543,24.094c0.479,0.16,0.957,0.319,1.594,0.639
	c0.16,0.159,0.319,0.479,0.16,1.115c-0.16,0.479-0.638,0.798-1.435,1.117c-0.638,0.318-1.275,0.797-1.594,1.275
	c0.638-0.16,1.435-0.319,2.392-0.479c0.478,0,0.957,0.318,1.116,0.637c0.16,0.16,0.16,0.319,0,0.639
	c-0.159,0.318-0.957,1.115-2.232,2.391l3.667-0.159c0-0.478,0.16-1.116,0.16-1.595v-2.072c0-2.072,0-3.508-0.16-3.826
	c0-0.479-0.16-0.797-0.16-0.957C148.297,22.818,147.181,23.297,146.543,24.094z M143.992,31.428c0.16,0,0.319,0,0.638,0
	c0.956-0.637,1.435-1.435,1.594-2.072c-0.479-0.159-0.957-0.479-1.435-1.115c0.319-0.639,0.797-1.275,1.435-2.072l-0.319-0.479
	c-0.319-0.319-0.638-0.319-0.797,0C144.311,27.442,143.992,29.355,143.992,31.428z M148.137,15.008
	c0.797,0.638,0.957,1.594,0.479,2.869c0.319,0,0.478,0,0.638-0.16c0.319-0.318,0.638-0.478,1.116-0.478
	c0.318,0,0.797-0.159,1.435-0.159c0.479,0,0.957,0,1.275,0.159c0.159,0.159,0.319,0.478,0.319,0.797
	c0,0.159-0.319,0.479-0.797,0.798c-0.797,0.318-1.913,0.637-3.029,0.956c-0.479,0.159-0.957,0.319-1.275,0.319
	c-0.797,1.434-1.594,2.391-2.551,3.028c-0.797,0.638-1.275,0.956-1.275,1.116c0,0.479,0.159,0.957,0.159,1.275
	c1.913-2.711,3.667-3.986,5.102-3.826c1.275,0,2.073,0.638,2.551,1.594c0.318,0.797,0.478,3.029,0.478,6.855
	c0,1.275,0,2.232-0.16,2.87c0,0.797-0.318,1.116-0.956,1.116c-1.116-0.479-1.913-0.639-2.073-0.639
	c-0.319,0-0.957-0.158-1.594-0.158h-1.594c0.478,0.318,1.116,0.638,1.594,1.115c2.232,0,4.145,0.16,5.42,0.16
	c1.116,0,1.913,0,2.392-0.16c0.478,0.16,1.275,0.479,2.391,0.957c1.116,0.479,1.116,1.115-0.159,1.754
	c-0.797,0-2.232-0.16-4.305-0.797c-1.594-0.319-3.826-0.479-6.696-0.479c-2.073,2.71-4.145,4.145-6.218,4.464
	c-1.116-0.638-0.957-1.276,0.319-1.754c0.319-0.319,0.797-0.638,1.116-1.116c0.319-0.318,0.638-0.638,0.797-0.957
	c-1.913,0.479-3.029,0.798-3.507,0.957c-0.638,0.16-1.435,0.318-2.392,0.479c-1.435,0-2.232-0.638-2.072-2.072
	c0.478-0.957,1.116-0.957,1.913-0.16c0.319,0.319,0.478,0.319,0.638,0.16c3.348-0.639,5.58-1.275,6.696-1.595
	c-0.319-0.318-0.638-0.479-1.116-0.479V33.66c0.478-0.16,0.797-0.318,1.116-0.318c-1.275-0.957-2.232-1.595-2.551-2.073
	c-0.319-0.478-0.479-0.797-0.479-0.956c0.319-1.275,0.638-2.551,0.797-3.667c0.479-2.392,1.275-4.146,2.232-5.103l0.638-1.594
	c-0.797,0-1.913-0.479-2.87-0.957c-0.319-0.318-0.319-0.478,0-0.478c1.435,0.159,2.87,0.159,3.826-0.159
	c0.16-0.479,0.319-1.116,0.319-1.754c0-0.479-0.319-0.956-1.116-1.275c-0.479,0-0.638-0.16-0.319-0.318
	c0.319-0.319,0.956-0.639,1.753-0.639C147.021,14.369,147.659,14.529,148.137,15.008z"/>
<path fill="#FFFFFF" d="M184.328,16.441c1.116,0.957,1.116,1.595,0.159,2.073c-0.638,0-1.435,0.159-2.232,0.159
	c-0.638,0-1.116,0-1.275-0.159c0,0,0-0.159,0.159-0.159c0.16-0.319,0.319-0.479,0.319-0.639c-0.797-0.637-1.275-0.956-1.594-0.956
	c-0.319-0.159-0.319-0.319-0.159-0.478c1.116-0.638,2.072-0.957,2.87-0.798C183.211,15.485,183.69,15.805,184.328,16.441z
	 M182.414,32.544c0.16,0.319,0,0.638-0.319,0.798l-1.116,0.318c-0.797,0.159-1.594,0.159-2.073,0
	c0.16-0.318,0.319-0.479,0.319-0.638c-0.638-0.479-1.275-0.798-1.913-0.798c-0.478-0.158-0.478-0.318,0-0.478
	c0.479-0.319,1.275-0.638,2.232-0.638C181.139,30.949,182.095,31.428,182.414,32.544z M178.269,21.703l1.594-0.16
	c1.754-0.478,3.507-0.797,4.783-0.797c0.479,0,1.276,0,2.073-0.159c0.957,0,1.913,0.319,2.551,0.798
	c0.479,0.478,0.797,0.956,0.797,1.434c0,0.479-0.16,0.957-0.638,1.117c-0.797,0.318-1.594,0.637-2.391,0.956
	c-0.638,0.159-1.594,0.479-2.71,0.638c1.275,0.318,2.072,0.957,2.551,1.754l2.072,0.159c1.435,0.159,2.392,0.638,2.71,1.595
	c-0.318,0.318-0.956,0.637-1.913,0.637c-1.435-0.158-2.392-0.158-2.71-0.158c0,1.115,0,2.072-0.159,2.869l0.159,0.957
	c0.16,1.434,0.319,3.188,0.478,4.783c0,1.115-0.478,2.231-1.913,3.348l-1.595-0.16c-3.029-1.435-4.942-3.508-5.739-6.217
	c-0.159-0.479-0.319-0.798-0.159-0.798c0.797,1.275,1.913,2.231,3.507,2.71c1.435,0.319,2.232,0.639,2.55,0.639
	c0.479,0,0.638-0.16,0.638-0.639c0-0.637-0.16-1.594-0.16-2.71c-0.159-1.913-0.159-3.188-0.159-3.667s0-0.957,0-1.275
	c-0.638,0-1.594,0-2.551,0.16c-1.115,0.158-2.232,0.318-3.029,0.637c-0.797,0.319-1.594,0.479-2.232,0.479
	c-0.478,0-0.797-0.159-1.116-0.318c-0.319-0.16-0.479-0.479-0.479-0.797c0-0.639,0.16-1.117,0.638-1.117
	c0,0.16,0.16,0.479,0.319,0.639c0.957-0.16,2.232-0.479,3.826-0.797c2.232-0.319,3.827-0.479,4.464-0.639
	c0-0.479,0-0.797-0.16-1.115c-0.159-0.16-0.318-0.318-0.637-0.639c-0.638,0-1.275,0.16-1.595,0.16
	c0.638-0.479,1.914-1.436,3.508-2.551c0.797-0.479,1.275-0.957,1.594-1.275c0.16-0.479-0.159-0.639-0.797-0.639
	c-0.957,0-1.913,0.16-2.87,0.319c-2.072,0.479-3.667,1.275-4.783,2.552c-0.478,0.637-0.957,1.115-1.435,1.115
	c-0.957-0.318-1.435-1.115-1.435-2.072c0-0.639,0.319-1.595,0.637-2.551v-0.639c0,0,0.16,0,0.319,0
	C176.834,20.906,177.472,21.385,178.269,21.703z M175.399,17.877v0.638c0,0.159-0.159,0.478-0.319,1.116
	c-0.159,0.318-0.478,0.956-1.116,1.594c-0.957,0.957-1.595,1.754-2.073,2.232c0.319,0.318,0.638,0.638,1.116,1.115
	c0.797,0,1.435,0.16,1.913,0.639c-0.318,0.637-0.797,1.275-1.116,1.754c0,5.102-0.319,8.449-1.116,10.043
	c-0.638,1.436-1.753,2.551-3.029,3.029c-1.594,0.16-2.87-1.435-3.986-4.783c-0.16-0.637-0.319-0.956-0.16-0.956
	c0.638,0.956,1.595,1.754,2.551,2.073c0.478,0.158,0.957,0,1.275-0.16c0.638-0.797,1.275-1.913,1.594-3.029
	c0.319-1.115,0.478-2.072,0.478-3.029c0-0.479,0-0.956-0.159-1.435l-1.116,0.638c-2.551,1.913-4.783,3.029-7.015,3.508
	c-0.478,0.159-0.478,0.159-0.16-0.16c0.957-0.797,1.754-1.275,2.073-1.435c2.392-1.913,4.305-3.667,5.739-5.261
	c0-0.638-0.319-1.116-0.638-1.436c-2.232,1.596-3.826,2.393-5.102,2.232c-0.638,0-1.116-0.159-1.594-0.637
	c0.479-0.798,0.957-0.957,1.594-0.639c0.797-0.318,1.913-1.115,3.029-2.392c-0.638-0.319-1.594-0.797-2.87-1.275
	c0,0,0.159-0.159,0.478-0.159c1.435,0,2.551,0,3.507,0.479c1.435-0.957,2.551-2.232,3.189-3.826
	c-0.16-0.319-0.638-0.639-1.276-0.957c-0.319-0.159-0.478-0.479-0.319-0.638c0.319-0.319,0.638-0.478,1.116-0.478
	C173.327,16.283,174.443,16.761,175.399,17.877z"/>
<path fill="#FFFFFF" d="M206.647,24.572c-0.957,0.16-1.594,0.639-2.072,1.436c0.159,0.16,0.319,0.479,0.638,0.957
	c1.275-0.16,2.391-0.479,3.029-0.957c1.913-0.797,2.87-1.594,3.029-2.232C209.198,24.095,207.604,24.254,206.647,24.572z
	 M213.024,16.92c0.319,0.319,0.319,0.639,0.159,0.798l-0.797,0.319c-2.232,0.956-3.667,1.594-4.146,1.912
	c-0.638,0.319-1.753,0.639-3.188,1.116l-0.478,0.159c1.275-0.956,2.232-1.754,2.87-2.072c-1.913-0.159-3.188-0.479-3.827-1.115
	c-0.478-0.319-0.956-0.639-1.275-1.117c0-0.159,0.319-0.159,0.797-0.159c0.16,0,0.638,0,1.116,0.159c0.319,0,0.797,0.16,1.435,0.16
	c1.913-0.319,3.826-0.797,5.421-1.116C211.749,15.805,212.387,16.123,213.024,16.92z M214.14,22.5
	c0.638,0.319,1.116,0.797,1.116,1.116s-0.16,0.798-0.957,1.435l-2.551,2.392l-0.16,0.798c-1.435,0.637-2.551,1.275-3.029,1.912
	c0.479,0,0.957,0,1.594-0.158c0.479,0,0.957-0.16,1.435-0.16s1.116,0.16,1.594,0.479c0.479,0.159,0.797,0.638,0.797,1.115
	c0,0.957-0.956,2.232-3.029,3.826l3.029,0.639c0.319,0,0.638-0.16,1.116-0.479c0.797,0.318,1.913,0.797,3.188,1.275
	c1.435,0.797,2.073,1.594,2.073,2.072s-0.319,0.957-0.957,1.275c-3.348-0.957-6.696-1.594-9.885-1.912
	c-3.667,0-5.899,0.158-6.377,0.637s-1.913,0.638-3.826,0.638c-0.638,0-1.276-0.159-2.073-0.319
	c-0.797-0.158-1.435-0.637-1.913-1.115c0.638,0,1.435-0.16,2.392-0.16c1.116-0.318,3.188-0.797,5.739-1.434
	c2.551-0.639,4.145-1.275,4.783-1.754c2.073-1.754,3.029-2.711,2.87-3.029c-1.914,0.318-3.667,0.957-5.261,1.594
	c-1.754,0.798-2.87,1.275-3.188,1.436c-0.16,0.159-0.479,0-0.638-0.479c-0.479-1.116-0.479-1.913,0.159-2.232
	c1.116-0.479,2.232-1.275,3.029-2.231c-0.319,0-0.479,0-0.638-0.159c-2.232-1.914-3.508-3.189-3.667-3.668
	c-0.319-0.637-0.638-1.275-0.638-1.912c0-0.639,0.159-0.957,0.479-0.957c0.478,0,0.797,0,1.116-0.159s0.637-0.319,0.957-0.319
	c-1.116,0.957-1.116,1.754,0.159,2.072l0.797-0.318c1.913-1.115,4.305-1.754,7.174-2.072C211.43,22.022,212.546,22.182,214.14,22.5z
	"/>
<path fill="#FFFFFF" d="M238.533,25.37c0.16,0.159,0.319,0.478,0.638,0.638l0.638-0.638v-0.159c-0.159,0-0.638,0-1.116,0
	L238.533,25.37z M239.649,16.283c0.159,0.318,0,0.637-0.319,0.956c-0.638,0.159-1.436,0.159-2.232,0.159
	c-0.638,0-1.116,0-1.275-0.159l0.797-0.479c-0.479-0.319-1.116-0.638-1.913-0.956c0-0.159,0-0.319,0.319-0.479l1.753-0.638
	C237.895,14.529,238.852,15.008,239.649,16.283z M238.852,30.152c0.797,0,1.754,0,2.551-0.159c1.435-0.159,2.71,0.159,3.507,0.798
	c0.638,0.637,1.116,1.275,1.276,1.754c0.159,0.478,0.159,0.957,0.159,1.435c0,1.594-0.319,3.348-0.957,5.101
	c-0.638,1.754-1.914,2.551-3.826,2.551c-0.638,0-1.436-0.318-2.073-0.797c-0.638-0.478-1.275-1.115-1.753-1.912
	c-0.319-0.319-0.16-0.479,0.638-0.16c0.637,0.16,1.435,0.318,2.391,0.318c0.797,0,1.435-0.158,1.913-0.637
	c0.638-0.639,1.116-1.436,1.275-2.392c0-0.956,0.16-1.595,0.16-2.072c0-1.116-0.16-1.913-0.479-2.392s-0.797-0.639-1.435-0.639
	c-1.275,0-2.71,0.319-4.305,0.639c-0.159,0.159-0.159,0.479-0.159,0.637l0.478,0.32c0.16,0,0.479,0,0.957-0.32
	c0.797-0.158,1.435,0,1.913,0.479c0,0.319,0,0.479,0,0.639c-0.797,0.638-1.594,1.275-2.073,1.754
	c0.479,0.158,0.957,0.318,1.435,0.478c0.319,0,0.638,0.319,0.957,0.638s0.479,0.797,0.319,1.116c0,0.319-0.319,0.478-1.116,0.638
	c-0.479,0-1.116,0.16-1.913,0.16c-0.319,0-0.638,0-0.957-0.16c0,0,0-0.16,0.159-0.318c0.638-0.479,1.116-0.798,1.436-0.957
	l-0.16-0.318h-0.957c-0.797,0-1.435,0.158-1.754,0.637c-0.319,0.319-0.638,0.479-0.957,0.479c-0.159,0-0.319-0.318-0.159-0.638
	c0.318-0.638,0.638-1.116,1.116-1.435l0.638-0.638v-0.159c-0.957-0.479-1.435-1.115-1.275-2.073c0-0.159,0.16-0.319,0.16-0.478
	l-1.116,0.158c-0.319,0-0.478,0-0.478-0.318l1.913-0.957c0.159-0.637,0.638-1.753,1.116-3.028c0.16-0.319,0.478-0.479,0.957-0.159
	l0.637,0.318C239.489,28.24,239.489,29.037,238.852,30.152z M243.634,21.544c1.435,0.319,2.232,0.638,2.232,0.797
	c0.159,0.319,0,0.638-0.478,0.638c-0.638,0-1.275,0-1.594,0c0.159,2.869,0.319,4.783,0.319,5.739c0,0.638-0.479,1.116-1.275,1.116
	c-0.957,0-2.073-0.638-3.508-1.754c-1.435-1.275-2.072-2.232-2.072-2.71c0-0.319,0.159-0.479,0.479-0.638
	c0.478-0.16,1.116-0.318,2.072-0.318c0.479,0,0.797,0,1.116,0.158c0.159,0,0.478,0.319,0.638,0.798
	c0.159,0.478-0.479,0.956-2.073,1.275c0.637,0.638,1.435,1.116,2.392,1.275c0,0,0.159-0.159,0.319-0.159l-0.16-2.551
	c0-0.479,0-1.116,0-2.072l-2.391,0.158c-1.754,0-3.029,0.479-3.667,1.275c-0.479,0.479-0.957,1.914-1.275,4.305
	c0,0.479-0.319,0.957-0.957,1.116c-0.797-0.638-1.116-1.275-0.957-1.913c0.638-1.594,0.957-2.71,0.957-3.029
	c-0.797,0.797-1.436,1.436-1.754,1.595c-0.159,0.159-0.479,0-0.638-0.638c0.638-1.594,2.072-3.348,3.986-5.102
	c0.159,0,0.319-0.16,0.638-0.16c0.159,0,0.319,0.16,0.159,0.639c-0.319,0.797-0.797,1.754-1.275,2.551
	c0.16,0,0.319,0.159,0.319,0.637c1.275-1.115,2.551-1.753,3.507-2.072c0.797-0.318,1.754-0.478,2.551-0.637l0.638-0.16
	c0-0.479,0-0.797,0-0.797c0-0.16-0.478-0.479-1.116-0.957c0.957-0.479,1.753-0.318,2.232,0.318
	C243.475,20.428,243.634,20.906,243.634,21.544z M233.431,37.008c0.159,0.797,0.478,1.436,0.638,2.072
	c0.159,1.276-0.319,1.436-1.594,0.319c-1.116-1.274-1.594-3.188-1.435-5.579c0-0.479,0-0.957,0.16-1.436
	c0-0.479,0-0.797,0.159-1.116c0-0.159,0.159-0.159,0.159,0C232.475,32.545,233.112,34.298,233.431,37.008z M246.504,18.355
	c0.318,0.318,0.318,0.637,0.16,0.956c0,0.319-0.319,0.638-0.798,0.638c-1.913-0.159-3.667-0.318-5.102-0.479
	c-1.594,0-2.87,0-3.826,0.16c-1.116,0.159-1.913,0.318-2.232,0.637c-0.797,0.639-2.392,2.711-4.624,6.059l-1.594,2.072
	c-0.478,0.479-0.957,0.957-1.435,1.275c-0.797,0.957-1.435,0.639-1.594-0.956c0-0.478,0.16-0.797,0.478-0.956
	c0.479-0.319,1.116-0.639,1.754-1.116c1.116-1.275,2.072-2.392,2.551-3.188c0.478-0.797,0.957-1.913,1.594-3.029
	c-0.319,0-1.116,0.159-2.073,0.159c-0.638-0.319-1.116-0.956-1.116-1.595c0.159,0,0.319,0,0.637,0.16c0,0,0.16,0.159,0.319,0.159
	c2.551-0.159,5.42-0.478,8.45-1.116c0.957,0,2.232-0.159,3.667-0.159c0.957,0,1.594-0.159,2.073-0.638
	C244.91,17.559,245.707,17.877,246.504,18.355z"/>
<path fill="#FFFFFF" d="M275.36,21.703c0.159,0.16,0.159,0.319-0.159,0.638c-2.392,0.479-4.465,0.956-6.377,1.275
	c0.637,1.435,1.115,2.71,1.115,3.985c0,0.479-0.159,1.436-0.637,2.551c-0.16,0.479-0.479,1.116-0.639,1.754l8.449,0.319
	c1.117,0.319,2.073,0.956,2.552,1.754c0.478,0.638,0.638,1.116,0.638,1.274c-0.638,0.479-1.436,0.639-2.232,0.479
	c-1.594-0.479-2.869-0.956-3.508-1.115c-0.955-0.319-2.71-0.479-5.26-0.479c-2.551,0-4.146,0.159-4.783,0.479
	c-0.638,0.159-1.754,0.479-3.189,0.637c-1.115,0-2.869-0.318-4.941-1.434c-0.16-0.16-0.16-0.318,0.159-0.318l1.116,0.158
	c2.71-0.638,4.941-0.957,6.695-1.115c1.595-1.117,2.551-3.189,2.711-5.899c0-1.275-0.16-2.073-0.638-2.551
	c-1.595-0.319-3.349-0.798-4.783-1.275c-0.797-0.479-1.435-0.797-1.913-1.116c-0.479-0.159-0.479-0.318-0.159-0.479
	c1.753,0,3.348,0,4.623,0.16c3.349-0.319,6.218-0.639,8.45-0.957C273.447,20.268,274.404,20.746,275.36,21.703z"/>
<path fill="#FFFFFF" d="M301.666,15.326c0.638,0.159,0.957,0.637,0.957,1.435c0,0.319-0.16,0.638-0.479,0.798
	c-0.957,0.318-1.754,0.318-2.392-0.16c-1.754-0.797-2.87-1.436-3.188-1.754c0.637-0.479,1.754-0.797,3.508-0.797
	C300.391,14.848,301.028,15.007,301.666,15.326z M296.246,36.849c0.637,0.956,1.594,1.435,2.869,1.435
	c0.638,0,1.594-0.638,2.551-1.754c0.638-0.956,1.115-2.231,1.435-3.666c0-0.479-0.478-0.957-1.595-1.275
	C299.274,33.819,297.68,35.573,296.246,36.849z M296.564,21.385c-0.16,0.638-0.318,1.275-0.479,1.912
	c1.913-0.159,3.508-0.318,4.623-0.637c1.116-0.479,1.914-1.436,2.072-2.551C300.391,20.268,298.318,20.587,296.564,21.385z
	 M293.695,28.559c2.391-0.479,4.623-0.957,6.695-1.275c-1.436-0.479-2.392-1.115-2.869-1.914c-0.798,0-1.596,0-2.232,0
	C294.811,26.486,294.332,27.602,293.695,28.559z M305.014,19.152c0.797,0.159,1.436,0.797,1.754,1.594c0,0.319,0,0.639-0.159,0.797
	c-0.319,0.16-0.798,0.319-1.275,0.639c-1.116,0.956-2.71,1.754-4.624,2.391c0.319,0.16,0.639,0.319,0.797,0.479
	c0.319,0.16,0.639,0.638,0.798,1.117c0,0.318,0.159,0.478,0.159,0.637l3.188,0.159c0.479-0.159,0.957-0.159,1.595-0.159
	c0.479,0,0.957-0.159,1.594-0.159c0.479,0,1.275,0.478,2.072,1.274c0.16,0.16,0.16,0.479-0.158,0.798
	c-0.319,0.159-0.798,0.319-1.436,0.319c-1.754-0.479-4.145-0.639-7.493-0.639c0.319,0.319,0.479,0.798,0.159,1.275
	c0.319,0.16,0.957,0.479,1.754,1.117c1.116,0.637,1.595,1.434,1.595,2.072c0,1.594-0.638,3.348-1.754,5.262
	c-1.116,1.912-2.392,2.869-3.507,2.869c-0.639,0-1.436-0.16-2.073-0.638c-0.478-0.319-1.275-1.595-2.551-3.508
	c-0.797,0.478-1.595,0.797-2.231,0.956c-0.319,0-0.797,0.16-1.117,0.16c-0.158,0-0.797-0.16-1.594-0.319
	c-0.318-0.159-0.159-0.319,0.16-0.319c2.072-0.956,3.985-2.391,5.58-4.304c0.797-0.798,1.594-1.595,2.391-2.551
	c0.638-0.638,0.797-1.116,0.16-1.435c-0.479,0.159-1.117,0.318-1.754,0.479c-0.797,0.158-1.595,0.158-2.551,0.158l-1.436-0.318
	c-0.797,1.594-1.754,3.029-2.71,4.305c-1.116,2.072-2.231,3.029-3.029,2.869c-0.638-0.318-1.116-1.115-1.435-2.072
	c0.318-0.318,0.638-0.478,0.957-0.318c0.956-0.479,2.391-2.072,3.826-4.783c1.754-2.869,3.029-5.58,3.826-7.971l-2.551-1.595
	c0.318,0,0.637,0,1.115,0c1.116-0.319,2.711-0.479,4.783-0.638c2.232-0.16,3.985-0.318,4.941-0.318
	C303.42,18.674,304.057,18.834,305.014,19.152z"/>
</svg>
