<?xml version="1.0" encoding="utf-8"?>
<!-- Generator: Adobe Illustrator 16.0.0, SVG Export Plug-In . SVG Version: 6.00 Build 0)  -->
<!DOCTYPE svg PUBLIC "-//W3C//DTD SVG 1.1//EN" "http://www.w3.org/Graphics/SVG/1.1/DTD/svg11.dtd">
<svg version="1.1" id="レイヤー_1" xmlns="http://www.w3.org/2000/svg" xmlns:xlink="http://www.w3.org/1999/xlink" x="0px"
	 y="0px" width="26.917px" height="20.333px" viewBox="0 0 26.917 20.333" enable-background="new 0 0 26.917 20.333"
	 xml:space="preserve">
<path fill="#574A20" d="M8.884,13.177c0-2.511,2.025-4.536,4.536-4.536c2.511,0,4.536,2.025,4.536,4.536s-2.025,4.536-4.536,4.536
	C10.909,17.713,8.884,15.688,8.884,13.177z M15.715,4.537v2.592h-4.59V4.537H15.715z M8.803,4.537v1.728
	c0,1.89-1.215,3.294-3.213,5.238c-1.863,1.809-2.484,4.05-2.484,6.426c0,0.864,0.325,1.269,1.242,1.269h18.144
	c0.918,0,1.242-0.405,1.242-1.269c0-2.376-0.621-4.617-2.484-6.426c-1.998-1.944-3.213-3.348-3.213-5.238V4.537h2.889l-1.107,2.862
	c-0.162,0.432-0.216,0.918,0.351,0.999l4.914,0.837c0.486,0.054,0.756-0.216,0.756-0.756c0-1.188-0.162-3.78-1.458-4.779
	C22.114,1.945,19.144,1,13.42,1C7.696,1,4.726,1.945,2.458,3.7C1.162,4.699,1,7.291,1,8.479c0,0.54,0.27,0.81,0.756,0.756
	L6.67,8.398C7.237,8.29,7.183,7.831,7.021,7.399L5.914,4.537H8.803z"/>
</svg>
