[2019-01-23 09:55:58,428548] admin.INFO  [NULL] [33ff78ac] [NULL] [LogListener:onKernelRequestEarly:47] - INIT   [GET, /wakimizu/eccube/html/wakimizunosato/, 60.71.4.237, NULL, Mozilla/5.0 (Windows NT 10.0; Win64; x64) AppleWebKit/537.36 (KHTML, like Gecko) Chrome/71.0.3578.98 Safari/537.36]
[2019-01-23 09:56:03,537000] admin.INFO  [55beaa10] [33ff78ac] [NULL] [LogListener:onKernelResponse:86] - LOGIC END ["admin_homepage"]  [GET, /wakimizu/eccube/html/wakimizunosato/, 60.71.4.237, NULL, Mozilla/5.0 (Windows NT 10.0; Win64; x64) AppleWebKit/537.36 (KHTML, like Gecko) Chrome/71.0.3578.98 Safari/537.36]
[2019-01-23 09:56:03,538141] admin.INFO  [55beaa10] [33ff78ac] [NULL] [LogListener:onKernelTerminate:95] - PROCESS END ["admin_homepage"]  [GET, /wakimizu/eccube/html/wakimizunosato/, 60.71.4.237, NULL, Mozilla/5.0 (Windows NT 10.0; Win64; x64) AppleWebKit/537.36 (KHTML, like Gecko) Chrome/71.0.3578.98 Safari/537.36]
[2019-01-23 09:56:13,143053] admin.INFO  [NULL] [38d2affb] [NULL] [LogListener:onKernelRequestEarly:47] - INIT   [POST, /wakimizu/eccube/html/wakimizunosato/login_check, 60.71.4.237, http://webcheck3.x0.com/wakimizu/eccube/html/wakimizunosato/, Mozilla/5.0 (Windows NT 10.0; Win64; x64) AppleWebKit/537.36 (KHTML, like Gecko) Chrome/71.0.3578.98 Safari/537.36]
[2019-01-23 09:56:13,764583] admin.INFO  [55beaa10] [38d2affb] [NULL] [LogListener:onKernelResponse:86] - LOGIC END ["wakimizunosato_login_check"]  [POST, /wakimizu/eccube/html/wakimizunosato/login_check, 60.71.4.237, http://webcheck3.x0.com/wakimizu/eccube/html/wakimizunosato/, Mozilla/5.0 (Windows NT 10.0; Win64; x64) AppleWebKit/537.36 (KHTML, like Gecko) Chrome/71.0.3578.98 Safari/537.36]
[2019-01-23 09:56:13,766228] admin.INFO  [55beaa10] [38d2affb] [NULL] [LogListener:onKernelTerminate:95] - PROCESS END ["wakimizunosato_login_check"]  [POST, /wakimizu/eccube/html/wakimizunosato/login_check, 60.71.4.237, http://webcheck3.x0.com/wakimizu/eccube/html/wakimizunosato/, Mozilla/5.0 (Windows NT 10.0; Win64; x64) AppleWebKit/537.36 (KHTML, like Gecko) Chrome/71.0.3578.98 Safari/537.36]
[2019-01-23 09:56:14,947729] admin.INFO  [NULL] [c5b800d4] [NULL] [LogListener:onKernelRequestEarly:47] - INIT   [POST, /wakimizu/eccube/html/wakimizunosato/login_check, 60.71.4.237, http://webcheck3.x0.com/wakimizu/eccube/html/wakimizunosato/, Mozilla/5.0 (Windows NT 10.0; Win64; x64) AppleWebKit/537.36 (KHTML, like Gecko) Chrome/71.0.3578.98 Safari/537.36]
[2019-01-23 09:56:15,073341] admin.INFO  [55beaa10] [c5b800d4] [NULL] [LogListener:onKernelResponse:86] - LOGIC END ["wakimizunosato_login_check"]  [POST, /wakimizu/eccube/html/wakimizunosato/login_check, 60.71.4.237, http://webcheck3.x0.com/wakimizu/eccube/html/wakimizunosato/, Mozilla/5.0 (Windows NT 10.0; Win64; x64) AppleWebKit/537.36 (KHTML, like Gecko) Chrome/71.0.3578.98 Safari/537.36]
[2019-01-23 09:56:15,081180] admin.INFO  [55beaa10] [c5b800d4] [NULL] [LogListener:onKernelTerminate:95] - PROCESS END ["wakimizunosato_login_check"]  [POST, /wakimizu/eccube/html/wakimizunosato/login_check, 60.71.4.237, http://webcheck3.x0.com/wakimizu/eccube/html/wakimizunosato/, Mozilla/5.0 (Windows NT 10.0; Win64; x64) AppleWebKit/537.36 (KHTML, like Gecko) Chrome/71.0.3578.98 Safari/537.36]
[2019-01-23 09:56:16,844921] admin.INFO  [NULL] [6fe3743d] [NULL] [LogListener:onKernelRequestEarly:47] - INIT   [GET, /wakimizu/eccube/html/wakimizunosato/login, 60.71.4.237, http://webcheck3.x0.com/wakimizu/eccube/html/wakimizunosato/, Mozilla/5.0 (Windows NT 10.0; Win64; x64) AppleWebKit/537.36 (KHTML, like Gecko) Chrome/71.0.3578.98 Safari/537.36]
[2019-01-23 09:56:16,950386] admin.INFO  [55beaa10] [6fe3743d] [NULL] [LogListener:onKernelRequest:60] - PROCESS START ["admin_login"]  [GET, /wakimizu/eccube/html/wakimizunosato/login, 60.71.4.237, http://webcheck3.x0.com/wakimizu/eccube/html/wakimizunosato/, Mozilla/5.0 (Windows NT 10.0; Win64; x64) AppleWebKit/537.36 (KHTML, like Gecko) Chrome/71.0.3578.98 Safari/537.36]
[2019-01-23 09:56:17,204290] admin.INFO  [55beaa10] [6fe3743d] [NULL] [LogListener:onKernelController:73] - LOGIC START ["admin_login"]  [GET, /wakimizu/eccube/html/wakimizunosato/login, 60.71.4.237, http://webcheck3.x0.com/wakimizu/eccube/html/wakimizunosato/, Mozilla/5.0 (Windows NT 10.0; Win64; x64) AppleWebKit/537.36 (KHTML, like Gecko) Chrome/71.0.3578.98 Safari/537.36]
[2019-01-23 09:56:19,758849] admin.INFO  [55beaa10] [6fe3743d] [NULL] [LogListener:onKernelResponse:86] - LOGIC END ["admin_login"]  [GET, /wakimizu/eccube/html/wakimizunosato/login, 60.71.4.237, http://webcheck3.x0.com/wakimizu/eccube/html/wakimizunosato/, Mozilla/5.0 (Windows NT 10.0; Win64; x64) AppleWebKit/537.36 (KHTML, like Gecko) Chrome/71.0.3578.98 Safari/537.36]
[2019-01-23 09:56:20,218939] admin.INFO  [55beaa10] [6fe3743d] [NULL] [LogListener:onKernelTerminate:95] - PROCESS END ["admin_login"]  [GET, /wakimizu/eccube/html/wakimizunosato/login, 60.71.4.237, http://webcheck3.x0.com/wakimizu/eccube/html/wakimizunosato/, Mozilla/5.0 (Windows NT 10.0; Win64; x64) AppleWebKit/537.36 (KHTML, like Gecko) Chrome/71.0.3578.98 Safari/537.36]
[2019-01-23 09:56:39,184638] admin.INFO  [NULL] [a51e737a] [NULL] [LogListener:onKernelRequestEarly:47] - INIT   [POST, /wakimizu/eccube/html/wakimizunosato/login_check, 60.71.4.237, http://webcheck3.x0.com/wakimizu/eccube/html/wakimizunosato/login, Mozilla/5.0 (Windows NT 10.0; Win64; x64) AppleWebKit/537.36 (KHTML, like Gecko) Chrome/71.0.3578.98 Safari/537.36]
[2019-01-23 09:56:39,325300] admin.INFO  [55beaa10] [a51e737a] [NULL] [LogListener:onKernelResponse:86] - LOGIC END ["wakimizunosato_login_check"]  [POST, /wakimizu/eccube/html/wakimizunosato/login_check, 60.71.4.237, http://webcheck3.x0.com/wakimizu/eccube/html/wakimizunosato/login, Mozilla/5.0 (Windows NT 10.0; Win64; x64) AppleWebKit/537.36 (KHTML, like Gecko) Chrome/71.0.3578.98 Safari/537.36]
[2019-01-23 09:56:39,409223] admin.INFO  [55beaa10] [a51e737a] [NULL] [LogListener:onKernelTerminate:95] - PROCESS END ["wakimizunosato_login_check"]  [POST, /wakimizu/eccube/html/wakimizunosato/login_check, 60.71.4.237, http://webcheck3.x0.com/wakimizu/eccube/html/wakimizunosato/login, Mozilla/5.0 (Windows NT 10.0; Win64; x64) AppleWebKit/537.36 (KHTML, like Gecko) Chrome/71.0.3578.98 Safari/537.36]
[2019-01-23 09:56:42,498129] admin.INFO  [NULL] [4d51cf9a] [NULL] [LogListener:onKernelRequestEarly:47] - INIT   [GET, /wakimizu/eccube/html/wakimizunosato/login, 60.71.4.237, http://webcheck3.x0.com/wakimizu/eccube/html/wakimizunosato/login, Mozilla/5.0 (Windows NT 10.0; Win64; x64) AppleWebKit/537.36 (KHTML, like Gecko) Chrome/71.0.3578.98 Safari/537.36]
[2019-01-23 09:56:42,591826] admin.INFO  [55beaa10] [4d51cf9a] [NULL] [LogListener:onKernelRequest:60] - PROCESS START ["admin_login"]  [GET, /wakimizu/eccube/html/wakimizunosato/login, 60.71.4.237, http://webcheck3.x0.com/wakimizu/eccube/html/wakimizunosato/login, Mozilla/5.0 (Windows NT 10.0; Win64; x64) AppleWebKit/537.36 (KHTML, like Gecko) Chrome/71.0.3578.98 Safari/537.36]
[2019-01-23 09:56:42,802998] admin.INFO  [55beaa10] [4d51cf9a] [NULL] [LogListener:onKernelController:73] - LOGIC START ["admin_login"]  [GET, /wakimizu/eccube/html/wakimizunosato/login, 60.71.4.237, http://webcheck3.x0.com/wakimizu/eccube/html/wakimizunosato/login, Mozilla/5.0 (Windows NT 10.0; Win64; x64) AppleWebKit/537.36 (KHTML, like Gecko) Chrome/71.0.3578.98 Safari/537.36]
[2019-01-23 09:56:44,462702] admin.INFO  [55beaa10] [4d51cf9a] [NULL] [LogListener:onKernelResponse:86] - LOGIC END ["admin_login"]  [GET, /wakimizu/eccube/html/wakimizunosato/login, 60.71.4.237, http://webcheck3.x0.com/wakimizu/eccube/html/wakimizunosato/login, Mozilla/5.0 (Windows NT 10.0; Win64; x64) AppleWebKit/537.36 (KHTML, like Gecko) Chrome/71.0.3578.98 Safari/537.36]
[2019-01-23 09:56:44,467256] admin.INFO  [55beaa10] [4d51cf9a] [NULL] [LogListener:onKernelTerminate:95] - PROCESS END ["admin_login"]  [GET, /wakimizu/eccube/html/wakimizunosato/login, 60.71.4.237, http://webcheck3.x0.com/wakimizu/eccube/html/wakimizunosato/login, Mozilla/5.0 (Windows NT 10.0; Win64; x64) AppleWebKit/537.36 (KHTML, like Gecko) Chrome/71.0.3578.98 Safari/537.36]
[2019-01-23 09:56:57,638605] admin.INFO  [NULL] [dbba05f2] [NULL] [LogListener:onKernelRequestEarly:47] - INIT   [GET, /wakimizu/eccube/html/wakimizunosato/login, 60.71.4.237, NULL, Mozilla/5.0 (Windows NT 10.0; Win64; x64) AppleWebKit/537.36 (KHTML, like Gecko) Chrome/71.0.3578.98 Safari/537.36]
[2019-01-23 09:56:58,017041] admin.INFO  [55beaa10] [dbba05f2] [NULL] [LogListener:onKernelRequest:60] - PROCESS START ["admin_login"]  [GET, /wakimizu/eccube/html/wakimizunosato/login, 60.71.4.237, NULL, Mozilla/5.0 (Windows NT 10.0; Win64; x64) AppleWebKit/537.36 (KHTML, like Gecko) Chrome/71.0.3578.98 Safari/537.36]
[2019-01-23 09:56:58,656421] admin.INFO  [55beaa10] [dbba05f2] [NULL] [LogListener:onKernelController:73] - LOGIC START ["admin_login"]  [GET, /wakimizu/eccube/html/wakimizunosato/login, 60.71.4.237, NULL, Mozilla/5.0 (Windows NT 10.0; Win64; x64) AppleWebKit/537.36 (KHTML, like Gecko) Chrome/71.0.3578.98 Safari/537.36]
[2019-01-23 09:57:01,317470] admin.INFO  [55beaa10] [dbba05f2] [NULL] [LogListener:onKernelResponse:86] - LOGIC END ["admin_login"]  [GET, /wakimizu/eccube/html/wakimizunosato/login, 60.71.4.237, NULL, Mozilla/5.0 (Windows NT 10.0; Win64; x64) AppleWebKit/537.36 (KHTML, like Gecko) Chrome/71.0.3578.98 Safari/537.36]
[2019-01-23 09:57:01,677125] admin.INFO  [55beaa10] [dbba05f2] [NULL] [LogListener:onKernelTerminate:95] - PROCESS END ["admin_login"]  [GET, /wakimizu/eccube/html/wakimizunosato/login, 60.71.4.237, NULL, Mozilla/5.0 (Windows NT 10.0; Win64; x64) AppleWebKit/537.36 (KHTML, like Gecko) Chrome/71.0.3578.98 Safari/537.36]
[2019-01-23 09:57:03,941388] admin.INFO  [NULL] [23b9056e] [NULL] [LogListener:onKernelRequestEarly:47] - INIT   [POST, /wakimizu/eccube/html/wakimizunosato/login_check, 60.71.4.237, http://webcheck3.x0.com/wakimizu/eccube/html/wakimizunosato/login, Mozilla/5.0 (Windows NT 10.0; Win64; x64) AppleWebKit/537.36 (KHTML, like Gecko) Chrome/71.0.3578.98 Safari/537.36]
[2019-01-23 09:57:04,007183] admin.INFO  [55beaa10] [23b9056e] [NULL] [LogListener:onKernelResponse:86] - LOGIC END ["wakimizunosato_login_check"]  [POST, /wakimizu/eccube/html/wakimizunosato/login_check, 60.71.4.237, http://webcheck3.x0.com/wakimizu/eccube/html/wakimizunosato/login, Mozilla/5.0 (Windows NT 10.0; Win64; x64) AppleWebKit/537.36 (KHTML, like Gecko) Chrome/71.0.3578.98 Safari/537.36]
[2019-01-23 09:57:04,032108] admin.INFO  [55beaa10] [23b9056e] [NULL] [LogListener:onKernelTerminate:95] - PROCESS END ["wakimizunosato_login_check"]  [POST, /wakimizu/eccube/html/wakimizunosato/login_check, 60.71.4.237, http://webcheck3.x0.com/wakimizu/eccube/html/wakimizunosato/login, Mozilla/5.0 (Windows NT 10.0; Win64; x64) AppleWebKit/537.36 (KHTML, like Gecko) Chrome/71.0.3578.98 Safari/537.36]
[2019-01-23 09:57:03,601472] admin.INFO  [NULL] [36a66de5] [NULL] [LogListener:onKernelRequestEarly:47] - INIT   [POST, /wakimizu/eccube/html/wakimizunosato/login_check, 60.71.4.237, http://webcheck3.x0.com/wakimizu/eccube/html/wakimizunosato/login, Mozilla/5.0 (Windows NT 10.0; Win64; x64) AppleWebKit/537.36 (KHTML, like Gecko) Chrome/71.0.3578.98 Safari/537.36]
[2019-01-23 09:57:04,053411] admin.INFO  [e1e1ea34] [36a66de5] [2] [LogListener:onKernelResponse:86] - LOGIC END ["wakimizunosato_login_check"]  [POST, /wakimizu/eccube/html/wakimizunosato/login_check, 60.71.4.237, http://webcheck3.x0.com/wakimizu/eccube/html/wakimizunosato/login, Mozilla/5.0 (Windows NT 10.0; Win64; x64) AppleWebKit/537.36 (KHTML, like Gecko) Chrome/71.0.3578.98 Safari/537.36]
[2019-01-23 09:57:04,054999] admin.INFO  [e1e1ea34] [36a66de5] [2] [LogListener:onKernelTerminate:95] - PROCESS END ["wakimizunosato_login_check"]  [POST, /wakimizu/eccube/html/wakimizunosato/login_check, 60.71.4.237, http://webcheck3.x0.com/wakimizu/eccube/html/wakimizunosato/login, Mozilla/5.0 (Windows NT 10.0; Win64; x64) AppleWebKit/537.36 (KHTML, like Gecko) Chrome/71.0.3578.98 Safari/537.36]
[2019-01-23 09:57:11,156787] admin.INFO  [NULL] [971acf81] [NULL] [LogListener:onKernelRequestEarly:47] - INIT   [GET, /wakimizu/eccube/html/wakimizunosato/, 60.71.4.237, http://webcheck3.x0.com/wakimizu/eccube/html/wakimizunosato/login, Mozilla/5.0 (Windows NT 10.0; Win64; x64) AppleWebKit/537.36 (KHTML, like Gecko) Chrome/71.0.3578.98 Safari/537.36]
[2019-01-23 09:57:11,779174] admin.INFO  [e1e1ea34] [971acf81] [2] [LogListener:onKernelRequest:60] - PROCESS START ["admin_homepage"]  [GET, /wakimizu/eccube/html/wakimizunosato/, 60.71.4.237, http://webcheck3.x0.com/wakimizu/eccube/html/wakimizunosato/login, Mozilla/5.0 (Windows NT 10.0; Win64; x64) AppleWebKit/537.36 (KHTML, like Gecko) Chrome/71.0.3578.98 Safari/537.36]
[2019-01-23 09:57:12,777159] admin.INFO  [e1e1ea34] [971acf81] [2] [LogListener:onKernelController:73] - LOGIC START ["admin_homepage"]  [GET, /wakimizu/eccube/html/wakimizunosato/, 60.71.4.237, http://webcheck3.x0.com/wakimizu/eccube/html/wakimizunosato/login, Mozilla/5.0 (Windows NT 10.0; Win64; x64) AppleWebKit/537.36 (KHTML, like Gecko) Chrome/71.0.3578.98 Safari/537.36]
[2019-01-23 09:57:17,517288] admin.INFO  [e1e1ea34] [971acf81] [2] [LogListener:onKernelResponse:86] - LOGIC END ["admin_homepage"]  [GET, /wakimizu/eccube/html/wakimizunosato/, 60.71.4.237, http://webcheck3.x0.com/wakimizu/eccube/html/wakimizunosato/login, Mozilla/5.0 (Windows NT 10.0; Win64; x64) AppleWebKit/537.36 (KHTML, like Gecko) Chrome/71.0.3578.98 Safari/537.36]
[2019-01-23 09:57:18,275906] admin.INFO  [e1e1ea34] [971acf81] [2] [LogListener:onKernelTerminate:95] - PROCESS END ["admin_homepage"]  [GET, /wakimizu/eccube/html/wakimizunosato/, 60.71.4.237, http://webcheck3.x0.com/wakimizu/eccube/html/wakimizunosato/login, Mozilla/5.0 (Windows NT 10.0; Win64; x64) AppleWebKit/537.36 (KHTML, like Gecko) Chrome/71.0.3578.98 Safari/537.36]
[2019-01-23 09:57:42,013982] admin.INFO  [NULL] [bc8eff6a] [NULL] [LogListener:onKernelRequestEarly:47] - INIT   [GET, /wakimizu/eccube/html/wakimizunosato/login, 124.214.71.109, NULL, Mozilla/5.0 (Windows NT 6.1; Win64; x64) AppleWebKit/537.36 (KHTML, like Gecko) Chrome/71.0.3578.98 Safari/537.36]
[2019-01-23 09:57:42,065692] admin.INFO  [NULL] [bc8eff6a] [NULL] [LogListener:onKernelRequest:60] - PROCESS START ["admin_login"]  [GET, /wakimizu/eccube/html/wakimizunosato/login, 124.214.71.109, NULL, Mozilla/5.0 (Windows NT 6.1; Win64; x64) AppleWebKit/537.36 (KHTML, like Gecko) Chrome/71.0.3578.98 Safari/537.36]
[2019-01-23 09:57:42,212668] admin.INFO  [cf92e84f] [bc8eff6a] [NULL] [LogListener:onKernelController:73] - LOGIC START ["admin_login"]  [GET, /wakimizu/eccube/html/wakimizunosato/login, 124.214.71.109, NULL, Mozilla/5.0 (Windows NT 6.1; Win64; x64) AppleWebKit/537.36 (KHTML, like Gecko) Chrome/71.0.3578.98 Safari/537.36]
[2019-01-23 09:57:44,507287] admin.INFO  [cf92e84f] [bc8eff6a] [NULL] [LogListener:onKernelResponse:86] - LOGIC END ["admin_login"]  [GET, /wakimizu/eccube/html/wakimizunosato/login, 124.214.71.109, NULL, Mozilla/5.0 (Windows NT 6.1; Win64; x64) AppleWebKit/537.36 (KHTML, like Gecko) Chrome/71.0.3578.98 Safari/537.36]
[2019-01-23 09:57:44,512065] admin.INFO  [cf92e84f] [bc8eff6a] [NULL] [LogListener:onKernelTerminate:95] - PROCESS END ["admin_login"]  [GET, /wakimizu/eccube/html/wakimizunosato/login, 124.214.71.109, NULL, Mozilla/5.0 (Windows NT 6.1; Win64; x64) AppleWebKit/537.36 (KHTML, like Gecko) Chrome/71.0.3578.98 Safari/537.36]
[2019-01-23 09:57:51,232185] admin.INFO  [NULL] [1808c57e] [NULL] [LogListener:onKernelRequestEarly:47] - INIT   [POST, /wakimizu/eccube/html/wakimizunosato/login_check, 124.214.71.109, http://webcheck3.x0.com/wakimizu/eccube/html/wakimizunosato/login, Mozilla/5.0 (Windows NT 6.1; Win64; x64) AppleWebKit/537.36 (KHTML, like Gecko) Chrome/71.0.3578.98 Safari/537.36]
[2019-01-23 09:57:51,959670] admin.INFO  [c80b2970] [1808c57e] [2] [LogListener:onKernelResponse:86] - LOGIC END ["wakimizunosato_login_check"]  [POST, /wakimizu/eccube/html/wakimizunosato/login_check, 124.214.71.109, http://webcheck3.x0.com/wakimizu/eccube/html/wakimizunosato/login, Mozilla/5.0 (Windows NT 6.1; Win64; x64) AppleWebKit/537.36 (KHTML, like Gecko) Chrome/71.0.3578.98 Safari/537.36]
[2019-01-23 09:57:52,220306] admin.INFO  [c80b2970] [1808c57e] [2] [LogListener:onKernelTerminate:95] - PROCESS END ["wakimizunosato_login_check"]  [POST, /wakimizu/eccube/html/wakimizunosato/login_check, 124.214.71.109, http://webcheck3.x0.com/wakimizu/eccube/html/wakimizunosato/login, Mozilla/5.0 (Windows NT 6.1; Win64; x64) AppleWebKit/537.36 (KHTML, like Gecko) Chrome/71.0.3578.98 Safari/537.36]
[2019-01-23 09:58:02,464294] admin.INFO  [NULL] [909a1bc1] [NULL] [LogListener:onKernelRequestEarly:47] - INIT   [GET, /wakimizu/eccube/html/wakimizunosato/, 124.214.71.109, http://webcheck3.x0.com/wakimizu/eccube/html/wakimizunosato/login, Mozilla/5.0 (Windows NT 6.1; Win64; x64) AppleWebKit/537.36 (KHTML, like Gecko) Chrome/71.0.3578.98 Safari/537.36]
[2019-01-23 09:58:02,949049] admin.INFO  [c80b2970] [909a1bc1] [2] [LogListener:onKernelRequest:60] - PROCESS START ["admin_homepage"]  [GET, /wakimizu/eccube/html/wakimizunosato/, 124.214.71.109, http://webcheck3.x0.com/wakimizu/eccube/html/wakimizunosato/login, Mozilla/5.0 (Windows NT 6.1; Win64; x64) AppleWebKit/537.36 (KHTML, like Gecko) Chrome/71.0.3578.98 Safari/537.36]
[2019-01-23 09:58:03,854446] admin.INFO  [c80b2970] [909a1bc1] [2] [LogListener:onKernelController:73] - LOGIC START ["admin_homepage"]  [GET, /wakimizu/eccube/html/wakimizunosato/, 124.214.71.109, http://webcheck3.x0.com/wakimizu/eccube/html/wakimizunosato/login, Mozilla/5.0 (Windows NT 6.1; Win64; x64) AppleWebKit/537.36 (KHTML, like Gecko) Chrome/71.0.3578.98 Safari/537.36]
[2019-01-23 09:58:07,041696] admin.INFO  [c80b2970] [909a1bc1] [2] [LogListener:onKernelResponse:86] - LOGIC END ["admin_homepage"]  [GET, /wakimizu/eccube/html/wakimizunosato/, 124.214.71.109, http://webcheck3.x0.com/wakimizu/eccube/html/wakimizunosato/login, Mozilla/5.0 (Windows NT 6.1; Win64; x64) AppleWebKit/537.36 (KHTML, like Gecko) Chrome/71.0.3578.98 Safari/537.36]
[2019-01-23 09:58:07,091007] admin.INFO  [c80b2970] [909a1bc1] [2] [LogListener:onKernelTerminate:95] - PROCESS END ["admin_homepage"]  [GET, /wakimizu/eccube/html/wakimizunosato/, 124.214.71.109, http://webcheck3.x0.com/wakimizu/eccube/html/wakimizunosato/login, Mozilla/5.0 (Windows NT 6.1; Win64; x64) AppleWebKit/537.36 (KHTML, like Gecko) Chrome/71.0.3578.98 Safari/537.36]
[2019-01-23 09:58:19,404535] admin.INFO  [NULL] [28656308] [NULL] [LogListener:onKernelRequestEarly:47] - INIT   [GET, /wakimizu/eccube/html/wakimizunosato/change_password, 124.214.71.109, http://webcheck3.x0.com/wakimizu/eccube/html/wakimizunosato/, Mozilla/5.0 (Windows NT 6.1; Win64; x64) AppleWebKit/537.36 (KHTML, like Gecko) Chrome/71.0.3578.98 Safari/537.36]
[2019-01-23 09:58:19,489562] admin.INFO  [c80b2970] [28656308] [2] [LogListener:onKernelRequest:60] - PROCESS START ["admin_change_password"]  [GET, /wakimizu/eccube/html/wakimizunosato/change_password, 124.214.71.109, http://webcheck3.x0.com/wakimizu/eccube/html/wakimizunosato/, Mozilla/5.0 (Windows NT 6.1; Win64; x64) AppleWebKit/537.36 (KHTML, like Gecko) Chrome/71.0.3578.98 Safari/537.36]
[2019-01-23 09:58:20,370624] admin.INFO  [c80b2970] [28656308] [2] [LogListener:onKernelController:73] - LOGIC START ["admin_change_password"]  [GET, /wakimizu/eccube/html/wakimizunosato/change_password, 124.214.71.109, http://webcheck3.x0.com/wakimizu/eccube/html/wakimizunosato/, Mozilla/5.0 (Windows NT 6.1; Win64; x64) AppleWebKit/537.36 (KHTML, like Gecko) Chrome/71.0.3578.98 Safari/537.36]
[2019-01-23 09:58:23,193264] admin.INFO  [c80b2970] [28656308] [2] [LogListener:onKernelResponse:86] - LOGIC END ["admin_change_password"]  [GET, /wakimizu/eccube/html/wakimizunosato/change_password, 124.214.71.109, http://webcheck3.x0.com/wakimizu/eccube/html/wakimizunosato/, Mozilla/5.0 (Windows NT 6.1; Win64; x64) AppleWebKit/537.36 (KHTML, like Gecko) Chrome/71.0.3578.98 Safari/537.36]
[2019-01-23 09:58:23,242501] admin.INFO  [c80b2970] [28656308] [2] [LogListener:onKernelTerminate:95] - PROCESS END ["admin_change_password"]  [GET, /wakimizu/eccube/html/wakimizunosato/change_password, 124.214.71.109, http://webcheck3.x0.com/wakimizu/eccube/html/wakimizunosato/, Mozilla/5.0 (Windows NT 6.1; Win64; x64) AppleWebKit/537.36 (KHTML, like Gecko) Chrome/71.0.3578.98 Safari/537.36]
[2019-01-23 09:58:44,493692] admin.INFO  [NULL] [c92a082d] [NULL] [LogListener:onKernelRequestEarly:47] - INIT   [POST, /wakimizu/eccube/html/wakimizunosato/change_password, 124.214.71.109, http://webcheck3.x0.com/wakimizu/eccube/html/wakimizunosato/change_password, Mozilla/5.0 (Windows NT 6.1; Win64; x64) AppleWebKit/537.36 (KHTML, like Gecko) Chrome/71.0.3578.98 Safari/537.36]
[2019-01-23 09:58:44,679384] admin.INFO  [c80b2970] [c92a082d] [2] [LogListener:onKernelRequest:60] - PROCESS START ["admin_change_password"]  [POST, /wakimizu/eccube/html/wakimizunosato/change_password, 124.214.71.109, http://webcheck3.x0.com/wakimizu/eccube/html/wakimizunosato/change_password, Mozilla/5.0 (Windows NT 6.1; Win64; x64) AppleWebKit/537.36 (KHTML, like Gecko) Chrome/71.0.3578.98 Safari/537.36]
[2019-01-23 09:58:44,972929] admin.INFO  [c80b2970] [c92a082d] [2] [LogListener:onKernelController:73] - LOGIC START ["admin_change_password"]  [POST, /wakimizu/eccube/html/wakimizunosato/change_password, 124.214.71.109, http://webcheck3.x0.com/wakimizu/eccube/html/wakimizunosato/change_password, Mozilla/5.0 (Windows NT 6.1; Win64; x64) AppleWebKit/537.36 (KHTML, like Gecko) Chrome/71.0.3578.98 Safari/537.36]
[2019-01-23 09:58:46,227559] admin.INFO  [c80b2970] [c92a082d] [2] [LogListener:onKernelResponse:86] - LOGIC END ["admin_change_password"]  [POST, /wakimizu/eccube/html/wakimizunosato/change_password, 124.214.71.109, http://webcheck3.x0.com/wakimizu/eccube/html/wakimizunosato/change_password, Mozilla/5.0 (Windows NT 6.1; Win64; x64) AppleWebKit/537.36 (KHTML, like Gecko) Chrome/71.0.3578.98 Safari/537.36]
[2019-01-23 09:58:46,231700] admin.INFO  [c80b2970] [c92a082d] [2] [LogListener:onKernelTerminate:95] - PROCESS END ["admin_change_password"]  [POST, /wakimizu/eccube/html/wakimizunosato/change_password, 124.214.71.109, http://webcheck3.x0.com/wakimizu/eccube/html/wakimizunosato/change_password, Mozilla/5.0 (Windows NT 6.1; Win64; x64) AppleWebKit/537.36 (KHTML, like Gecko) Chrome/71.0.3578.98 Safari/537.36]
[2019-01-23 09:58:48,267252] admin.INFO  [NULL] [b4d356e4] [NULL] [LogListener:onKernelRequestEarly:47] - INIT   [GET, /wakimizu/eccube/html/wakimizunosato/change_password, 124.214.71.109, http://webcheck3.x0.com/wakimizu/eccube/html/wakimizunosato/change_password, Mozilla/5.0 (Windows NT 6.1; Win64; x64) AppleWebKit/537.36 (KHTML, like Gecko) Chrome/71.0.3578.98 Safari/537.36]
[2019-01-23 09:58:48,308186] admin.INFO  [c80b2970] [b4d356e4] [2] [LogListener:onKernelRequest:60] - PROCESS START ["admin_change_password"]  [GET, /wakimizu/eccube/html/wakimizunosato/change_password, 124.214.71.109, http://webcheck3.x0.com/wakimizu/eccube/html/wakimizunosato/change_password, Mozilla/5.0 (Windows NT 6.1; Win64; x64) AppleWebKit/537.36 (KHTML, like Gecko) Chrome/71.0.3578.98 Safari/537.36]
[2019-01-23 09:58:48,439284] admin.INFO  [c80b2970] [b4d356e4] [2] [LogListener:onKernelController:73] - LOGIC START ["admin_change_password"]  [GET, /wakimizu/eccube/html/wakimizunosato/change_password, 124.214.71.109, http://webcheck3.x0.com/wakimizu/eccube/html/wakimizunosato/change_password, Mozilla/5.0 (Windows NT 6.1; Win64; x64) AppleWebKit/537.36 (KHTML, like Gecko) Chrome/71.0.3578.98 Safari/537.36]
[2019-01-23 09:58:51,546407] admin.INFO  [c80b2970] [b4d356e4] [2] [LogListener:onKernelResponse:86] - LOGIC END ["admin_change_password"]  [GET, /wakimizu/eccube/html/wakimizunosato/change_password, 124.214.71.109, http://webcheck3.x0.com/wakimizu/eccube/html/wakimizunosato/change_password, Mozilla/5.0 (Windows NT 6.1; Win64; x64) AppleWebKit/537.36 (KHTML, like Gecko) Chrome/71.0.3578.98 Safari/537.36]
[2019-01-23 09:58:51,723290] admin.INFO  [c80b2970] [b4d356e4] [2] [LogListener:onKernelTerminate:95] - PROCESS END ["admin_change_password"]  [GET, /wakimizu/eccube/html/wakimizunosato/change_password, 124.214.71.109, http://webcheck3.x0.com/wakimizu/eccube/html/wakimizunosato/change_password, Mozilla/5.0 (Windows NT 6.1; Win64; x64) AppleWebKit/537.36 (KHTML, like Gecko) Chrome/71.0.3578.98 Safari/537.36]
[2019-01-23 10:23:44,205098] admin.INFO  [NULL] [d529abd9] [NULL] [LogListener:onKernelRequestEarly:47] - INIT   [POST, /wakimizu/eccube/html/wakimizunosato/order, 60.71.4.237, http://webcheck3.x0.com/wakimizu/eccube/html/wakimizunosato/, Mozilla/5.0 (Windows NT 10.0; Win64; x64) AppleWebKit/537.36 (KHTML, like Gecko) Chrome/71.0.3578.98 Safari/537.36]
[2019-01-23 10:23:47,751769] admin.INFO  [e1e1ea34] [d529abd9] [2] [LogListener:onKernelRequest:60] - PROCESS START ["admin_order"]  [POST, /wakimizu/eccube/html/wakimizunosato/order, 60.71.4.237, http://webcheck3.x0.com/wakimizu/eccube/html/wakimizunosato/, Mozilla/5.0 (Windows NT 10.0; Win64; x64) AppleWebKit/537.36 (KHTML, like Gecko) Chrome/71.0.3578.98 Safari/537.36]
[2019-01-23 10:23:47,840588] admin.INFO  [e1e1ea34] [d529abd9] [2] [LogListener:onKernelController:73] - LOGIC START ["admin_order"]  [POST, /wakimizu/eccube/html/wakimizunosato/order, 60.71.4.237, http://webcheck3.x0.com/wakimizu/eccube/html/wakimizunosato/, Mozilla/5.0 (Windows NT 10.0; Win64; x64) AppleWebKit/537.36 (KHTML, like Gecko) Chrome/71.0.3578.98 Safari/537.36]
[2019-01-23 10:23:48,330192] admin.INFO  [e1e1ea34] [d529abd9] [2] [LogListener:onKernelResponse:86] - LOGIC END ["admin_order"]  [POST, /wakimizu/eccube/html/wakimizunosato/order, 60.71.4.237, http://webcheck3.x0.com/wakimizu/eccube/html/wakimizunosato/, Mozilla/5.0 (Windows NT 10.0; Win64; x64) AppleWebKit/537.36 (KHTML, like Gecko) Chrome/71.0.3578.98 Safari/537.36]
[2019-01-23 10:23:48,334105] admin.INFO  [e1e1ea34] [d529abd9] [2] [LogListener:onKernelTerminate:95] - PROCESS END ["admin_order"]  [POST, /wakimizu/eccube/html/wakimizunosato/order, 60.71.4.237, http://webcheck3.x0.com/wakimizu/eccube/html/wakimizunosato/, Mozilla/5.0 (Windows NT 10.0; Win64; x64) AppleWebKit/537.36 (KHTML, like Gecko) Chrome/71.0.3578.98 Safari/537.36]
[2019-01-23 10:25:12,438690] admin.INFO  [NULL] [e1341a29] [NULL] [LogListener:onKernelRequestEarly:47] - INIT   [GET, /wakimizu/eccube/html/wakimizunosato/order/1/edit, 60.71.4.237, http://webcheck3.x0.com/wakimizu/eccube/html/wakimizunosato/order, Mozilla/5.0 (Windows NT 10.0; Win64; x64) AppleWebKit/537.36 (KHTML, like Gecko) Chrome/71.0.3578.98 Safari/537.36]
[2019-01-23 10:25:12,997559] admin.INFO  [e1e1ea34] [e1341a29] [2] [LogListener:onKernelRequest:60] - PROCESS START ["admin_order_edit"]  [GET, /wakimizu/eccube/html/wakimizunosato/order/1/edit, 60.71.4.237, http://webcheck3.x0.com/wakimizu/eccube/html/wakimizunosato/order, Mozilla/5.0 (Windows NT 10.0; Win64; x64) AppleWebKit/537.36 (KHTML, like Gecko) Chrome/71.0.3578.98 Safari/537.36]
[2019-01-23 10:25:14,039239] admin.INFO  [e1e1ea34] [e1341a29] [2] [LogListener:onKernelController:73] - LOGIC START ["admin_order_edit"]  [GET, /wakimizu/eccube/html/wakimizunosato/order/1/edit, 60.71.4.237, http://webcheck3.x0.com/wakimizu/eccube/html/wakimizunosato/order, Mozilla/5.0 (Windows NT 10.0; Win64; x64) AppleWebKit/537.36 (KHTML, like Gecko) Chrome/71.0.3578.98 Safari/537.36]
[2019-01-23 10:25:26,848559] admin.INFO  [e1e1ea34] [e1341a29] [2] [LogListener:onKernelResponse:86] - LOGIC END ["admin_order_edit"]  [GET, /wakimizu/eccube/html/wakimizunosato/order/1/edit, 60.71.4.237, http://webcheck3.x0.com/wakimizu/eccube/html/wakimizunosato/order, Mozilla/5.0 (Windows NT 10.0; Win64; x64) AppleWebKit/537.36 (KHTML, like Gecko) Chrome/71.0.3578.98 Safari/537.36]
[2019-01-23 10:25:27,097616] admin.INFO  [e1e1ea34] [e1341a29] [2] [LogListener:onKernelTerminate:95] - PROCESS END ["admin_order_edit"]  [GET, /wakimizu/eccube/html/wakimizunosato/order/1/edit, 60.71.4.237, http://webcheck3.x0.com/wakimizu/eccube/html/wakimizunosato/order, Mozilla/5.0 (Windows NT 10.0; Win64; x64) AppleWebKit/537.36 (KHTML, like Gecko) Chrome/71.0.3578.98 Safari/537.36]
[2019-01-23 10:25:38,475287] admin.INFO  [NULL] [ca8e9cb7] [NULL] [LogListener:onKernelRequestEarly:47] - INIT   [POST, /wakimizu/eccube/html/wakimizunosato/order/1/delete, 60.71.4.237, http://webcheck3.x0.com/wakimizu/eccube/html/wakimizunosato/order, Mozilla/5.0 (Windows NT 10.0; Win64; x64) AppleWebKit/537.36 (KHTML, like Gecko) Chrome/71.0.3578.98 Safari/537.36]
[2019-01-23 10:25:38,857700] admin.INFO  [e1e1ea34] [ca8e9cb7] [2] [LogListener:onKernelRequest:60] - PROCESS START ["admin_order_delete"]  [POST, /wakimizu/eccube/html/wakimizunosato/order/1/delete, 60.71.4.237, http://webcheck3.x0.com/wakimizu/eccube/html/wakimizunosato/order, Mozilla/5.0 (Windows NT 10.0; Win64; x64) AppleWebKit/537.36 (KHTML, like Gecko) Chrome/71.0.3578.98 Safari/537.36]
[2019-01-23 10:25:39,366335] admin.INFO  [e1e1ea34] [ca8e9cb7] [2] [LogListener:onKernelController:73] - LOGIC START ["admin_order_delete"]  [POST, /wakimizu/eccube/html/wakimizunosato/order/1/delete, 60.71.4.237, http://webcheck3.x0.com/wakimizu/eccube/html/wakimizunosato/order, Mozilla/5.0 (Windows NT 10.0; Win64; x64) AppleWebKit/537.36 (KHTML, like Gecko) Chrome/71.0.3578.98 Safari/537.36]
[2019-01-23 10:25:39,879542] admin.INFO  [e1e1ea34] [ca8e9cb7] [2] [OrderController:delete:179] - 受注削除開始 [1]  [POST, /wakimizu/eccube/html/wakimizunosato/order/1/delete, 60.71.4.237, http://webcheck3.x0.com/wakimizu/eccube/html/wakimizunosato/order, Mozilla/5.0 (Windows NT 10.0; Win64; x64) AppleWebKit/537.36 (KHTML, like Gecko) Chrome/71.0.3578.98 Safari/537.36]
[2019-01-23 10:25:39,961940] admin.INFO  [e1e1ea34] [ca8e9cb7] [2] [OrderController:delete:203] - 受注削除完了 [1]  [POST, /wakimizu/eccube/html/wakimizunosato/order/1/delete, 60.71.4.237, http://webcheck3.x0.com/wakimizu/eccube/html/wakimizunosato/order, Mozilla/5.0 (Windows NT 10.0; Win64; x64) AppleWebKit/537.36 (KHTML, like Gecko) Chrome/71.0.3578.98 Safari/537.36]
[2019-01-23 10:25:39,967684] admin.INFO  [e1e1ea34] [ca8e9cb7] [2] [LogListener:onKernelResponse:86] - LOGIC END ["admin_order_delete"]  [POST, /wakimizu/eccube/html/wakimizunosato/order/1/delete, 60.71.4.237, http://webcheck3.x0.com/wakimizu/eccube/html/wakimizunosato/order, Mozilla/5.0 (Windows NT 10.0; Win64; x64) AppleWebKit/537.36 (KHTML, like Gecko) Chrome/71.0.3578.98 Safari/537.36]
[2019-01-23 10:25:39,974208] admin.INFO  [e1e1ea34] [ca8e9cb7] [2] [LogListener:onKernelTerminate:95] - PROCESS END ["admin_order_delete"]  [POST, /wakimizu/eccube/html/wakimizunosato/order/1/delete, 60.71.4.237, http://webcheck3.x0.com/wakimizu/eccube/html/wakimizunosato/order, Mozilla/5.0 (Windows NT 10.0; Win64; x64) AppleWebKit/537.36 (KHTML, like Gecko) Chrome/71.0.3578.98 Safari/537.36]
[2019-01-23 10:25:41,501038] admin.INFO  [NULL] [eef4b70c] [NULL] [LogListener:onKernelRequestEarly:47] - INIT   [GET, /wakimizu/eccube/html/wakimizunosato/order/page/1?resume=1, 60.71.4.237, http://webcheck3.x0.com/wakimizu/eccube/html/wakimizunosato/order, Mozilla/5.0 (Windows NT 10.0; Win64; x64) AppleWebKit/537.36 (KHTML, like Gecko) Chrome/71.0.3578.98 Safari/537.36]
[2019-01-23 10:25:41,699571] admin.INFO  [e1e1ea34] [eef4b70c] [2] [LogListener:onKernelRequest:60] - PROCESS START ["admin_order_page"]  [GET, /wakimizu/eccube/html/wakimizunosato/order/page/1?resume=1, 60.71.4.237, http://webcheck3.x0.com/wakimizu/eccube/html/wakimizunosato/order, Mozilla/5.0 (Windows NT 10.0; Win64; x64) AppleWebKit/537.36 (KHTML, like Gecko) Chrome/71.0.3578.98 Safari/537.36]
[2019-01-23 10:25:42,444767] admin.INFO  [e1e1ea34] [eef4b70c] [2] [LogListener:onKernelController:73] - LOGIC START ["admin_order_page"]  [GET, /wakimizu/eccube/html/wakimizunosato/order/page/1?resume=1, 60.71.4.237, http://webcheck3.x0.com/wakimizu/eccube/html/wakimizunosato/order, Mozilla/5.0 (Windows NT 10.0; Win64; x64) AppleWebKit/537.36 (KHTML, like Gecko) Chrome/71.0.3578.98 Safari/537.36]
[2019-01-23 10:25:45,945802] admin.INFO  [e1e1ea34] [eef4b70c] [2] [LogListener:onKernelResponse:86] - LOGIC END ["admin_order_page"]  [GET, /wakimizu/eccube/html/wakimizunosato/order/page/1?resume=1, 60.71.4.237, http://webcheck3.x0.com/wakimizu/eccube/html/wakimizunosato/order, Mozilla/5.0 (Windows NT 10.0; Win64; x64) AppleWebKit/537.36 (KHTML, like Gecko) Chrome/71.0.3578.98 Safari/537.36]
[2019-01-23 10:25:46,717511] admin.INFO  [e1e1ea34] [eef4b70c] [2] [LogListener:onKernelTerminate:95] - PROCESS END ["admin_order_page"]  [GET, /wakimizu/eccube/html/wakimizunosato/order/page/1?resume=1, 60.71.4.237, http://webcheck3.x0.com/wakimizu/eccube/html/wakimizunosato/order, Mozilla/5.0 (Windows NT 10.0; Win64; x64) AppleWebKit/537.36 (KHTML, like Gecko) Chrome/71.0.3578.98 Safari/537.36]
[2019-01-23 11:08:29,668922] admin.INFO  [NULL] [c4165a51] [NULL] [LogListener:onKernelRequestEarly:47] - INIT   [GET, /wakimizu/eccube/html/wakimizunosato/order/page/1?resume=1, 60.71.4.237, http://webcheck3.x0.com/wakimizu/eccube/html/wakimizunosato/order, Mozilla/5.0 (Windows NT 10.0; Win64; x64) AppleWebKit/537.36 (KHTML, like Gecko) Chrome/71.0.3578.98 Safari/537.36]
[2019-01-23 11:08:30,245398] admin.INFO  [e1e1ea34] [c4165a51] [2] [LogListener:onKernelRequest:60] - PROCESS START ["admin_order_page"]  [GET, /wakimizu/eccube/html/wakimizunosato/order/page/1?resume=1, 60.71.4.237, http://webcheck3.x0.com/wakimizu/eccube/html/wakimizunosato/order, Mozilla/5.0 (Windows NT 10.0; Win64; x64) AppleWebKit/537.36 (KHTML, like Gecko) Chrome/71.0.3578.98 Safari/537.36]
[2019-01-23 11:08:30,733083] admin.INFO  [e1e1ea34] [c4165a51] [2] [LogListener:onKernelController:73] - LOGIC START ["admin_order_page"]  [GET, /wakimizu/eccube/html/wakimizunosato/order/page/1?resume=1, 60.71.4.237, http://webcheck3.x0.com/wakimizu/eccube/html/wakimizunosato/order, Mozilla/5.0 (Windows NT 10.0; Win64; x64) AppleWebKit/537.36 (KHTML, like Gecko) Chrome/71.0.3578.98 Safari/537.36]
[2019-01-23 11:08:35,946202] admin.INFO  [e1e1ea34] [c4165a51] [2] [LogListener:onKernelResponse:86] - LOGIC END ["admin_order_page"]  [GET, /wakimizu/eccube/html/wakimizunosato/order/page/1?resume=1, 60.71.4.237, http://webcheck3.x0.com/wakimizu/eccube/html/wakimizunosato/order, Mozilla/5.0 (Windows NT 10.0; Win64; x64) AppleWebKit/537.36 (KHTML, like Gecko) Chrome/71.0.3578.98 Safari/537.36]
[2019-01-23 11:08:36,065094] admin.INFO  [e1e1ea34] [c4165a51] [2] [LogListener:onKernelTerminate:95] - PROCESS END ["admin_order_page"]  [GET, /wakimizu/eccube/html/wakimizunosato/order/page/1?resume=1, 60.71.4.237, http://webcheck3.x0.com/wakimizu/eccube/html/wakimizunosato/order, Mozilla/5.0 (Windows NT 10.0; Win64; x64) AppleWebKit/537.36 (KHTML, like Gecko) Chrome/71.0.3578.98 Safari/537.36]
[2019-01-23 16:03:47,370787] admin.INFO  [NULL] [e20c5146] [NULL] [LogListener:onKernelRequestEarly:47] - INIT   [GET, /wakimizu/eccube/html/wakimizunosato/login, 113.32.15.162, NULL, Mozilla/5.0 (Windows NT 6.1; Win64; x64) AppleWebKit/537.36 (KHTML, like Gecko) Chrome/71.0.3578.98 Safari/537.36]
[2019-01-23 16:03:47,421315] admin.INFO  [NULL] [e20c5146] [NULL] [LogListener:onKernelRequest:60] - PROCESS START ["admin_login"]  [GET, /wakimizu/eccube/html/wakimizunosato/login, 113.32.15.162, NULL, Mozilla/5.0 (Windows NT 6.1; Win64; x64) AppleWebKit/537.36 (KHTML, like Gecko) Chrome/71.0.3578.98 Safari/537.36]
[2019-01-23 16:03:48,070596] admin.INFO  [536a7aea] [e20c5146] [NULL] [LogListener:onKernelController:73] - LOGIC START ["admin_login"]  [GET, /wakimizu/eccube/html/wakimizunosato/login, 113.32.15.162, NULL, Mozilla/5.0 (Windows NT 6.1; Win64; x64) AppleWebKit/537.36 (KHTML, like Gecko) Chrome/71.0.3578.98 Safari/537.36]
[2019-01-23 16:03:48,547298] admin.INFO  [536a7aea] [e20c5146] [NULL] [LogListener:onKernelResponse:86] - LOGIC END ["admin_login"]  [GET, /wakimizu/eccube/html/wakimizunosato/login, 113.32.15.162, NULL, Mozilla/5.0 (Windows NT 6.1; Win64; x64) AppleWebKit/537.36 (KHTML, like Gecko) Chrome/71.0.3578.98 Safari/537.36]
[2019-01-23 16:03:48,550310] admin.INFO  [536a7aea] [e20c5146] [NULL] [LogListener:onKernelTerminate:95] - PROCESS END ["admin_login"]  [GET, /wakimizu/eccube/html/wakimizunosato/login, 113.32.15.162, NULL, Mozilla/5.0 (Windows NT 6.1; Win64; x64) AppleWebKit/537.36 (KHTML, like Gecko) Chrome/71.0.3578.98 Safari/537.36]
[2019-01-23 16:03:54,512087] admin.INFO  [NULL] [14a40ed5] [NULL] [LogListener:onKernelRequestEarly:47] - INIT   [POST, /wakimizu/eccube/html/wakimizunosato/login_check, 113.32.15.162, http://webcheck3.x0.com/wakimizu/eccube/html/wakimizunosato/login, Mozilla/5.0 (Windows NT 6.1; Win64; x64) AppleWebKit/537.36 (KHTML, like Gecko) Chrome/71.0.3578.98 Safari/537.36]
[2019-01-23 16:03:54,636131] admin.INFO  [144af9f9] [14a40ed5] [2] [LogListener:onKernelResponse:86] - LOGIC END ["wakimizunosato_login_check"]  [POST, /wakimizu/eccube/html/wakimizunosato/login_check, 113.32.15.162, http://webcheck3.x0.com/wakimizu/eccube/html/wakimizunosato/login, Mozilla/5.0 (Windows NT 6.1; Win64; x64) AppleWebKit/537.36 (KHTML, like Gecko) Chrome/71.0.3578.98 Safari/537.36]
[2019-01-23 16:03:54,637993] admin.INFO  [144af9f9] [14a40ed5] [2] [LogListener:onKernelTerminate:95] - PROCESS END ["wakimizunosato_login_check"]  [POST, /wakimizu/eccube/html/wakimizunosato/login_check, 113.32.15.162, http://webcheck3.x0.com/wakimizu/eccube/html/wakimizunosato/login, Mozilla/5.0 (Windows NT 6.1; Win64; x64) AppleWebKit/537.36 (KHTML, like Gecko) Chrome/71.0.3578.98 Safari/537.36]
[2019-01-23 16:03:57,003439] admin.INFO  [NULL] [6b047753] [NULL] [LogListener:onKernelRequestEarly:47] - INIT   [GET, /wakimizu/eccube/html/wakimizunosato/, 113.32.15.162, http://webcheck3.x0.com/wakimizu/eccube/html/wakimizunosato/login, Mozilla/5.0 (Windows NT 6.1; Win64; x64) AppleWebKit/537.36 (KHTML, like Gecko) Chrome/71.0.3578.98 Safari/537.36]
[2019-01-23 16:03:57,102640] admin.INFO  [144af9f9] [6b047753] [2] [LogListener:onKernelRequest:60] - PROCESS START ["admin_homepage"]  [GET, /wakimizu/eccube/html/wakimizunosato/, 113.32.15.162, http://webcheck3.x0.com/wakimizu/eccube/html/wakimizunosato/login, Mozilla/5.0 (Windows NT 6.1; Win64; x64) AppleWebKit/537.36 (KHTML, like Gecko) Chrome/71.0.3578.98 Safari/537.36]
[2019-01-23 16:03:57,179321] admin.INFO  [144af9f9] [6b047753] [2] [LogListener:onKernelController:73] - LOGIC START ["admin_homepage"]  [GET, /wakimizu/eccube/html/wakimizunosato/, 113.32.15.162, http://webcheck3.x0.com/wakimizu/eccube/html/wakimizunosato/login, Mozilla/5.0 (Windows NT 6.1; Win64; x64) AppleWebKit/537.36 (KHTML, like Gecko) Chrome/71.0.3578.98 Safari/537.36]
[2019-01-23 16:03:57,711998] admin.INFO  [144af9f9] [6b047753] [2] [LogListener:onKernelResponse:86] - LOGIC END ["admin_homepage"]  [GET, /wakimizu/eccube/html/wakimizunosato/, 113.32.15.162, http://webcheck3.x0.com/wakimizu/eccube/html/wakimizunosato/login, Mozilla/5.0 (Windows NT 6.1; Win64; x64) AppleWebKit/537.36 (KHTML, like Gecko) Chrome/71.0.3578.98 Safari/537.36]
[2019-01-23 16:03:57,716038] admin.INFO  [144af9f9] [6b047753] [2] [LogListener:onKernelTerminate:95] - PROCESS END ["admin_homepage"]  [GET, /wakimizu/eccube/html/wakimizunosato/, 113.32.15.162, http://webcheck3.x0.com/wakimizu/eccube/html/wakimizunosato/login, Mozilla/5.0 (Windows NT 6.1; Win64; x64) AppleWebKit/537.36 (KHTML, like Gecko) Chrome/71.0.3578.98 Safari/537.36]
[2019-01-23 16:04:03,051761] admin.INFO  [NULL] [6aa77c42] [NULL] [LogListener:onKernelRequestEarly:47] - INIT   [GET, /wakimizu/eccube/html/wakimizunosato/product, 113.32.15.162, http://webcheck3.x0.com/wakimizu/eccube/html/wakimizunosato/, Mozilla/5.0 (Windows NT 6.1; Win64; x64) AppleWebKit/537.36 (KHTML, like Gecko) Chrome/71.0.3578.98 Safari/537.36]
[2019-01-23 16:04:03,085403] admin.INFO  [144af9f9] [6aa77c42] [2] [LogListener:onKernelRequest:60] - PROCESS START ["admin_product"]  [GET, /wakimizu/eccube/html/wakimizunosato/product, 113.32.15.162, http://webcheck3.x0.com/wakimizu/eccube/html/wakimizunosato/, Mozilla/5.0 (Windows NT 6.1; Win64; x64) AppleWebKit/537.36 (KHTML, like Gecko) Chrome/71.0.3578.98 Safari/537.36]
[2019-01-23 16:04:03,151791] admin.INFO  [144af9f9] [6aa77c42] [2] [LogListener:onKernelController:73] - LOGIC START ["admin_product"]  [GET, /wakimizu/eccube/html/wakimizunosato/product, 113.32.15.162, http://webcheck3.x0.com/wakimizu/eccube/html/wakimizunosato/, Mozilla/5.0 (Windows NT 6.1; Win64; x64) AppleWebKit/537.36 (KHTML, like Gecko) Chrome/71.0.3578.98 Safari/537.36]
[2019-01-23 16:04:03,714175] admin.INFO  [144af9f9] [6aa77c42] [2] [LogListener:onKernelResponse:86] - LOGIC END ["admin_product"]  [GET, /wakimizu/eccube/html/wakimizunosato/product, 113.32.15.162, http://webcheck3.x0.com/wakimizu/eccube/html/wakimizunosato/, Mozilla/5.0 (Windows NT 6.1; Win64; x64) AppleWebKit/537.36 (KHTML, like Gecko) Chrome/71.0.3578.98 Safari/537.36]
[2019-01-23 16:04:03,717093] admin.INFO  [144af9f9] [6aa77c42] [2] [LogListener:onKernelTerminate:95] - PROCESS END ["admin_product"]  [GET, /wakimizu/eccube/html/wakimizunosato/product, 113.32.15.162, http://webcheck3.x0.com/wakimizu/eccube/html/wakimizunosato/, Mozilla/5.0 (Windows NT 6.1; Win64; x64) AppleWebKit/537.36 (KHTML, like Gecko) Chrome/71.0.3578.98 Safari/537.36]
[2019-01-23 16:04:05,886757] admin.INFO  [NULL] [2f8f1245] [NULL] [LogListener:onKernelRequestEarly:47] - INIT   [GET, /wakimizu/eccube/html/wakimizunosato/product/product/new, 113.32.15.162, http://webcheck3.x0.com/wakimizu/eccube/html/wakimizunosato/product, Mozilla/5.0 (Windows NT 6.1; Win64; x64) AppleWebKit/537.36 (KHTML, like Gecko) Chrome/71.0.3578.98 Safari/537.36]
[2019-01-23 16:04:05,919173] admin.INFO  [144af9f9] [2f8f1245] [2] [LogListener:onKernelRequest:60] - PROCESS START ["admin_product_product_new"]  [GET, /wakimizu/eccube/html/wakimizunosato/product/product/new, 113.32.15.162, http://webcheck3.x0.com/wakimizu/eccube/html/wakimizunosato/product, Mozilla/5.0 (Windows NT 6.1; Win64; x64) AppleWebKit/537.36 (KHTML, like Gecko) Chrome/71.0.3578.98 Safari/537.36]
[2019-01-23 16:04:05,984729] admin.INFO  [144af9f9] [2f8f1245] [2] [LogListener:onKernelController:73] - LOGIC START ["admin_product_product_new"]  [GET, /wakimizu/eccube/html/wakimizunosato/product/product/new, 113.32.15.162, http://webcheck3.x0.com/wakimizu/eccube/html/wakimizunosato/product, Mozilla/5.0 (Windows NT 6.1; Win64; x64) AppleWebKit/537.36 (KHTML, like Gecko) Chrome/71.0.3578.98 Safari/537.36]
[2019-01-23 16:04:06,611710] admin.INFO  [144af9f9] [2f8f1245] [2] [LogListener:onKernelResponse:86] - LOGIC END ["admin_product_product_new"]  [GET, /wakimizu/eccube/html/wakimizunosato/product/product/new, 113.32.15.162, http://webcheck3.x0.com/wakimizu/eccube/html/wakimizunosato/product, Mozilla/5.0 (Windows NT 6.1; Win64; x64) AppleWebKit/537.36 (KHTML, like Gecko) Chrome/71.0.3578.98 Safari/537.36]
[2019-01-23 16:04:06,615081] admin.INFO  [144af9f9] [2f8f1245] [2] [LogListener:onKernelTerminate:95] - PROCESS END ["admin_product_product_new"]  [GET, /wakimizu/eccube/html/wakimizunosato/product/product/new, 113.32.15.162, http://webcheck3.x0.com/wakimizu/eccube/html/wakimizunosato/product, Mozilla/5.0 (Windows NT 6.1; Win64; x64) AppleWebKit/537.36 (KHTML, like Gecko) Chrome/71.0.3578.98 Safari/537.36]
[2019-01-23 16:04:15,191723] admin.INFO  [NULL] [685eeebb] [NULL] [LogListener:onKernelRequestEarly:47] - INIT   [GET, /wakimizu/eccube/html/wakimizunosato/order, 113.32.15.162, http://webcheck3.x0.com/wakimizu/eccube/html/wakimizunosato/product/product/new, Mozilla/5.0 (Windows NT 6.1; Win64; x64) AppleWebKit/537.36 (KHTML, like Gecko) Chrome/71.0.3578.98 Safari/537.36]
[2019-01-23 16:04:15,227175] admin.INFO  [144af9f9] [685eeebb] [2] [LogListener:onKernelRequest:60] - PROCESS START ["admin_order"]  [GET, /wakimizu/eccube/html/wakimizunosato/order, 113.32.15.162, http://webcheck3.x0.com/wakimizu/eccube/html/wakimizunosato/product/product/new, Mozilla/5.0 (Windows NT 6.1; Win64; x64) AppleWebKit/537.36 (KHTML, like Gecko) Chrome/71.0.3578.98 Safari/537.36]
[2019-01-23 16:04:15,304121] admin.INFO  [144af9f9] [685eeebb] [2] [LogListener:onKernelController:73] - LOGIC START ["admin_order"]  [GET, /wakimizu/eccube/html/wakimizunosato/order, 113.32.15.162, http://webcheck3.x0.com/wakimizu/eccube/html/wakimizunosato/product/product/new, Mozilla/5.0 (Windows NT 6.1; Win64; x64) AppleWebKit/537.36 (KHTML, like Gecko) Chrome/71.0.3578.98 Safari/537.36]
[2019-01-23 16:04:15,651185] admin.INFO  [144af9f9] [685eeebb] [2] [LogListener:onKernelResponse:86] - LOGIC END ["admin_order"]  [GET, /wakimizu/eccube/html/wakimizunosato/order, 113.32.15.162, http://webcheck3.x0.com/wakimizu/eccube/html/wakimizunosato/product/product/new, Mozilla/5.0 (Windows NT 6.1; Win64; x64) AppleWebKit/537.36 (KHTML, like Gecko) Chrome/71.0.3578.98 Safari/537.36]
[2019-01-23 16:04:15,654437] admin.INFO  [144af9f9] [685eeebb] [2] [LogListener:onKernelTerminate:95] - PROCESS END ["admin_order"]  [GET, /wakimizu/eccube/html/wakimizunosato/order, 113.32.15.162, http://webcheck3.x0.com/wakimizu/eccube/html/wakimizunosato/product/product/new, Mozilla/5.0 (Windows NT 6.1; Win64; x64) AppleWebKit/537.36 (KHTML, like Gecko) Chrome/71.0.3578.98 Safari/537.36]
[2019-01-23 16:04:17,773386] admin.INFO  [NULL] [874bc670] [NULL] [LogListener:onKernelRequestEarly:47] - INIT   [GET, /wakimizu/eccube/html/wakimizunosato/, 113.32.15.162, http://webcheck3.x0.com/wakimizu/eccube/html/wakimizunosato/order, Mozilla/5.0 (Windows NT 6.1; Win64; x64) AppleWebKit/537.36 (KHTML, like Gecko) Chrome/71.0.3578.98 Safari/537.36]
[2019-01-23 16:04:17,810768] admin.INFO  [144af9f9] [874bc670] [2] [LogListener:onKernelRequest:60] - PROCESS START ["admin_homepage"]  [GET, /wakimizu/eccube/html/wakimizunosato/, 113.32.15.162, http://webcheck3.x0.com/wakimizu/eccube/html/wakimizunosato/order, Mozilla/5.0 (Windows NT 6.1; Win64; x64) AppleWebKit/537.36 (KHTML, like Gecko) Chrome/71.0.3578.98 Safari/537.36]
[2019-01-23 16:04:17,878463] admin.INFO  [144af9f9] [874bc670] [2] [LogListener:onKernelController:73] - LOGIC START ["admin_homepage"]  [GET, /wakimizu/eccube/html/wakimizunosato/, 113.32.15.162, http://webcheck3.x0.com/wakimizu/eccube/html/wakimizunosato/order, Mozilla/5.0 (Windows NT 6.1; Win64; x64) AppleWebKit/537.36 (KHTML, like Gecko) Chrome/71.0.3578.98 Safari/537.36]
[2019-01-23 16:04:18,337439] admin.INFO  [144af9f9] [874bc670] [2] [LogListener:onKernelResponse:86] - LOGIC END ["admin_homepage"]  [GET, /wakimizu/eccube/html/wakimizunosato/, 113.32.15.162, http://webcheck3.x0.com/wakimizu/eccube/html/wakimizunosato/order, Mozilla/5.0 (Windows NT 6.1; Win64; x64) AppleWebKit/537.36 (KHTML, like Gecko) Chrome/71.0.3578.98 Safari/537.36]
[2019-01-23 16:04:18,352067] admin.INFO  [144af9f9] [874bc670] [2] [LogListener:onKernelTerminate:95] - PROCESS END ["admin_homepage"]  [GET, /wakimizu/eccube/html/wakimizunosato/, 113.32.15.162, http://webcheck3.x0.com/wakimizu/eccube/html/wakimizunosato/order, Mozilla/5.0 (Windows NT 6.1; Win64; x64) AppleWebKit/537.36 (KHTML, like Gecko) Chrome/71.0.3578.98 Safari/537.36]
