<?xml version="1.0" encoding="utf-8"?>
<!-- Generator: Adobe Illustrator 16.0.0, SVG Export Plug-In . SVG Version: 6.00 Build 0)  -->
<!DOCTYPE svg PUBLIC "-//W3C//DTD SVG 1.1//EN" "http://www.w3.org/Graphics/SVG/1.1/DTD/svg11.dtd">
<svg version="1.1" xmlns="http://www.w3.org/2000/svg" xmlns:xlink="http://www.w3.org/1999/xlink" x="0px" y="0px" width="70px"
	 height="60px" viewBox="0 0 70 60" enable-background="new 0 0 70 60" xml:space="preserve">
<g id="メニュー">
	<g id="ランキング">
	</g>
</g>
<g id="こだわり">
	<rect x="149" y="-815" fill="#2B4F1C" width="0" height="4"/>
</g>
<g id="_xFF34__xFF2F__xFF30_">
	<g display="none">
		
			<text transform="matrix(1 0 0 1 684.4995 598.833)" display="inline" fill="#683B00" font-family="'KozGoPro-Heavy-90ms-RKSJ-H'" font-size="16">こだわりについて</text>
	</g>
	<title>Glyph</title>
</g>
<g id="店舗案内">
	<g>
		<path fill="#7A604B" d="M33.971,35.566c-0.046-0.107-0.083-0.212-0.113-0.296c-0.165-0.352-0.302-0.728-0.405-1.116
			c-0.004-0.006-0.006-0.008-0.009-0.015l-0.088-0.128c-0.23-0.338-0.467-0.688-0.639-1.119c-0.047-0.057-0.169-0.161-0.252-0.231
			c-0.212-0.179-0.45-0.386-0.607-0.654c-0.22-0.375-0.354-0.782-0.448-1.19c-0.093,0.044-0.185,0.083-0.265,0.132
			c-0.188,0.117-0.411,0.376-0.574,0.576c-0.375,0.457-0.93,0.743-1.16,1.339c-0.159-0.044-0.184-0.218-0.259-0.36
			c-0.068-0.133-0.191-0.27-0.225-0.396c-0.137-0.519,0.145-1.169,0.383-1.474c0.398-0.509,1.146-0.874,1.901-1.026
			c0.009-0.339,0.124-0.714,0.527-0.947c0.143-0.086,0.299-0.133,0.467-0.143c0.17-0.161,0.395-0.313,0.692-0.389
			c-0.04-0.064-0.088-0.128-0.12-0.197c-0.109-0.226-0.148-0.471-0.304-0.63c-0.441,0.058-0.946,0.38-1.475,0.395
			c-0.909,0.025-1.511-0.18-1.768-0.822c-0.199-0.102-0.365-0.21-0.495-0.382c-0.141-0.187-0.188-0.381-0.292-0.585
			c-0.096-0.185-0.314-0.336-0.292-0.619c-0.449,0.255-0.761,0.701-1.138,1.024c-0.132,0.114-0.297,0.183-0.428,0.304
			c-0.073,0.068-0.108,0.169-0.18,0.258c-0.148,0.186-0.379,0.361-0.496,0.54c-0.088,0.139-0.165,0.405-0.337,0.406
			c-0.259,0.001-0.316-0.663-0.327-0.946c-0.009-0.261,0.011-0.585,0.058-0.81c0.058-0.286,0.255-0.454,0.405-0.653
			c0.45-0.608,0.925-0.979,1.643-1.317c0.324-0.155,0.821-0.457,1.113-0.316c0.265-0.471,0.611-0.86,0.98-1.226
			c-0.277-0.362-0.52-0.758-0.866-1.047c-0.165-0.317-0.472-0.533-0.722-0.8c-0.055-0.059-0.079-0.143-0.136-0.202
			c-0.057-0.06-0.146-0.095-0.202-0.158c-0.086-0.098-0.121-0.187-0.202-0.259c-0.081-0.07-0.175-0.101-0.282-0.18
			c-0.15-0.112-0.247-0.29-0.383-0.417c-0.095-0.088-0.214-0.139-0.305-0.225c-0.088-0.086-0.145-0.215-0.236-0.303
			c-0.046-0.047-0.127-0.07-0.191-0.124c-0.077-0.066-0.138-0.174-0.213-0.238c-0.228-0.185-0.493-0.293-0.732-0.438
			c-0.093-0.057-0.172-0.141-0.27-0.19c-0.235-0.124-0.491-0.184-0.653-0.406c-0.418-0.127-0.751-0.506-1.126-0.698
			c-0.278-0.142-0.646-0.244-0.99-0.349c-0.354-0.111-0.731-0.238-1.058-0.293c-0.113-0.019-0.245,0.078-0.349,0.091
			c-0.084,0.009-0.169-0.007-0.248,0c-0.471,0.035-0.746,0.334-0.9,0.719c-0.2,0.182-0.371,0.394-0.384,0.766
			c-0.259,0.451-0.183,1.232-0.088,1.756c0.031,0.179,0.16,0.419,0.235,0.618c0.154,0.404,0.317,0.796,0.529,1.173
			c0.082,0.144,0.15,0.306,0.225,0.459c0.076,0.154,0.185,0.291,0.258,0.439c0.102,0.206,0.346,0.726,0.542,0.754
			c0.192,0.03,0.437-0.142,0.686-0.113c0.217,0.024,0.596,0.099,0.809,0.202c0.192,0.093,0.347,0.261,0.529,0.406
			c0.421,0.333,0.892,0.832,1.081,1.338c0.228,0.612,0.481,1.57,0.124,2.331c-0.087,0.186-0.228,0.31-0.382,0.472
			c0.07,0.145,0.27,0.193,0.337,0.326c0.043,0.084,0.045,0.188,0.079,0.272c0.047,0.115,0.141,0.199,0.19,0.303
			c0.05,0.102,0.072,0.194,0.125,0.281c0.052,0.083,0.129,0.15,0.18,0.237c0.049,0.082,0.067,0.179,0.124,0.258
			c0.072,0.1,0.19,0.16,0.269,0.259c0.053,0.064,0.088,0.148,0.147,0.213c0.057,0.064,0.153,0.119,0.192,0.182
			c0.05,0.08,0.062,0.187,0.113,0.269c0.051,0.082,0.134,0.146,0.18,0.224c0.034,0.06,0.046,0.127,0.079,0.181
			c0.064,0.108,0.171,0.172,0.248,0.281c0.064,0.09,0.09,0.19,0.158,0.27c0.066,0.08,0.172,0.126,0.246,0.215
			c0.049,0.058,0.079,0.143,0.135,0.204c0.082,0.084,0.224,0.136,0.292,0.234c0.06,0.086,0.062,0.203,0.113,0.305
			c0.086,0.17,0.268,0.247,0.438,0.394c0.079,0.069,0.126,0.165,0.204,0.227c0.063,0.049,0.146,0.075,0.202,0.124
			c0.066,0.058,0.128,0.153,0.191,0.202c0.072,0.056,0.175,0.086,0.259,0.146c0.076,0.058,0.139,0.144,0.213,0.193
			c0.193,0.123,0.413,0.226,0.596,0.371c0.088,0.069,0.137,0.164,0.226,0.226c0.063,0.042,0.144,0.065,0.214,0.111
			c0.07,0.049,0.124,0.122,0.191,0.17c0.076,0.054,0.165,0.073,0.247,0.123c0.089,0.057,0.151,0.141,0.237,0.193
			c0.08,0.047,0.163,0.065,0.248,0.112c0.101,0.054,0.143,0.137,0.248,0.191c0.174,0.091,0.383,0.083,0.629,0.113
			c0.407,0.05,0.805,0.26,1.171,0.315c0.196,0.193,0.431,0.177,0.708,0.223c0.213,0.037,0.354,0.113,0.575,0.091
			c0.137-0.014,0.282-0.017,0.427-0.022c0.016-0.002,0.026-0.003,0.042-0.003C34.006,35.622,33.985,35.597,33.971,35.566
			 M25.033,19.718c-0.065,0.015-0.127,0.061-0.203,0.079c-0.124,0.03-0.261,0.02-0.383,0.057c-0.498,0.145-0.785,0.482-1.102,0.832
			c-0.25,0.274-0.493,0.406-0.675,0.72c-0.081,0.142-0.158,0.331-0.226,0.474c-0.071,0.147-0.149,0.415-0.281,0.416
			c-0.064,0.001-0.213-0.146-0.226-0.214c-0.007-0.041,0.031-0.106,0.034-0.157c0.016-0.222-0.063-0.527-0.034-0.754
			c0.017-0.133,0.094-0.341,0.136-0.519c0.044-0.197,0.056-0.395,0.123-0.529c0.039-0.077,0.155-0.149,0.248-0.248
			c0.152-0.16,0.244-0.269,0.451-0.406c0.251-0.166,0.551-0.322,0.91-0.369c0.176-0.025,0.353,0.052,0.574,0.077
			c0.087,0.012,0.169-0.013,0.259,0c0.101,0.016,0.17,0.076,0.259,0.102c0.192,0.057,0.423,0.054,0.427,0.246
			C25.329,19.701,25.186,19.682,25.033,19.718"/>
		<path fill-rule="evenodd" clip-rule="evenodd" fill="#7A604B" d="M19.113,15.869c-0.134,0.117-0.308,0.32-0.416,0.496
			c-0.031,0.05-0.078,0.188-0.112,0.191c-0.055,0.001-0.27-0.351-0.283-0.372c-0.1-0.167-0.119-0.3-0.202-0.44
			c-0.191-0.315-0.478-0.581-0.687-0.899c-0.359-0.549-0.718-1.056-1.171-1.509c-0.16-0.159-0.257-0.312-0.384-0.506
			c-0.055-0.084-0.194-0.156-0.258-0.215c-0.068-0.059-0.108-0.154-0.181-0.224c-0.305-0.292-0.729-0.615-1.058-0.877
			c-0.087-0.069-0.129-0.164-0.247-0.191c-0.138-0.032-0.29,0.031-0.395-0.011c-0.147-0.06-0.345-0.267-0.472-0.371
			c-0.322-0.269-0.639-0.456-0.855-0.878c-0.278-0.544,0.111-1.168,0.608-1.229c0.215-0.024,0.638,0.106,0.821,0.249
			c0.194,0.149,0.461,0.644,0.551,0.901c0.07,0.202,0.053,0.466,0.191,0.618c0.074,0.083,0.192,0.12,0.292,0.191
			c0.257,0.183,0.498,0.463,0.731,0.675c0.151,0.134,0.331,0.226,0.474,0.348c0.136,0.117,0.191,0.309,0.337,0.451
			c0.063,0.028,0.109,0.07,0.168,0.102c0.172,0.285,0.397,0.521,0.608,0.8c0.108,0.143,0.224,0.312,0.337,0.437
			c0.241,0.268,0.481,0.469,0.642,0.755c0.075,0.135,0.117,0.278,0.203,0.417C18.586,15.135,18.917,15.449,19.113,15.869"/>
		<path fill-rule="evenodd" clip-rule="evenodd" fill="#7A604B" d="M16.254,9.566c0.225-0.044,0.334,0.167,0.506,0.349
			c0.16,0.17,0.307,0.307,0.461,0.483c0.148,0.17,0.365,0.373,0.427,0.608c0.052,0.19,0.083,0.478,0.08,0.642
			c-0.004,0.311-0.032,0.695-0.361,0.799c-0.18,0.058-0.544-0.041-0.708-0.157c-0.065-0.044-0.144-0.23-0.226-0.337
			c-0.195-0.256-0.272-0.381-0.305-0.833c-0.011-0.171-0.072-0.308-0.078-0.449c-0.005-0.11,0.043-0.273,0.022-0.44
			C16.042,9.976,15.944,9.628,16.254,9.566"/>
		<path fill-rule="evenodd" clip-rule="evenodd" fill="#7A604B" d="M19.113,12.144c0.426,0.002,0.947,0.57,0.978,0.934
			c0.051,0.581-0.083,1.125-0.371,1.509c-0.175,0.233-0.423,0.49-0.743,0.314c-0.213-0.115-0.242-0.695-0.327-0.956
			c-0.109-0.342-0.286-0.501-0.371-0.822c-0.024-0.09-0.005-0.381,0.056-0.484c0.038-0.063,0.121-0.103,0.18-0.17
			C18.682,12.285,18.776,12.141,19.113,12.144"/>
		<path fill-rule="evenodd" clip-rule="evenodd" fill="#7A604B" d="M14.566,12.897c0.057-0.007,0.618,0.094,0.721,0.18
			c0.04,0.037,0.085,0.139,0.112,0.17c0.08,0.086,0.172,0.119,0.248,0.201c0.074,0.081,0.106,0.177,0.191,0.292
			c0.115,0.158,0.313,0.306,0.428,0.462c0.113,0.151,0.336,0.384,0.37,0.506c0.068,0.227-0.141,0.361-0.314,0.393
			c-0.856,0.163-1.715-0.019-2.24-0.597c-0.155-0.17-0.309-0.559-0.257-0.787C13.922,13.284,14.1,12.957,14.566,12.897"/>
		<path fill-rule="evenodd" clip-rule="evenodd" fill="#7A604B" d="M14.42,19.515c-0.008-0.227-0.07-0.44-0.146-0.675
			c-0.057-0.174-0.365-0.331-0.394-0.506c-0.025-0.155,0.091-0.295,0.203-0.35c0.384-0.188,0.924-0.049,1.249,0.147
			c0.088,0.054,0.152,0.147,0.237,0.224c0.084,0.078,0.197,0.139,0.259,0.203c0.206,0.209,0.384,0.724,0.259,1.013
			c-0.039,0.09-0.164,0.19-0.237,0.259c-0.039,0.038-0.242,0.176-0.248,0.237c-0.01,0.151,0.273,0.128,0.327,0.248
			c0.15,0.138,0.36,0.219,0.495,0.37c0.19,0.128,0.4,0.208,0.597,0.327c0.088,0.054,0.143,0.149,0.225,0.202
			c0.06,0.039,0.149,0.046,0.214,0.09c0.129,0.089,0.206,0.238,0.338,0.293c0.044,0.019,0.103,0.013,0.146,0.033
			c0.104,0.049,0.206,0.193,0.326,0.283c0.336,0.252,0.588,0.626,0.913,0.876c0.121,0.096,0.27,0.145,0.37,0.238
			c0.18,0.164,0.264,0.456,0.428,0.619c-0.068,0.122-0.16,0.223-0.191,0.382c-0.324-0.045-0.51-0.272-0.811-0.371
			c-0.152-0.189-0.337-0.346-0.563-0.462c-0.439-0.567-1.197-1.003-1.801-1.418c-0.129-0.088-0.221-0.154-0.382-0.235
			c-0.257-0.132-0.462-0.352-0.676-0.53c-0.288-0.119-0.6-0.285-0.945-0.439c-0.2-0.088-0.534-0.342-0.698-0.146
			c0.092,0.274,0.078,0.508-0.023,0.776c-0.066,0.223-0.263,0.258-0.541,0.304c-0.368,0.059-0.731,0.107-1.069,0.023
			c-0.385-0.096-0.732-0.39-0.731-0.823c0.095-0.21,0.346-0.206,0.551-0.292c0.123-0.053,0.46-0.27,0.528-0.396
			c0.169-0.301-0.462-0.351-0.664-0.458c-0.327-0.177-0.627-0.43-1.058-0.417c-0.152,0.117-0.033,0.332-0.034,0.495
			c0,0.367-0.268,0.65-0.574,0.867c-0.168,0.119-0.425,0.258-0.619,0.292c-0.316,0.058-1.01,0.094-1.08-0.314
			c-0.044-0.251,0.145-0.559,0.224-0.833c0.022-0.068,0.178-0.301,0.237-0.382c0.169-0.234,0.571-0.413,0.844-0.394
			c0.121,0.009,0.197,0.107,0.292-0.033c-0.01-0.126-0.126-0.082-0.225-0.102c-0.147-0.032-0.333-0.182-0.495-0.237
			c-0.08-0.026-0.189-0.017-0.282-0.044c-0.256-0.075-0.538-0.198-0.821-0.326c-0.093-0.043-0.161-0.128-0.259-0.169
			c-0.09-0.038-0.19-0.035-0.305-0.068c-0.182-0.051-0.327-0.191-0.517-0.224c-0.197-0.035-0.367-0.031-0.573-0.09
			c-0.199-0.058-0.389-0.061-0.608-0.102c-0.297-0.054-0.55-0.05-0.799-0.146c-0.269-0.102-0.487-0.402-0.259-0.687
			c0.075-0.092,0.281-0.113,0.417-0.101c0.154,0.013,0.391,0.05,0.406-0.101c0.011-0.121-0.193-0.245-0.226-0.293
			c-0.236-0.352-0.647-1.199-0.247-1.599c0.097-0.094,0.322-0.15,0.449-0.055c0.103,0.076,0.13,0.261,0.248,0.35
			c0.138,0.103,0.358,0.124,0.506,0.236c0.059,0.044,0.099,0.14,0.169,0.203c0.181,0.158,0.405,0.318,0.452,0.63
			c0.023,0.174-0.114,0.491-0.058,0.642c0.043,0.111,0.28,0.24,0.417,0.315c0.19,0.104,0.479,0.15,0.675,0.236
			c0.086,0.039,0.422,0.368,0.461,0.056c0.022-0.179-0.176-0.345-0.235-0.552c-0.022-0.075-0.02-0.181-0.045-0.271
			c-0.079-0.257-0.25-0.474-0.236-0.686c0.027-0.417,0.5-0.263,0.866-0.304c0.408,0.31,0.934,0.55,1.081,1.08
			c0.087,0.313,0.124,0.64-0.045,0.857c-0.08,0.102-0.379,0.186-0.405,0.315c-0.033,0.162,0.218,0.196,0.349,0.235
			c0.295,0.091,0.573,0.201,0.877,0.314c0.271,0.104,0.532,0.292,0.811,0.373c0.155,0.044,0.318,0.068,0.484,0.168
			c0.074,0.046,0.146,0.147,0.235,0.181c0.056,0.02,0.129,0.021,0.192,0.044c0.084,0.033,0.159,0.093,0.225,0.115
			c0.218,0.07,0.478,0.107,0.697,0.202c0.118,0.048,0.308,0.102,0.451,0.18C14.164,19.49,14.23,19.562,14.42,19.515"/>
		<path fill-rule="evenodd" clip-rule="evenodd" fill="#7A604B" d="M17.932,18.436c-0.325-0.136-0.54-0.38-0.855-0.531
			c-0.046-0.021-0.101-0.018-0.146-0.044c-0.462-0.257-0.754-0.828-0.642-1.338c0.168-0.292,0.407-0.566,0.844-0.551
			c0.341,0.091,0.752,0.293,1.036,0.473c0.093,0.059,0.207,0.271,0.192,0.406c-0.009,0.07-0.075,0.127-0.102,0.19
			c-0.065,0.153-0.099,0.366-0.18,0.574C17.978,17.874,17.948,18.117,17.932,18.436"/>
		<path fill-rule="evenodd" clip-rule="evenodd" fill="#7A604B" d="M13.104,18.164c-0.152,0.418-0.715,0.526-1.059,0.261
			c-0.252-0.197-0.428-0.642-0.586-0.879c-0.148-0.153-0.691-0.499-0.46-0.765c0.089-0.104,0.326-0.138,0.473-0.148
			c0.13-0.006,0.257,0.069,0.415,0.115c0.238,0.068,0.569,0.108,0.744,0.236c0.157,0.114,0.417,0.532,0.462,0.732
			C13.129,17.884,13.121,18.019,13.104,18.164"/>
		<path fill-rule="evenodd" clip-rule="evenodd" fill="#7A604B" d="M7.374,18.042c0.119,0,0.217,0.058,0.35,0.11
			c0.197,0.084,0.385,0.128,0.495,0.338c0.215,0.41,0.033,0.898-0.383,0.958c-0.151,0.021-0.408-0.004-0.605,0
			c-0.151,0.002-0.288-0.06-0.44-0.079c-0.157-0.02-0.298,0.01-0.428-0.021c-0.129-0.034-0.233-0.118-0.359-0.159
			c-0.242-0.079-0.59-0.208-0.597-0.552c-0.014-0.56,0.574-0.35,0.934-0.405C6.71,18.175,6.985,18.033,7.374,18.042"/>
		<path fill-rule="evenodd" clip-rule="evenodd" fill="#7A604B" d="M14.972,25.155c-0.551-0.15-1.248-0.176-1.846-0.361
			c-0.183-0.056-0.327-0.175-0.484-0.259c-0.304-0.162-0.527-0.201-0.788-0.406c-0.193-0.15-0.468-0.293-0.338-0.651
			c0.179-0.494,0.859-0.153,1.307-0.078c0.104,0.016,0.213-0.021,0.315-0.013c0.149,0.014,0.277,0.121,0.415,0.124
			c0.11,0.003,0.225-0.053,0.327-0.044c0.121,0.009,0.251,0.104,0.394,0.134c0.065,0.014,0.15-0.011,0.226,0
			c0.091,0.01,0.173,0.064,0.236,0.068c0.06,0.002,0.125-0.032,0.192-0.037c0.06,0,0.124,0.037,0.18,0.037
			c0.16-0.003,0.324-0.081,0.484-0.068c0.313,0.025,0.613,0.14,0.944,0.146c0.092,0.001,0.189-0.038,0.282-0.035
			c0.086,0.003,0.178,0.038,0.258,0.035c0.106-0.004,0.247-0.064,0.339-0.045c0.096,0.019,0.182,0.1,0.292,0.134
			c0.167,0.053,0.359-0.005,0.462,0.023c0.123,0.033,0.228,0.155,0.371,0.201c0.094,0.032,0.205,0.016,0.304,0.046
			c0.052,0.015,0.104,0.075,0.191,0.123c0.208,0.114,0.472,0.111,0.483,0.407c0.007,0.137-0.086,0.214-0.1,0.314
			c-0.032,0.225,0.038,0.438-0.135,0.607c-0.126,0.123-0.31,0.093-0.518,0.089c-0.229-0.001-0.467,0.145-0.732,0.08
			c-0.123-0.03-0.224-0.122-0.361-0.135c-0.25-0.025-0.506,0.01-0.776-0.024C16.212,25.488,15.513,25.424,14.972,25.155"/>
		<path fill-rule="evenodd" clip-rule="evenodd" fill="#BCACA0" d="M31.145,8.452c0.22-0.017,0.274,0.158,0.198,0.432
			c-0.025,0.093-0.106,0.182-0.144,0.286c-0.071,0.207-0.081,0.386-0.11,0.674C31.073,10,31,10.23,30.946,10.452
			c-0.053,0.214-0.064,0.447-0.111,0.629c-0.039,0.156-0.127,0.283-0.153,0.407c-0.024,0.111-0.014,0.231-0.035,0.332
			c-0.016,0.082-0.06,0.15-0.076,0.221c-0.038,0.166-0.03,0.337-0.144,0.352c-0.193,0.029-0.236-0.27-0.298-0.441
			c-0.059-0.163-0.203-0.3-0.233-0.475c-0.016-0.084-0.005-0.182-0.011-0.274c-0.016-0.231-0.092-0.462-0.11-0.642
			c-0.022-0.238,0.052-0.51,0.034-0.751c-0.014-0.177-0.064-0.339-0.111-0.574c-0.034-0.169-0.141-0.441-0.044-0.551
			c0.124-0.145,0.643-0.044,0.861-0.088c0.104-0.022,0.172-0.082,0.254-0.1C30.875,8.473,31.003,8.463,31.145,8.452"/>
		<path fill-rule="evenodd" clip-rule="evenodd" fill="#7A604B" d="M58.029,23.137c0.105-0.009,0.243,0.042,0.375,0.054
			c0.235,0.025,0.494,0.001,0.698,0.045c0.176,0.038,0.367,0.124,0.563,0.177c0.197,0.054,0.399,0.102,0.562,0.176
			c0.187,0.083,0.365,0.247,0.609,0.222c0.088-0.009,0.157-0.065,0.243-0.089c0.14-0.038,0.304-0.062,0.462-0.121
			c0.144-0.053,0.302-0.12,0.441-0.132c0.18-0.017,0.368,0.004,0.551-0.023c0.165-0.024,0.345-0.103,0.498-0.099
			c0.072,0.002,0.154,0.055,0.244,0.066c0.1,0.009,0.211-0.024,0.299-0.012c0.097,0.015,0.156,0.09,0.242,0.124
			c0.072,0.026,0.152,0.023,0.231,0.054c0.156,0.06,0.398,0.171,0.554,0.266c0.078,0.047,0.153,0.118,0.232,0.174
			c0.079,0.063,0.196,0.115,0.242,0.167c0.093,0.111,0.152,0.351,0.232,0.52c0.066,0.146,0.195,0.272,0.263,0.418
			c0.039,0.083,0.054,0.188,0.089,0.288c0.039,0.104,0.101,0.196,0.122,0.275c0.089,0.333,0.016,0.643-0.033,0.906
			c-0.021,0.108,0.003,0.234-0.023,0.352c-0.011,0.053-0.062,0.115-0.087,0.166c-0.032,0.061-0.051,0.131-0.078,0.179
			c-0.075,0.13-0.243,0.257-0.274,0.429c-0.025,0.131,0.026,0.327,0.032,0.509c0.01,0.352,0.013,0.625,0.056,0.938
			c0.012,0.099,0.059,0.178,0.065,0.31c0.005,0.1-0.015,0.209-0.012,0.319c0.006,0.188,0.084,0.371,0.089,0.508
			c0.004,0.07-0.028,0.143-0.033,0.211c-0.013,0.172,0.002,0.37,0.012,0.561c0.009,0.191-0.025,0.391-0.012,0.565
			c0.046,0.528,0.126,1.054,0.134,1.545c0.001,0.083,0.029,0.17,0.021,0.254c-0.025,0.311-0.246,0.541-0.453,0.718
			c-0.086,0.073-0.184,0.182-0.276,0.232c-0.17,0.087-0.382,0.14-0.552,0.231c-0.141,0.075-0.271,0.249-0.408,0.288
			c-0.066,0.019-0.203,0.011-0.277,0.033c-0.113,0.032-0.216,0.117-0.33,0.177c-0.122,0.061-0.25,0.082-0.376,0.132
			c-0.248,0.093-0.486,0.273-0.76,0.365c-0.13,0.041-0.271,0.052-0.398,0.098c-0.09,0.034-0.162,0.114-0.255,0.143
			c-0.213,0.071-0.429,0.101-0.651,0.156c-0.101,0.024-0.159,0.117-0.254,0.132c-0.078,0.014-0.156-0.028-0.254-0.021
			c-0.128,0.008-0.33,0.082-0.452,0.144c-0.094,0.048-0.148,0.163-0.254,0.22c-0.151,0.083-0.401,0.141-0.583,0.211
			c-0.089,0.031-0.174,0.109-0.254,0.12c-0.252,0.034-0.498-0.099-0.797-0.078c-0.082,0.006-0.146,0.044-0.23,0.055
			c-0.284,0.038-0.488-0.074-0.729-0.11c-0.299-0.045-0.604-0.007-0.895-0.056c-0.283-0.046-0.49-0.153-0.741-0.176
			c-0.258-0.024-0.505-0.015-0.849,0.011c-0.266,0.018-0.548-0.15-0.829-0.178c-0.344-0.031-0.715,0.058-1.016,0.013
			c-0.093-0.014-0.201-0.068-0.309-0.111c-0.221-0.087-0.367-0.114-0.508-0.287c-0.062-0.075-0.125-0.219-0.187-0.342
			c-0.07-0.133-0.165-0.248-0.177-0.354c-0.009-0.081,0.029-0.155,0.033-0.242c0.003-0.143-0.05-0.305-0.055-0.464
			c-0.003-0.068,0.015-0.133,0.01-0.2c-0.008-0.114-0.068-0.227-0.077-0.341c-0.02-0.243,0.012-0.502-0.012-0.75
			c-0.008-0.09-0.061-0.167-0.066-0.245c-0.008-0.088,0.035-0.172,0.033-0.263c-0.002-0.1-0.049-0.186-0.056-0.278
			c-0.005-0.061,0.023-0.121,0.022-0.186c-0.001-0.079-0.035-0.152-0.032-0.222c0.008-0.179,0.105-0.385,0.132-0.541
			c0.014-0.085,0.034-0.321,0.032-0.441c-0.001-0.311-0.144-0.614-0.142-0.949c0-0.346,0.088-0.704,0.021-0.982
			c-0.033-0.14-0.119-0.207-0.142-0.343c-0.017-0.082,0.009-0.157,0-0.264c-0.014-0.128-0.082-0.314-0.134-0.453
			c-0.077-0.202-0.246-0.358-0.311-0.553c-0.064-0.206-0.003-0.405-0.022-0.639c-0.011-0.166-0.034-0.38-0.065-0.586
			c-0.013-0.104-0.057-0.212-0.055-0.297c0.005-0.125,0.093-0.213,0.101-0.331c0.003-0.082-0.041-0.17-0.033-0.277
			c0.008-0.17,0.147-0.322,0.264-0.453c0.131-0.142,0.196-0.29,0.32-0.385c0.042-0.032,0.115-0.049,0.178-0.088
			c0.054-0.035,0.1-0.086,0.153-0.111c0.105-0.045,0.21-0.062,0.311-0.112c0.084-0.041,0.167-0.113,0.264-0.154
			c0.121-0.048,0.259-0.061,0.396-0.122c0.164-0.071,0.304-0.186,0.433-0.199c0.187-0.018,0.489,0.027,0.683,0.035
			c0.101,0.003,0.268,0.021,0.355,0.044c0.234,0.06,0.467,0.295,0.763,0.298c0.124,0,0.298-0.085,0.45-0.133
			c0.153-0.046,0.324-0.085,0.452-0.131c0.17-0.064,0.27-0.184,0.399-0.243c0.058-0.028,0.139-0.038,0.211-0.066
			c0.058-0.025,0.118-0.07,0.178-0.089c0.12-0.038,0.264-0.044,0.398-0.075c0.075-0.021,0.143-0.07,0.219-0.09
			c0.078-0.021,0.168-0.02,0.253-0.044c0.08-0.024,0.142-0.062,0.23-0.078C57.787,23.139,57.908,23.146,58.029,23.137
			 M56.373,25.997c-0.167,0.055-0.301,0.147-0.462,0.175c-0.106,0.019-0.212,0.013-0.299,0.045
			c-0.155,0.056-0.217,0.232-0.364,0.274c-0.208,0.061-0.325-0.09-0.507-0.143c-0.09-0.024-0.18-0.007-0.268-0.021
			c-0.088-0.015-0.187-0.074-0.297-0.101c-0.069-0.016-0.151-0.015-0.22-0.033c-0.19-0.055-0.361-0.18-0.529-0.188
			c-0.129-0.002-0.313,0.049-0.475,0.069c-0.333,0.038-0.633,0.15-0.806,0.331c-0.146,0.149-0.278,0.585-0.243,0.883
			c0.014,0.114,0.108,0.215,0.143,0.363c0.044,0.185,0.035,0.413,0.077,0.597c0.024,0.097,0.091,0.175,0.112,0.265
			c0.034,0.144,0.015,0.288,0.045,0.419c0.034,0.162,0.13,0.29,0.141,0.43c0.011,0.114-0.024,0.227-0.032,0.343
			c-0.017,0.275,0.032,0.579,0.012,0.862c-0.006,0.078-0.031,0.155-0.033,0.232c-0.003,0.163,0.057,0.316,0.066,0.474
			c0.006,0.097-0.017,0.193-0.013,0.287c0.011,0.144,0.04,0.296,0.057,0.44c0.019,0.161,0.011,0.321,0.031,0.465
			c0.019,0.101,0.074,0.196,0.079,0.297c0.015,0.233-0.02,0.445,0,0.65c0.011,0.103,0.022,0.209,0.045,0.311
			c0.02,0.086,0.075,0.172,0.088,0.266c0.011,0.075-0.016,0.154,0,0.23c0.023,0.117,0.16,0.34,0.233,0.42
			c0.055,0.064,0.204,0.164,0.319,0.188c0.093,0.018,0.186-0.007,0.276,0c0.059,0.004,0.115,0.037,0.177,0.044
			c0.252,0.027,0.527,0.016,0.762,0.043c0.134,0.016,0.245,0.094,0.376,0.1c0.102,0.004,0.206-0.04,0.306-0.033
			c0.174,0.011,0.302,0.133,0.443,0.154c0.181,0.025,0.477,0.01,0.642,0c0.228-0.016,0.385-0.062,0.595-0.021
			c0.072,0.012,0.143,0.074,0.232,0.086c0.079,0.013,0.175-0.012,0.266,0.011c0.187,0.051,0.262,0.196,0.474,0.199
			c0.141,0.005,0.195-0.067,0.343-0.077c0.079-0.004,0.206,0.048,0.319,0.012c0.072-0.023,0.178-0.136,0.188-0.199
			c0.011-0.072-0.033-0.148-0.033-0.221c0-0.144,0.028-0.287,0.011-0.431c-0.02-0.182-0.121-0.344-0.131-0.485
			c-0.006-0.081,0.033-0.161,0.033-0.242c0-0.083-0.032-0.16-0.033-0.245c-0.008-0.202,0.033-0.424,0.033-0.638
			c0-0.082-0.033-0.156-0.033-0.232c-0.002-0.091,0.028-0.188,0.033-0.277c0.004-0.119-0.018-0.242-0.023-0.365
			c-0.009-0.186,0.011-0.379,0-0.551c-0.022-0.316-0.134-0.602-0.143-0.883c-0.009-0.246,0.075-0.444,0.054-0.642
			c-0.01-0.089-0.097-0.154-0.088-0.252c0.007-0.069,0.074-0.132,0.122-0.21c0.042-0.074,0.072-0.161,0.11-0.223
			c0.052-0.079,0.16-0.143,0.198-0.242c0.046-0.117,0.063-0.32,0.11-0.485c0.024-0.087,0.093-0.162,0.1-0.242
			c0.008-0.095-0.034-0.174-0.032-0.266c0.001-0.188,0.053-0.352,0.032-0.52c-0.029-0.23-0.141-0.437-0.275-0.573
			c-0.047-0.049-0.12-0.074-0.166-0.122c-0.06-0.062-0.091-0.146-0.146-0.199c-0.128-0.129-0.366-0.298-0.529-0.365
			c-0.122-0.047-0.278-0.066-0.421-0.12c-0.242-0.098-0.439-0.209-0.749-0.178C56.592,25.953,56.477,25.962,56.373,25.997"/>
		<path fill-rule="evenodd" clip-rule="evenodd" fill="#C58045" d="M50.081,29.619c0.073-0.005,0.332,0.002,0.396,0.066
			c0.064,0.063,0.036,0.31,0.044,0.464c0.014,0.247,0.12,0.57,0.133,0.782c0.013,0.205-0.045,0.952-0.221,0.983
			c-0.135,0.023-0.246-0.177-0.344-0.287c-0.033-0.04-0.113-0.097-0.151-0.145c-0.191-0.233-0.297-0.429-0.576-0.597
			c-0.313-0.187-0.734-0.305-1.114-0.476c-0.099-0.042-0.295-0.12-0.286-0.241c0.008-0.142,0.268-0.129,0.429-0.166
			c0.138-0.031,0.31-0.126,0.429-0.155c0.063-0.015,0.134,0.001,0.213-0.011c0.13-0.021,0.255-0.091,0.329-0.099
			c0.133-0.014,0.258,0.011,0.365-0.012C49.869,29.701,49.943,29.625,50.081,29.619"/>
		<path fill-rule="evenodd" clip-rule="evenodd" fill="#C58045" d="M50.521,32.499c-0.039,0.292,0.023,0.499,0.045,0.819
			c0.016,0.246,0.031,0.512,0.066,0.726c0.019,0.115,0.069,0.217,0.078,0.321c0.005,0.106-0.019,0.234-0.012,0.365
			c0.005,0.095,0.038,0.201,0.012,0.276c-0.062,0.178-0.667,0.308-0.952,0.375c-0.085,0.02-0.203,0.09-0.285,0.111
			c-0.1,0.023-0.211,0.021-0.289,0.043c-0.159,0.046-0.315,0.164-0.474,0.221c-0.1,0.037-0.216,0.039-0.32,0.066
			c-0.297,0.082-0.654,0.25-0.995,0.31c-0.163,0.027-0.307,0.071-0.474,0.112c-0.106,0.022-0.217,0.002-0.331,0.021
			c-0.108,0.016-0.199,0.088-0.286,0.112c-0.085,0.018-0.172,0.009-0.256,0.019c-0.361,0.049-0.733,0.109-1.115,0.144
			c-0.272,0.028-0.581-0.018-0.871-0.009c-0.299,0.009-0.621,0.029-0.874,0c-0.099-0.012-0.192-0.065-0.297-0.079
			c-0.267-0.033-0.541,0.029-0.817,0.011c-0.148-0.008-0.302-0.068-0.454-0.078c-0.374-0.028-0.744,0-1.069-0.067
			c-0.281-0.056-0.642-0.343-0.708-0.662c-0.055-0.275-0.099-0.68-0.02-0.916c0.033-0.106,0.152-0.202,0.218-0.31
			c0.046-0.068,0.063-0.157,0.112-0.229c0.116-0.179,0.282-0.358,0.429-0.542c0.152-0.188,0.281-0.402,0.433-0.531
			c0.116-0.1,0.365-0.26,0.508-0.274c0.074-0.01,0.157,0.035,0.242,0.033c0.086-0.002,0.174-0.063,0.255-0.067
			c0.192-0.011,0.443,0.074,0.673,0.087c0.096,0.006,0.199-0.03,0.287-0.02c0.11,0.011,0.178,0.114,0.288,0.143
			c0.081,0.021,0.174-0.002,0.263,0.01c0.089,0.015,0.168,0.07,0.245,0.078c0.072,0.008,0.146-0.011,0.221,0
			c0.099,0.015,0.218,0.058,0.309,0.101c0.095,0.045,0.164,0.143,0.275,0.188c0.069,0.025,0.149,0.022,0.221,0.043
			c0.184,0.056,0.347,0.168,0.529,0.232c0.066,0.022,0.143,0.019,0.212,0.044c0.096,0.036,0.212,0.105,0.331,0.166
			c0.1,0.05,0.215,0.171,0.342,0.122c0.219-0.088-0.031-0.526-0.099-0.653c-0.072-0.127-0.132-0.148-0.188-0.254
			c-0.032-0.055-0.034-0.12-0.055-0.152c-0.06-0.099-0.274-0.254-0.411-0.322c-0.144-0.07-0.316-0.121-0.472-0.187
			c-0.152-0.063-0.28-0.168-0.432-0.222c-0.243-0.083-0.558-0.073-0.84-0.066c-0.168,0.004-0.366-0.032-0.575-0.032
			c-0.13,0-0.471,0.087-0.519-0.023c-0.053-0.124,0.178-0.219,0.345-0.309c0.062-0.037,0.146-0.133,0.208-0.165
			c0.132-0.069,0.281-0.088,0.42-0.145c0.299-0.119,0.574-0.404,0.839-0.486c0.156-0.047,0.309-0.049,0.44-0.1
			c0.095-0.033,0.148-0.128,0.234-0.144c0.102-0.019,0.295-0.01,0.408,0c0.225,0.022,0.464,0.09,0.707,0.112
			c0.247,0.02,0.499,0.009,0.729,0.031c0.081,0.01,0.166,0.07,0.253,0.088c0.111,0.026,0.236,0.009,0.353,0.035
			c0.061,0.013,0.122,0.065,0.187,0.088c0.068,0.022,0.147,0.018,0.212,0.043c0.079,0.031,0.141,0.108,0.22,0.144
			c0.344,0.154,0.705,0.24,1.026,0.419c0.079,0.043,0.141,0.124,0.22,0.166c0.172,0.09,0.358,0.138,0.521,0.211
			c0.088,0.04,0.158,0.128,0.243,0.175C50.315,32.339,50.473,32.363,50.521,32.499"/>
		<path fill-rule="evenodd" clip-rule="evenodd" fill="#C58045" d="M13.645,26.161c0.063-0.002,0.154,0.026,0.242,0.035
			c0.066,0.005,0.14-0.02,0.211-0.012c0.116,0.014,0.305,0.113,0.474,0.155c0.271,0.066,0.502,0.121,0.675,0.275
			c0.059,0.054,0.23,0.286,0.274,0.398c0.048,0.125,0.056,0.287,0.089,0.44c0.084,0.384,0.255,0.836,0.342,1.226
			c0.065,0.293,0.048,0.645,0.045,1.006c-0.005,0.598-0.051,1.188-0.099,1.722c-0.019,0.196-0.07,0.383-0.089,0.562
			c-0.012,0.117,0.008,0.23,0,0.343c-0.026,0.372-0.144,0.731-0.211,1.082c-0.024,0.13-0.019,0.261-0.043,0.387
			c-0.026,0.131-0.094,0.265-0.121,0.418c-0.029,0.164-0.048,0.347-0.088,0.454c-0.046,0.122-0.224,0.332-0.32,0.385
			c-0.236,0.134-0.682,0.118-0.972,0.202c-0.1,0.026-0.193,0.128-0.308,0.154c-0.229,0.047-0.557,0.11-0.795,0.054
			c-0.211-0.049-0.708-0.228-0.774-0.43c-0.061-0.184,0.015-0.42,0-0.63c-0.024-0.383-0.136-0.773-0.188-1.18
			c-0.048-0.395-0.116-0.813-0.197-1.159c-0.048-0.2-0.162-0.391-0.211-0.609c-0.047-0.208-0.085-0.392-0.143-0.585
			c-0.034-0.112-0.102-0.21-0.133-0.319c-0.023-0.083-0.021-0.174-0.044-0.256c-0.061-0.208-0.21-0.372-0.266-0.561
			c-0.06-0.199-0.108-0.453-0.144-0.662c-0.038-0.233-0.029-0.47-0.11-0.686c-0.036-0.097-0.117-0.156-0.154-0.254
			c-0.025-0.068-0.024-0.149-0.043-0.209c-0.03-0.085-0.1-0.156-0.135-0.243c-0.023-0.063-0.03-0.143-0.055-0.211
			c-0.043-0.125-0.107-0.213-0.108-0.298c-0.007-0.131,0.065-0.226,0.13-0.342c0.063-0.106,0.097-0.24,0.176-0.298
			c0.069-0.048,0.328-0.132,0.409-0.144c0.095-0.014,0.191,0.009,0.288,0c0.24-0.023,0.497-0.165,0.718-0.165
			c0.288-0.001,0.546,0.099,0.86,0.076c0.165-0.01,0.332-0.082,0.508-0.11C13.436,26.157,13.547,26.167,13.645,26.161"/>
		<path fill-rule="evenodd" clip-rule="evenodd" fill="#C58045" d="M16.46,27.664c0,0,0.004-0.01,0.013-0.012
			c0.205-0.036,0.324,0.115,0.462,0.145c0.079,0.014,0.162-0.018,0.244-0.012c0.064,0.004,0.132,0.044,0.209,0.055
			c0.081,0.011,0.17-0.004,0.242,0.011c0.094,0.02,0.187,0.102,0.299,0.144c0.087,0.032,0.183,0.024,0.253,0.055
			c0.088,0.035,0.168,0.122,0.254,0.176c0.217,0.136,0.268,0.251,0.331,0.563c0.026,0.132,0.072,0.261,0.1,0.375
			c0.026,0.119,0.016,0.249,0.032,0.363c0.016,0.108,0.063,0.197,0.066,0.288c0.003,0.085-0.03,0.177-0.034,0.265
			c-0.015,0.352,0.02,0.717-0.01,1.104c-0.021,0.272-0.134,0.61-0.165,0.883c-0.021,0.18-0.011,0.357-0.044,0.575
			c-0.021,0.13-0.066,0.283-0.088,0.43c-0.029,0.178-0.044,0.352-0.088,0.431c-0.072,0.125-0.284,0.21-0.464,0.296
			c-0.174,0.086-0.334,0.2-0.531,0.234c-0.11,0.018-0.218-0.004-0.31,0.01c-0.196,0.03-0.413,0.225-0.693,0.22
			c-0.17-0.002-0.352-0.099-0.376-0.23c-0.026-0.138,0.055-0.382,0.078-0.575c0.022-0.205,0.02-0.44,0.055-0.594
			c0.026-0.108,0.085-0.193,0.099-0.278c0.017-0.093,0.007-0.189,0.022-0.287c0.04-0.214,0.108-0.46,0.133-0.739
			c0.025-0.291,0.098-0.583,0.122-0.906c0.029-0.395,0.007-0.942-0.057-1.28c-0.022-0.119-0.014-0.24-0.032-0.341
			c-0.028-0.149-0.105-0.372-0.166-0.576c-0.022-0.077-0.074-0.141-0.088-0.208c-0.016-0.07-0.068-0.377-0.022-0.487
			C16.33,27.709,16.379,27.683,16.46,27.664"/>
		<path fill-rule="evenodd" clip-rule="evenodd" fill="#C58045" d="M8.953,28.083c0.499-0.07,0.58,0.453,0.717,0.807
			c0.082,0.21,0.194,0.434,0.298,0.639c0.106,0.21,0.188,0.43,0.3,0.642c0.075,0.144,0.226,0.282,0.297,0.462
			c0.051,0.133,0.085,0.281,0.132,0.42c0.048,0.138,0.096,0.278,0.133,0.42c0.094,0.372,0.196,0.678,0.209,1.063
			c0.007,0.178,0.045,0.352,0.078,0.518c0.048,0.25,0.092,0.428,0.11,0.748c0.017,0.304,0.113,0.616,0.077,0.84
			c-0.028,0.172-0.226,0.447-0.354,0.487c-0.055,0.017-0.155,0-0.254,0.011c-0.088,0.008-0.162,0.05-0.221,0.054
			c-0.155,0.013-0.318-0.03-0.487-0.021s-0.34-0.01-0.495,0.021c-0.085,0.017-0.161,0.078-0.232,0.09
			c-0.073,0.009-0.164-0.019-0.244-0.012c-0.147,0.014-0.231,0.065-0.341,0.035c-0.164-0.049-0.208-0.191-0.331-0.354
			c-0.061-0.077-0.18-0.14-0.233-0.221c-0.126-0.194-0.118-0.327-0.209-0.574c-0.042-0.112-0.146-0.214-0.178-0.3
			c-0.09-0.245-0.117-0.473-0.23-0.683c-0.054-0.099-0.144-0.182-0.199-0.286c-0.061-0.119-0.091-0.257-0.155-0.376
			c-0.05-0.093-0.138-0.187-0.209-0.288c-0.142-0.199-0.266-0.458-0.408-0.65c-0.125-0.168-0.369-0.276-0.365-0.521
			c0.004-0.227,0.235-0.306,0.321-0.574c0.024-0.073,0.019-0.223,0.044-0.309c0.041-0.133,0.129-0.214,0.231-0.343
			c0.079-0.1,0.163-0.23,0.253-0.309c0.075-0.064,0.158-0.085,0.233-0.144c0.255-0.2,0.407-0.515,0.663-0.717
			c0.204-0.163,0.467-0.206,0.717-0.354C8.737,28.235,8.798,28.105,8.953,28.083"/>
		<path fill-rule="evenodd" clip-rule="evenodd" fill="#C58045" d="M19.981,30.667c0.167-0.017,0.311,0.126,0.442,0.2
			c0.063,0.033,0.14,0.048,0.21,0.086c0.106,0.06,0.205,0.146,0.322,0.199c0.213,0.101,0.386,0.146,0.518,0.32
			c0.029,0.039,0.049,0.122,0.099,0.199c0.044,0.069,0.103,0.123,0.121,0.166c0.073,0.159,0.105,0.424,0.166,0.63
			c0.069,0.236,0.109,0.454,0.188,0.772c0.027,0.114,0.086,0.229,0.11,0.343c0.029,0.14,0.094,0.279,0.088,0.363
			c-0.015,0.225-0.345,0.451-0.553,0.466c-0.229,0.013-0.506-0.162-0.662-0.266c-0.107-0.074-0.15-0.208-0.286-0.289
			c-0.084-0.048-0.21-0.07-0.321-0.097c-0.106-0.029-0.205-0.086-0.297-0.111c-0.293-0.078-0.602-0.026-0.685-0.276
			c-0.077-0.235,0.064-0.635,0.077-0.828c0.013-0.201-0.011-0.405,0.012-0.607c0.025-0.232,0.098-0.433,0.142-0.697
			C19.721,30.973,19.722,30.691,19.981,30.667"/>
		<path fill-rule="evenodd" clip-rule="evenodd" fill="#C58045" d="M5.728,32.046c0.251-0.055,0.32,0.199,0.421,0.365
			c0.068,0.111,0.15,0.194,0.199,0.275c0.072,0.123,0.111,0.243,0.177,0.353c0.06,0.104,0.18,0.198,0.221,0.298
			c0.016,0.043,0.016,0.14,0.042,0.21c0.042,0.11,0.135,0.193,0.188,0.308c0.052,0.109,0.075,0.241,0.122,0.365
			c0.062,0.158,0.236,0.42,0.199,0.629c-0.029,0.18-0.2,0.211-0.298,0.319c-0.063,0.071-0.113,0.172-0.177,0.254
			c-0.168,0.221-0.396,0.514-0.486,0.798c-0.02,0.063-0.011,0.154-0.042,0.218c-0.119,0.228-0.426,0.214-0.673,0.11
			c-0.074-0.03-0.119-0.125-0.189-0.174c-0.236-0.179-0.524-0.282-0.673-0.554c-0.101-0.182-0.143-0.398-0.21-0.595
			c-0.077-0.227-0.116-0.462-0.109-0.686c0.003-0.172,0.09-0.325,0.12-0.498c0.023-0.122,0.012-0.224,0.034-0.319
			c0.023-0.086,0.082-0.162,0.111-0.265c0.061-0.211,0.066-0.35,0.177-0.529c0.04-0.065,0.121-0.145,0.188-0.232
			c0.165-0.217,0.376-0.52,0.628-0.653C5.703,32.042,5.721,32.048,5.728,32.046"/>
		<path fill-rule="evenodd" clip-rule="evenodd" fill="#EDCBB1" d="M21.229,23.803c0.372-0.027,0.692,0.166,0.912,0.372
			c0.291,0.272,0.682,0.619,0.844,1.046c0.115,0.302,0.241,0.657,0.236,1.025c-0.007,0.598-0.421,1.06-1.058,1.067
			c-0.34,0.005-0.646-0.119-0.867-0.292c-0.234-0.182-0.403-0.493-0.519-0.865c-0.072-0.236-0.311-0.478-0.314-0.778
			c-0.001-0.068,0.035-0.142,0.044-0.223c0.021-0.169-0.011-0.361,0-0.473c0.026-0.235,0.223-0.605,0.395-0.755
			C20.985,23.854,21.112,23.813,21.229,23.803"/>
		<path fill-rule="evenodd" clip-rule="evenodd" fill="#EDCBB1" d="M27.464,33.977c-0.102,0.104-0.184,0.222-0.304,0.292
			c-0.202,0.122-0.427,0.109-0.709,0.158c-0.384,0.069-0.842,0.263-1.227,0.27c-0.288-0.176-0.782-0.178-1.081-0.36
			c-0.244-0.148-0.362-0.39-0.551-0.596c-0.213-0.228-0.495-0.377-0.732-0.609c-0.249-1.04-0.437-2.293-1.383-2.677
			c-0.046-0.02-0.106-0.017-0.158-0.035c-0.486-0.17-0.898-0.746-1.542-0.609c-0.147-0.471,0.045-0.853,0.393-0.989
			c-0.011-0.046-0.046-0.033-0.022-0.091c0.159-0.346,0.44-0.622,0.877-0.641c0.352-0.017,0.618,0.165,0.856,0.326
			c0.143,0.098,0.27,0.235,0.372,0.338c0.607,0.313,1.146,0.699,1.643,1.125c0.728,0.781,1.164,1.855,2.004,2.521
			C26.191,33.156,26.924,33.471,27.464,33.977"/>
		<path fill="#EDCBB1" d="M59.818,12.991c-0.02-0.214,0.015-0.437-0.022-0.64c-0.024-0.129-0.075-0.216-0.112-0.321
			c-0.041-0.118-0.055-0.236-0.098-0.341c-0.14-0.333-0.439-0.654-0.708-0.927c-0.13-0.136-0.272-0.273-0.407-0.41
			c-0.139-0.137-0.32-0.229-0.452-0.364c-0.079-0.078-0.131-0.169-0.199-0.242c-0.073-0.08-0.163-0.127-0.255-0.199
			c-0.163-0.133-0.333-0.272-0.519-0.376c-0.075-0.042-0.172-0.057-0.254-0.099c-0.179-0.092-0.278-0.274-0.453-0.364
			c-0.055-0.028-0.143-0.044-0.2-0.078c-0.117-0.072-0.204-0.201-0.33-0.287c-0.125-0.083-0.239-0.179-0.366-0.265
			c-0.252-0.175-0.478-0.392-0.715-0.542c-0.08-0.047-0.158-0.091-0.244-0.121c-0.079-0.026-0.161-0.028-0.231-0.054
			c-0.13-0.05-0.222-0.154-0.354-0.199c-0.107-0.038-0.25-0.051-0.374-0.067c-0.145-0.019-0.255-0.064-0.365-0.077
			c-0.179-0.02-0.34-0.016-0.519-0.055C52.463,6.92,52.3,6.936,52.122,6.951c-0.176,0.017-0.358,0.014-0.54,0.033
			c-0.161,0.018-0.322,0.071-0.486,0.089c-0.229,0.022-0.426,0.032-0.629,0.075c-0.376,0.082-0.691,0.145-0.982,0.266
			c-0.107,0.044-0.19,0.134-0.31,0.178c-0.116,0.042-0.241,0.086-0.342,0.143c-0.117,0.066-0.202,0.169-0.321,0.231
			c-0.117,0.062-0.253,0.098-0.385,0.166c-0.055,0.027-0.114,0.138-0.222,0.209c-0.048,0.033-0.118,0.047-0.155,0.076
			c-0.058,0.051-0.116,0.144-0.187,0.211c-0.071,0.065-0.156,0.135-0.209,0.2c-0.288,0.341-0.427,0.813-0.719,1.19
			c-0.052,0.068-0.136,0.114-0.189,0.178c-0.043,0.053-0.07,0.149-0.131,0.198c-0.049,0.042-0.125,0.051-0.177,0.086
			c-0.08,0.062-0.13,0.152-0.208,0.211c-0.09,0.071-0.124,0.158-0.2,0.222c-0.096,0.083-0.204,0.13-0.286,0.231
			c-0.083,0.104-0.177,0.199-0.234,0.299c-0.031,0.06-0.043,0.127-0.077,0.188c-0.087,0.161-0.231,0.299-0.342,0.453
			c-0.053,0.076-0.083,0.174-0.132,0.266c-0.048,0.091-0.137,0.154-0.176,0.231c-0.046,0.09-0.074,0.219-0.112,0.332
			c-0.041,0.119-0.121,0.219-0.144,0.31c-0.02,0.075-0.003,0.151-0.023,0.221c-0.017,0.074-0.06,0.133-0.078,0.21
			c-0.011,0.062-0.009,0.134-0.02,0.209c-0.022,0.119-0.065,0.239-0.089,0.364c-0.025,0.134-0.013,0.267-0.033,0.41
			c-0.041,0.295-0.096,0.577-0.143,0.849c-0.028,0.163-0.032,0.324-0.054,0.475c-0.023,0.139-0.09,0.261-0.09,0.387
			c0,0.074,0.052,0.21,0.057,0.299c0.002,0.177,0.005,0.527-0.025,0.685c-0.031,0.177-0.123,0.368-0.175,0.571
			c-0.051,0.198-0.147,0.383-0.189,0.576c-0.016,0.08,0,0.167-0.021,0.243c-0.07,0.24-0.193,0.493-0.243,0.741
			c-0.028,0.143-0.01,0.314-0.034,0.472c-0.02,0.139-0.104,0.285-0.108,0.41c-0.005,0.084,0.044,0.138,0.04,0.233
			c0,0.072-0.04,0.145-0.04,0.22c-0.002,0.081,0.029,0.161,0.033,0.243c0.007,0.381-0.058,0.734,0,1.093
			c0.012,0.103,0.053,0.198,0.086,0.321c0.048,0.169,0.005,0.36,0.034,0.518c0.028,0.152,0.076,0.323,0.064,0.475
			c-0.003,0.082-0.056,0.169-0.064,0.255c-0.009,0.072,0.014,0.132,0,0.208c-0.021,0.115-0.07,0.286-0.102,0.43
			c-0.033,0.171-0.057,0.362-0.163,0.366c-0.114,0.005-0.246-0.274-0.287-0.409c-0.065-0.205-0.14-0.324-0.2-0.498
			c-0.092-0.261-0.156-0.493-0.253-0.739c-0.039-0.095-0.129-0.19-0.165-0.275c-0.099-0.226-0.196-0.586-0.321-0.873
			c-0.053-0.122-0.159-0.184-0.188-0.297c-0.088-0.341-0.217-0.641-0.34-0.928c-0.046-0.103-0.068-0.215-0.112-0.321
			c-0.095-0.228-0.271-0.432-0.375-0.718c-0.079-0.213-0.105-0.373-0.176-0.585c-0.02-0.051-0.085-0.136-0.111-0.208
			c-0.019-0.054-0.019-0.149-0.045-0.21c-0.054-0.129-0.175-0.287-0.266-0.454c-0.086-0.163-0.128-0.351-0.208-0.519
			c-0.037-0.078-0.096-0.153-0.15-0.234c-0.038-0.078-0.078-0.161-0.122-0.241c-0.018-0.05-0.035-0.102-0.059-0.154
			c-0.125-0.273-0.309-0.608-0.475-0.86c-0.175-0.268-0.433-0.498-0.466-0.885c-0.017-0.255,0.149-0.418,0.213-0.595
			c0.031-0.09,0.038-0.188,0.066-0.277c0.06-0.197,0.181-0.373,0.22-0.574c0.042-0.212,0-0.417-0.069-0.596
			c-0.056-0.156-0.154-0.34-0.24-0.462c-0.05-0.073-0.096-0.144-0.139-0.212c-0.008-0.015-0.017-0.025-0.024-0.04
			c-0.138-0.211-0.266-0.41-0.422-0.578c-0.088-0.09-0.209-0.183-0.32-0.298c-0.104-0.107-0.173-0.268-0.277-0.354
			c-0.077-0.063-0.183-0.091-0.276-0.155c-0.41-0.276-0.867-0.434-1.279-0.705c-0.164-0.109-0.381-0.167-0.521-0.277
			c-0.128-0.099-0.174-0.273-0.264-0.442c-0.051-0.097-0.162-0.271-0.178-0.353c-0.016-0.085,0.002-0.177-0.01-0.266
			c-0.037-0.242-0.046-0.509-0.1-0.75c-0.03-0.145-0.093-0.276-0.142-0.419c-0.256-0.721-0.697-1.158-1.359-1.479
			c-0.459-0.224-0.801,0.18-1.016,0.396c-0.213,0.214-0.33,0.339-0.453,0.616c-0.081,0.185-0.162,0.446-0.144,0.666
			c0,0.021,0.007,0.04,0.013,0.06c-0.083,0.09-0.241,0.075-0.399,0.117c-0.115,0.03-0.221,0.111-0.331,0.132
			c-0.083,0.017-0.175-0.005-0.264,0.011c-0.11,0.02-0.209,0.109-0.325,0.136c-0.008,0.003-0.019,0.006-0.029,0.009
			c-0.106,0.01-0.235,0.002-0.341,0c-0.06-0.002-0.122-0.003-0.181-0.003c-0.298-0.002-0.599,0.003-0.875-0.028
			c-0.07-0.08-0.188-0.133-0.28-0.212c-0.106-0.091-0.226-0.152-0.321-0.242c-0.104-0.102-0.198-0.245-0.308-0.355
			c-0.119-0.12-0.266-0.199-0.364-0.296c-0.058-0.058-0.08-0.131-0.133-0.198c-0.048-0.061-0.125-0.101-0.188-0.156
			c-0.134-0.116-0.212-0.277-0.365-0.321c-0.162-0.046-0.375,0.009-0.52,0.077c-0.256,0.124-0.35,0.268-0.474,0.476
			c-0.034,0.057-0.064,0.118-0.092,0.184c-0.013,0.026-0.023,0.053-0.029,0.078c-0.044,0.125-0.074,0.262-0.079,0.422
			c-0.001,0.107,0.036,0.201,0.035,0.308c-0.004,0.103-0.038,0.2-0.035,0.287c0.007,0.129,0.056,0.245,0.045,0.363
			c-0.01,0.113-0.065,0.213-0.065,0.322c-0.002,0.126,0.074,0.246,0.076,0.363c0.001,0.092-0.054,0.184-0.066,0.3
			c-0.012,0.102,0.008,0.183-0.01,0.253c-0.086,0.314-0.415,0.36-0.641,0.574c-0.075,0.07-0.157,0.127-0.266,0.199
			c-0.097,0.063-0.187,0.169-0.265,0.2c-0.07,0.024-0.145,0.011-0.21,0.031c-0.09,0.026-0.166,0.086-0.255,0.112
			c-0.069,0.018-0.151,0.01-0.22,0.033c-0.067,0.019-0.143,0.098-0.244,0.143c-0.092,0.04-0.2,0.066-0.275,0.1
			c-0.138,0.06-0.341,0.249-0.42,0.332c-0.053,0.053-0.115,0.146-0.174,0.239c-0.004,0.006-0.011,0.013-0.015,0.02
			c-0.002,0.002-0.005,0.006-0.006,0.01c-0.057,0.074-0.13,0.146-0.17,0.216c-0.077,0.146-0.125,0.342-0.185,0.509
			c-0.036,0.094-0.099,0.172-0.124,0.253c-0.051,0.193-0.114,0.454-0.099,0.673c0.015,0.196,0.123,0.455,0.188,0.706
			c0.067,0.263,0.171,0.502,0.254,0.652c0.067,0.122,0.164,0.185,0.265,0.32c0.206,0.275,0.452,0.594,0.707,0.794
			c0.274,0.214,0.532,0.489,0.838,0.662c0.121,0.068,0.224,0.157,0.32,0.189c0.11,0.032,0.224,0.042,0.337,0.041
			c0.089,0.068,0.17,0.149,0.262,0.182c0.104,0.039,0.211,0.016,0.305,0.047c0.118,0.038,0.206,0.14,0.327,0.192
			c0.152,0.062,0.297,0.114,0.483,0.167c0.115,0.147,0.282,0.301,0.214,0.597c0.104,0.201,0.319,0.281,0.471,0.427
			c0.056,0.053,0.081,0.138,0.137,0.19l0.422,0.277c-0.008-0.117,0.115-0.299,0.128-0.432c0.009-0.106-0.05-0.246-0.024-0.331
			c0.045-0.15,0.219-0.292,0.316-0.411c0.195-0.045,0.392-0.088,0.59-0.124c0.029-0.003,0.05-0.018,0.065-0.033
			c0.039-0.001,0.08-0.004,0.119-0.004c0.022,0,0.042,0.004,0.062,0.009c0.029-0.006,0.058-0.009,0.084-0.009h0.16
			c0.229-0.089,0.498-0.104,0.721-0.073c0.039,0.003,0.073,0.019,0.104,0.037c0.213,0.007,0.419,0.053,0.635,0.08
			c0.204-0.099,0.351,0.049,0.532,0.117c0.154,0.06,0.302,0.128,0.448,0.201c0.027,0,0.053-0.001,0.079,0.002
			c0.386,0.052,0.758,0.219,1.069,0.458c0.19-0.004,0.362,0.073,0.51,0.215c0.034,0.031,0.057,0.073,0.074,0.116
			c0.028,0.023,0.059,0.043,0.094,0.064c0.011-0.007,0.02-0.016,0.029-0.022c0.025,0.031,0.05,0.063,0.068,0.094
			c0.032,0.055,0.063,0.137,0.109,0.209c0.05,0.078,0.104,0.154,0.123,0.209c0.094,0.302-0.159,0.392-0.419,0.509
			c-0.184,0.082-0.355,0.207-0.464,0.321c-0.131,0.135-0.262,0.254-0.41,0.375c-0.146,0.12-0.265,0.294-0.397,0.387
			c-0.068,0.048-0.215,0.095-0.266,0.142c-0.18,0.172-0.24,0.435-0.407,0.574c-0.095,0.079-0.22,0.105-0.32,0.199
			c-0.086,0.081-0.152,0.163-0.243,0.223c-0.092,0.057-0.209,0.062-0.309,0.122c-0.056,0.031-0.094,0.137-0.167,0.208
			c-0.2,0.201-0.415,0.338-0.605,0.52c-0.115,0.108-0.216,0.276-0.332,0.417c-0.115,0.144-0.292,0.258-0.365,0.39
			c-0.051,0.095-0.08,0.227-0.144,0.342c-0.06,0.109-0.151,0.24-0.164,0.332c-0.044,0.289,0.094,0.48,0.22,0.694
			c0.106,0.178,0.154,0.4,0.264,0.53c0.106,0.125,0.315,0.15,0.443,0.253c0.192,0.159,0.178,0.408,0.386,0.509
			c0.41,0.197,0.842,0.079,1.193-0.022c0.164-0.049,0.309-0.122,0.451-0.166c0.121-0.038,0.25-0.003,0.389-0.022
			c0.223-0.03,0.438-0.175,0.65-0.298c0.206-0.119,0.442-0.219,0.63-0.331c0.4-0.239,1.003-0.301,1.435-0.475
			c0.172-0.069,0.305-0.243,0.486-0.276c0.068,0.027,0.164,0.027,0.243,0.044c0.173,0.155,0.282,0.608,0.312,0.59
			c-0.019,0.013,0.065,0.496,0.091,0.562c0.073,0.19,0.276,0.319,0.343,0.519c0.016,0.05,0.032,0.102,0.046,0.157
			c0.046,0.204,0.046,0.421-0.162,0.544c-0.012,0.007-0.024,0.007-0.033,0.013c-0.019,0.046-0.047,0.088-0.084,0.122
			c-0.039,0.034-0.083,0.067-0.125,0.097c-0.011,0.022-0.022,0.043-0.037,0.063c-0.27,0.472-0.486,0.854-0.831,1.277
			c-0.058,0.07-0.129,0.13-0.174,0.209c-0.046,0.075-0.078,0.176-0.1,0.265c-0.067-0.182-0.16-0.359-0.279-0.494
			c-0.044-0.085-0.092-0.167-0.145-0.241c-0.087-0.117-0.198-0.183-0.323-0.238c-0.028-0.027-0.062-0.049-0.102-0.063
			c-0.041-0.016-0.085-0.024-0.127-0.024c-0.169,0-0.338,0.114-0.338,0.303c0,0.006-0.163,0.026-0.214,0.026
			c-0.007,0-0.013,0-0.014,0c-0.031-0.014-0.067-0.018-0.104-0.018c-0.034,0-0.068,0.004-0.102,0.009
			c-0.016,0.002-0.036,0.004-0.05,0.004c-0.228,0.027-0.374,0.151-0.521,0.312c-0.044,0.047-0.101,0.119-0.156,0.127
			c-0.021,0.002-0.04,0.003-0.059,0.003c-0.057,0-0.11-0.01-0.165-0.01c-0.046,0-0.09,0.007-0.139,0.034
			c-0.091,0.053-0.127,0.15-0.137,0.262c-0.014,0.204,0.062,0.455,0.088,0.6c0.007,0.04,0.019,0.08,0.025,0.12
			c0.085,0.441,0.196,0.896,0.425,1.283c0.194,0.332,0.776,0.643,0.9,0.962c0.161,0.415,0.411,0.763,0.66,1.133
			c0.035,0.05,0.065,0.104,0.094,0.156c0.002,0.008,0.002,0.013,0.002,0.018c0.096,0.373,0.229,0.748,0.397,1.1
			c0.032,0.095,0.065,0.188,0.104,0.28c0.011,0.024,0.026,0.041,0.043,0.063c0.026,0.036,0.057,0.065,0.096,0.085
			c0.125,0.171,0.278,0.301,0.443,0.366c0.11,0.053,0.235,0.087,0.371,0.099c0.029,0.002,0.06,0.002,0.087,0.002
			c0.124,0,0.239-0.021,0.347-0.059c0.183,0,0.363-0.006,0.541-0.046c0.079-0.018,0.145-0.062,0.191-0.122
			c0.416,0.022,0.865-0.023,1.295-0.066c0.255-0.11,0.593-0.142,0.879-0.223c-0.097-0.999,0.418-1.489,0.854-2.071
			c0.27-0.359,0.534-0.646,0.856-0.912c0.487-0.4,0.936-0.837,1.531-1.114c0.073-0.035,0.139-0.075,0.205-0.117
			c0.008-0.032,0.014-0.063,0.021-0.091c0.188-0.122,0.372-0.252,0.59-0.346c0.141-0.06,0.277-0.119,0.409-0.187
			c0.129-0.069,0.254-0.175,0.387-0.234c0.346-0.151,0.741-0.216,1.093-0.33c0.133-0.043,0.272-0.04,0.408-0.065
			c0.188-0.035,0.353-0.136,0.54-0.177c0.185-0.042,0.364-0.084,0.553-0.122c0.158-0.034,0.326-0.123,0.486-0.188
			c0.177-0.074,0.36-0.079,0.54-0.132c0.159-0.049,0.207-0.177,0.343-0.266c0.057-0.038,0.15-0.052,0.2-0.1
			c0.18-0.179,0.253-0.612,0.374-0.904c0.042-0.098,0.11-0.174,0.154-0.266c0.048-0.1,0.075-0.209,0.112-0.32
			c0.063-0.206,0.168-0.396,0.241-0.607c0.108-0.303,0.32-0.565,0.397-0.873c0.027-0.114,0.018-0.245,0.055-0.374
			c0.02-0.063,0.073-0.098,0.112-0.156c0.11-0.168,0.183-0.403,0.242-0.585c0.045-0.139,0.088-0.267,0.142-0.397
			c0.063-0.151,0.069-0.279,0.088-0.465c0.012-0.083,0.069-0.164,0.066-0.267c-0.002-0.127-0.086-0.272-0.053-0.505
			c0.01-0.1,0.064-0.206,0.087-0.321c0.063-0.332,0.114-0.743,0.242-1.016c0.208-0.438,0.5-0.843,0.685-1.279
			c0.135-0.317,0.263-0.67,0.476-0.972c0.043-0.062,0.109-0.122,0.154-0.199c0.122-0.207,0.294-0.567,0.484-0.607
			c0.114-0.022,0.235,0.019,0.344,0c0.267-0.046,0.301-0.311,0.597-0.298c0.139,0.006,0.25,0.12,0.362,0.166
			c0.068,0.025,0.146,0.035,0.211,0.065c0.125,0.061,0.197,0.163,0.319,0.187c0.446,0.095,0.951,0.033,1.359-0.075
			c0.401-0.108,0.813-0.186,1.182-0.321c0.115-0.042,0.218-0.117,0.331-0.165c0.237-0.102,0.494-0.189,0.693-0.309
			c0.091-0.055,0.13-0.154,0.223-0.232c0.096-0.082,0.204-0.135,0.252-0.2c0.088-0.112,0.134-0.309,0.21-0.475
			c0.034-0.075,0.086-0.132,0.133-0.209c0.049-0.08,0.053-0.179,0.088-0.253c0.041-0.083,0.127-0.143,0.166-0.209
			c0.149-0.264,0.229-0.625,0.442-0.917c0.202-0.28,0.363-0.615,0.451-0.918C59.574,14.144,59.877,13.65,59.818,12.991"/>
		<path fill="#7A604B" d="M31.809,8.204c-0.083,0.09-0.241,0.075-0.399,0.117c-0.115,0.03-0.221,0.111-0.331,0.133
			c-0.083,0.016-0.175-0.006-0.264,0.011c-0.11,0.019-0.209,0.108-0.325,0.135c-0.008,0.003-0.019,0.005-0.029,0.009
			c-0.106,0.01-0.235,0.002-0.341,0c-0.06-0.003-0.122-0.003-0.181-0.003c-0.298-0.002-0.599,0.003-0.875-0.026
			c0.014,0.016,0.03,0.032,0.039,0.05c0.047,0.09,0.073,0.273,0.111,0.419c0.039,0.146,0.073,0.305,0.09,0.43
			c0.01,0.083-0.009,0.169,0,0.256c0.008,0.079,0.042,0.159,0.042,0.23c0.003,0.101-0.037,0.199-0.033,0.298
			c0.008,0.179,0.056,0.378,0.056,0.574c0,0.107,0.067,0.266,0.087,0.397c0.027,0.169,0.022,0.337,0.057,0.464
			c0.042,0.157,0.153,0.338,0.221,0.52c0.067,0.185,0.129,0.378,0.21,0.519c0.052,0.091,0.169,0.187,0.305,0.253
			c0,0,0.002,0,0.003,0s0.004,0.002,0.004,0.002c0.212,0.101,0.464,0.124,0.581-0.069c0.043-0.068,0.097-0.21,0.111-0.332
			c0.035-0.316,0.057-0.662,0.132-0.938c0.128-0.471,0.337-0.854,0.365-1.303c0.005-0.098-0.025-0.188-0.023-0.243
			c0.005-0.083,0.071-0.146,0.09-0.219c0.033-0.139,0.04-0.284,0.09-0.432c0.04-0.128,0.129-0.251,0.163-0.385
			c0.039-0.154,0.11-0.475,0.111-0.619C31.874,8.365,31.829,8.289,31.809,8.204"/>
		<path fill="#7A604B" d="M28.27,12.88c-0.112-0.14-0.42-0.232-0.654-0.194c-0.109,0.017-0.198,0.069-0.259,0.151
			c-0.084,0.115-0.113,0.281-0.082,0.479c0.033,0.22,0.268,0.526,0.485,0.552c0.021,0.004,0.041,0.004,0.062,0.004
			c0.205,0,0.396-0.137,0.5-0.354C28.429,13.296,28.408,13.052,28.27,12.88"/>
		<path fill="#7A604B" d="M33.48,13.108c-0.103-0.131-0.258-0.203-0.425-0.203c-0.024,0-0.048-0.001-0.072-0.003
			c-0.025,0-0.05,0-0.073,0c-0.05,0-0.116,0.002-0.175,0.029c-0.144,0.064-0.254,0.249-0.288,0.48
			c-0.037,0.241,0.022,0.452,0.154,0.567c0.076,0.066,0.251,0.159,0.382,0.159h0.007c0.198-0.005,0.554-0.26,0.6-0.473
			C33.638,13.452,33.599,13.254,33.48,13.108 M32.983,14.082L32.983,14.082L32.983,14.082L32.983,14.082z"/>
		<path fill="#7A604B" d="M30.599,14.962c-0.062,0.019-0.107,0.06-0.153,0.1c-0.041,0.036-0.077,0.067-0.118,0.08
			c-0.058-0.064-0.139-0.076-0.21-0.088c-0.047-0.007-0.09-0.014-0.132-0.034c-0.037-0.017-0.061-0.07-0.086-0.125
			c-0.026-0.059-0.053-0.118-0.104-0.156c-0.063-0.046-0.127-0.071-0.19-0.071c-0.133,0-0.241,0.102-0.337,0.19
			c-0.08,0.074-0.156,0.146-0.23,0.146h-0.001c-0.028-0.002-0.073-0.037-0.109-0.069c-0.042-0.035-0.084-0.07-0.13-0.083
			c-0.055-0.018-0.11-0.026-0.162-0.026c-0.232,0-0.365,0.163-0.373,0.315c-0.007,0.138,0.089,0.287,0.317,0.316
			c0.104,0.105,0.262,0.164,0.446,0.164c0.198,0,0.388-0.065,0.509-0.175c0.097,0.085,0.211,0.181,0.4,0.189
			c0.104,0.07,0.257,0.167,0.429,0.167c0.037,0,0.074-0.004,0.108-0.013c0.054-0.014,0.134-0.068,0.219-0.127
			c0.029-0.019,0.059-0.04,0.084-0.057c0.066-0.043,0.172-0.128,0.205-0.184c0.059-0.104,0.06-0.218,0.002-0.316
			C30.908,14.978,30.747,14.915,30.599,14.962"/>
		<path fill-rule="evenodd" clip-rule="evenodd" fill="#7A604B" d="M44.406,30.082c-0.047-0.124-0.032-0.255-0.057-0.387
			c-0.023-0.122-0.09-0.227-0.112-0.331c-0.022-0.125-0.01-0.238-0.032-0.342c-0.033-0.163-0.112-0.323-0.174-0.475
			c-0.043-0.097-0.131-0.192-0.167-0.307c-0.05-0.166-0.054-0.35-0.1-0.521c-0.121-0.451-0.247-0.953-0.398-1.424
			c-0.016-0.052-0.062-0.101-0.077-0.155c-0.051-0.186-0.048-0.38-0.099-0.562c-0.083-0.298-0.224-0.568-0.341-0.85
			c0.134-0.069,0.143-0.269,0.186-0.487c0.024-0.112,0.063-0.235,0.079-0.341c0.009-0.068-0.007-0.133,0-0.199
			c0.009-0.099,0.062-0.173,0.065-0.265c0.009-0.223-0.076-0.405-0.1-0.651c-0.009-0.099,0.013-0.207,0-0.309
			c-0.021-0.165-0.104-0.303-0.11-0.465c-0.008-0.203,0.013-0.398,0.022-0.586c0.011-0.215-0.039-0.429-0.032-0.639
			c0.001-0.074,0.043-0.15,0.043-0.221c0-0.074-0.048-0.149-0.043-0.222c0.005-0.116,0.075-0.263,0.099-0.396
			c0.023-0.149,0.021-0.309,0.043-0.443c0.047-0.266,0.168-0.509,0.233-0.75c0.022-0.084,0.017-0.171,0.031-0.254
			c0.04-0.2,0.135-0.391,0.188-0.598c0.028-0.097,0.057-0.204,0.09-0.307c0.031-0.097,0.086-0.194,0.1-0.288
			c0.021-0.142-0.016-0.301-0.014-0.454c0.002-0.066,0.026-0.135,0.026-0.197c-0.002-0.101-0.053-0.193-0.057-0.289
			c-0.006-0.136,0.066-0.27,0.088-0.417c0.023-0.154,0.027-0.313,0.056-0.476c0.046-0.273,0.105-0.55,0.143-0.851
			c0.01-0.081-0.006-0.157,0-0.23c0.016-0.188,0.106-0.356,0.133-0.542c0.009-0.064-0.013-0.135,0-0.198
			c0.012-0.064,0.071-0.137,0.087-0.222c0.016-0.068,0.007-0.148,0.023-0.209c0.021-0.07,0.079-0.146,0.11-0.222
			c0.056-0.14,0.092-0.3,0.155-0.419c0.038-0.072,0.098-0.128,0.143-0.199c0.043-0.067,0.072-0.148,0.112-0.22
			c0.104-0.189,0.266-0.333,0.374-0.519c0.034-0.061,0.045-0.138,0.076-0.199c0.035-0.063,0.111-0.119,0.166-0.188
			c0.056-0.07,0.102-0.148,0.156-0.198c0.063-0.059,0.157-0.085,0.221-0.144c0.054-0.049,0.073-0.128,0.119-0.177
			c0.042-0.04,0.104-0.072,0.145-0.11c0.047-0.045,0.081-0.1,0.124-0.132c0.056-0.045,0.145-0.063,0.197-0.111
			c0.053-0.05,0.076-0.134,0.121-0.187c0.05-0.06,0.125-0.103,0.176-0.167c0.292-0.354,0.424-0.83,0.718-1.19
			c0.053-0.066,0.146-0.13,0.221-0.199c0.074-0.071,0.125-0.17,0.187-0.221c0.042-0.034,0.108-0.047,0.155-0.079
			c0.088-0.057,0.134-0.155,0.209-0.198c0.124-0.066,0.256-0.115,0.376-0.177c0.227-0.12,0.4-0.277,0.672-0.375
			c0.123-0.045,0.214-0.134,0.321-0.178c0.489-0.203,1.002-0.288,1.602-0.341c0.171-0.017,0.363-0.088,0.562-0.101
			c0.208-0.013,0.442-0.027,0.642-0.043c0.231-0.021,0.388,0.068,0.585,0.087c0.092,0.009,0.193-0.013,0.298,0
			c0.066,0.008,0.126,0.051,0.199,0.066c0.171,0.036,0.377,0.039,0.508,0.078c0.155,0.048,0.245,0.149,0.375,0.199
			c0.075,0.026,0.157,0.022,0.231,0.044c0.264,0.084,0.481,0.331,0.695,0.485c0.238,0.176,0.488,0.338,0.685,0.497
			c0.091,0.073,0.185,0.197,0.287,0.255c0.058,0.031,0.13,0.036,0.187,0.065c0.181,0.094,0.287,0.278,0.454,0.364
			c0.075,0.038,0.162,0.044,0.23,0.077c0.198,0.096,0.382,0.26,0.542,0.387c0.09,0.07,0.181,0.13,0.254,0.21
			c0.073,0.077,0.129,0.174,0.21,0.252c0.138,0.132,0.303,0.224,0.443,0.365c0.27,0.273,0.521,0.513,0.781,0.817
			c0.121,0.137,0.282,0.359,0.346,0.519c0.037,0.098,0.049,0.216,0.085,0.331c0.041,0.116,0.107,0.23,0.123,0.353
			c0.03,0.243,0.027,0.515,0.023,0.752c-0.013,0.639-0.281,1.08-0.431,1.578c-0.155,0.505-0.471,0.847-0.663,1.325
			c-0.048,0.12-0.11,0.222-0.165,0.331c-0.056,0.113-0.146,0.193-0.199,0.299c-0.029,0.059-0.029,0.139-0.054,0.197
			c-0.041,0.091-0.125,0.191-0.179,0.312c-0.067,0.15-0.111,0.317-0.198,0.429c-0.063,0.084-0.172,0.13-0.266,0.21
			c-0.086,0.078-0.122,0.187-0.221,0.232c-0.368,0.175-0.781,0.386-1.225,0.519c-0.218,0.066-0.438,0.16-0.672,0.199
			c-0.244,0.04-0.472,0.128-0.708,0.152c-0.342,0.038-0.684,0.091-0.982-0.011c-0.125-0.039-0.191-0.148-0.309-0.198
			c-0.065-0.025-0.144-0.025-0.211-0.054c-0.183-0.079-0.251-0.22-0.496-0.144c-0.163,0.052-0.224,0.238-0.441,0.276
			c-0.132,0.024-0.228-0.03-0.354,0c-0.21,0.052-0.347,0.406-0.474,0.619c-0.067,0.113-0.16,0.194-0.22,0.307
			c-0.178,0.331-0.352,0.685-0.521,1.051c-0.164,0.357-0.355,0.66-0.516,0.982c-0.175,0.345-0.212,0.757-0.311,1.192
			c-0.019,0.083-0.064,0.147-0.076,0.243c-0.029,0.204,0.052,0.38,0.054,0.505c0.003,0.096-0.054,0.174-0.066,0.254
			c-0.02,0.156-0.009,0.28-0.055,0.411c-0.106,0.303-0.243,0.677-0.387,0.973c-0.035,0.073-0.12,0.149-0.144,0.232
			c-0.055,0.19-0.042,0.353-0.1,0.505c-0.05,0.14-0.13,0.246-0.208,0.387c-0.072,0.128-0.112,0.281-0.166,0.432
			c-0.052,0.144-0.134,0.274-0.189,0.409c-0.051,0.125-0.084,0.305-0.143,0.429c-0.035,0.073-0.14,0.197-0.166,0.287
			c-0.085,0.311-0.22,0.751-0.365,0.895c-0.042,0.045-0.142,0.063-0.197,0.1c-0.13,0.085-0.184,0.217-0.331,0.266
			c-0.174,0.053-0.347,0.05-0.519,0.121c-0.143,0.059-0.293,0.142-0.442,0.187c-0.229,0.073-0.495,0.106-0.741,0.167
			c-0.119,0.029-0.228,0.072-0.341,0.11c-0.129,0.042-0.253,0.042-0.387,0.066C44.831,29.958,44.631,30.086,44.406,30.082"/>
		<path fill-rule="evenodd" clip-rule="evenodd" fill="#4E9266" d="M37.661,58.887c-0.03-0.001-0.06-0.015-0.079-0.042
			c-0.019-0.021-0.029-0.051-0.025-0.081l1.113-11.311c0.008-0.058,0.055-0.104,0.112-0.104c0.001,0,1.114,0.075,1.114,0.075
			c0.058,0.005,0.103,0.054,0.102,0.115l-0.362,11.358c-0.002,0.033-0.015,0.061-0.037,0.08c-0.021,0.02-0.046,0.028-0.075,0.028
			C39.522,59.006,37.661,58.887,37.661,58.887"/>
		<path fill-rule="evenodd" clip-rule="evenodd" fill="#4E9266" d="M46.716,58.561c-0.048,0-0.09-0.03-0.104-0.078l-0.034-0.101
			l-0.146-0.405c-0.059-0.16-0.118-0.319-0.18-0.476c-0.159-0.413-0.335-0.813-0.486-1.153c-0.17-0.373-0.35-0.733-0.552-1.105
			c-0.085-0.17-0.182-0.33-0.281-0.493c-0.004-0.011-0.068-0.121-0.092-0.155c-0.041-0.065-0.112-0.104-0.189-0.104
			c-0.029,0-0.057,0.005-0.086,0.016c-0.901,0.376-1.854,0.667-2.919,0.885c-0.008,0.001-0.015,0.002-0.022,0.002
			c-0.022,0-0.042-0.008-0.063-0.021c-0.023-0.014-0.042-0.039-0.047-0.069l-0.196-1.03c-0.009-0.06,0.027-0.115,0.085-0.13
			c1.166-0.269,2.247-0.646,3.132-1.093c0.495-0.249,0.928-0.541,1.36-0.912c0.373-0.313,0.777-0.765,0.843-1.062
			c0.017-0.072,0.019-0.12,0.01-0.191l-0.008-0.063l-0.013-0.064c-0.004-0.018-0.009-0.036-0.017-0.049
			c-0.063-0.135-0.17-0.232-0.331-0.321c-0.397-0.22-0.998-0.303-1.43-0.336c-0.229-0.013-0.46-0.021-0.695-0.021
			c-0.747,0-1.557,0.067-2.621,0.218c-0.005,0.001-0.011,0.001-0.017,0.001c-0.024,0-0.048-0.007-0.067-0.021
			c-0.024-0.018-0.039-0.045-0.045-0.075l-0.181-1.368c-0.004-0.029,0.005-0.06,0.024-0.083c0.019-0.026,0.045-0.04,0.073-0.044
			c0.689-0.082,1.597-0.173,2.522-0.173c0.393,0,0.774,0.017,1.136,0.047c0.705,0.08,1.339,0.177,2.041,0.567
			c0.297,0.173,0.697,0.48,0.914,0.985c0.05,0.109,0.086,0.227,0.114,0.348c0.012,0.058,0.024,0.126,0.027,0.157l0.021,0.163
			c0.02,0.227-0.004,0.482-0.069,0.702c-0.135,0.457-0.378,0.785-0.596,1.042c-0.203,0.238-0.432,0.456-0.74,0.707l-0.087,0.074
			c-0.055,0.043-0.086,0.107-0.086,0.177c0,0.067,0.033,0.135,0.088,0.173c0.07,0.055,0.142,0.116,0.211,0.173
			c0.383,0.335,0.748,0.737,1.085,1.193c0.288,0.391,0.557,0.83,0.82,1.347c0.111,0.23,0.226,0.472,0.321,0.715l0.142,0.369
			l0.055,0.157c0.015,0.041,0.005,0.085-0.026,0.116c-0.012,0.013-0.034,0.031-0.064,0.053l-0.144,0.095l-0.289,0.145l-1.525,0.484
			l-0.325,0.061l-0.188,0.02c-0.021,0.001-0.04,0.002-0.058,0.002H46.716z"/>
		<path fill-rule="evenodd" clip-rule="evenodd" fill="#4E9266" d="M24.379,59.006l-1.521-0.411
			c-0.292-0.169-0.361-0.244-0.393-0.292c-0.027-0.035-0.09-0.122-0.049-0.23l0.125-0.372c0.084-0.243,0.174-0.482,0.268-0.717
			c0.198-0.506,0.437-0.99,0.623-1.354c0.402-0.793,0.874-1.591,1.493-2.513c0.574-0.854,1.132-1.624,1.71-2.349l0.182-0.224
			c0.242-0.302,0.49-0.611,0.758-0.909c0.167-0.184,0.339-0.371,0.523-0.562l0.059-0.058c0.176-0.17,0.344-0.333,0.64-0.518
			c0.228-0.146,0.548-0.231,0.858-0.231c0.142,0,0.271,0.014,0.388,0.049c0.407,0.109,0.685,0.314,0.904,0.501
			c0.45,0.4,0.749,0.833,1.016,1.245c0.503,0.781,0.903,1.582,1.291,2.356l0.098,0.195c0.462,0.941,0.823,1.881,1.115,2.673
			c0.3,0.789,0.554,1.562,0.824,2.38l0.074,0.229c0.01,0.028,0.007,0.062-0.007,0.088c-0.017,0.024-0.042,0.046-0.071,0.055
			l-1.365,0.35c-0.009,0.002-0.018,0.005-0.027,0.005c-0.021,0-0.042-0.005-0.059-0.017c-0.027-0.017-0.044-0.043-0.051-0.072
			c-0.338-1.522-0.725-2.824-1.185-3.982c-0.034-0.084-0.118-0.139-0.206-0.139c-0.019,0-0.036,0.001-0.054,0.004l-4.336,1.053
			c-0.007,0.002-0.017,0.004-0.026,0.004c-0.021,0-0.044-0.007-0.061-0.019c-0.025-0.019-0.043-0.045-0.049-0.076l-0.22-1.344
			c-0.004-0.033,0.004-0.064,0.022-0.089c0.018-0.025,0.047-0.039,0.079-0.041l4.083-0.357c0.073-0.007,0.139-0.048,0.174-0.112
			c0.036-0.064,0.039-0.141,0.006-0.208c-0.31-0.626-0.726-1.436-1.214-2.162c-0.288-0.417-0.552-0.722-0.787-0.91
			c-0.083-0.07-0.158-0.113-0.207-0.136c-0.032-0.017-0.066-0.024-0.098-0.024c-0.053,0-0.106,0.02-0.147,0.054
			c-0.042,0.037-0.184,0.173-0.314,0.327c-0.131,0.149-0.262,0.32-0.392,0.508c-0.31,0.444-0.534,0.794-0.727,1.135
			c-0.432,0.75-0.855,1.567-1.261,2.429c-0.343,0.739-0.687,1.53-1.084,2.489c-0.143,0.354-0.276,0.707-0.406,1.054l-0.068,0.183
			c-0.073,0.204-0.142,0.406-0.205,0.606l-0.086,0.287c-0.005,0.043-0.039,0.095-0.152,0.121c-0.014,0.003-0.028,0.008-0.04,0.014
			c-0.045,0.015-0.163,0.034-0.378,0.034C24.446,59.006,24.379,59.006,24.379,59.006"/>
		<path fill-rule="evenodd" clip-rule="evenodd" fill="#4E9266" d="M57.733,59.006c-0.583,0-1.052-0.051-1.438-0.166
			c-0.646-0.187-1.32-0.615-1.848-1.173c-1.107-1.179-1.712-2.625-2.116-3.753c-0.397-1.152-0.743-2.437-1.051-3.933
			c-0.008-0.034-0.001-0.07,0.015-0.099c0.018-0.029,0.044-0.052,0.073-0.056l2.056-0.38c0.006-0.002,0.011-0.002,0.014-0.002
			c0.028,0,0.051,0.009,0.071,0.026c0.023,0.022,0.039,0.055,0.042,0.089c0.115,1.435,0.296,2.595,0.568,3.647
			c0.377,1.447,0.846,2.483,1.431,3.17c0.362,0.428,0.736,0.704,1.183,0.876c0.418,0.167,0.87,0.257,1.3,0.257
			c0.065,0,0.126-0.002,0.188-0.005c2.396-0.131,3.823-2.72,3.991-5.214c0.021-0.292,0.038-0.587,0.052-0.883
			c0.111-2.093,0.226-4.252,1.791-5.645c0.536-0.474,1.25-0.727,2.067-0.727c0.473,0,0.969,0.087,1.437,0.25
			c1.17,0.411,2.095,1.584,2.248,2.856c0.05,0.406,0.018,0.806-0.09,1.193c-0.21,0.753-0.762,1.51-1.522,1.51
			c-0.193,0-0.388-0.048-0.581-0.148c-0.108-0.053-0.219-0.125-0.329-0.208c-0.251-0.194-0.438-0.472-0.526-0.781
			c-0.012-0.039-0.032-0.075-0.056-0.105c-0.069-0.074-0.11-0.118-0.14-0.158c-0.04-0.06-0.104-0.094-0.173-0.094
			c-0.055,0.004-0.1,0.01-0.145,0.014c-0.075,0.016-0.138,0.067-0.172,0.145c-0.025,0.063-0.069,0.115-0.127,0.154
			c-0.58,0.401-0.858,1.101-1.069,1.796c-0.08,0.261-0.157,0.522-0.233,0.784c-0.269,0.915-0.546,1.861-0.936,2.728
			c-0.773,1.717-1.995,2.957-3.539,3.59c-0.627,0.258-1.278,0.404-1.93,0.433C58.075,59.003,57.906,59.006,57.733,59.006"/>
		<path fill-rule="evenodd" clip-rule="evenodd" fill="#4E9266" d="M17.478,58.858l-0.135-0.035
			c-0.121-0.032-0.225-0.061-0.27-0.082c-0.138-0.059-0.169-0.089-0.18-0.1c-0.023-0.026-0.036-0.06-0.029-0.097l-0.001-0.051
			l0.196-2.565c0.034-0.339,0.065-0.678,0.098-1.019c0.058-0.613,0.116-1.247,0.194-1.864c0.114-1.03,0.252-2.033,0.374-2.876
			l0.045-0.282c0.13-0.828,0.264-1.67,0.44-2.494c0.011-0.051,0.057-0.087,0.11-0.087c0,0,1.387,0.091,1.387,0.091
			c0.055,0.002,0.099,0.046,0.103,0.101c0.068,0.847,0.091,1.697,0.113,2.522l0.008,0.292c0.012,0.861,0.019,1.874-0.001,2.903
			c-0.005,0.62-0.026,1.247-0.048,1.854c-0.014,0.358-0.026,0.701-0.037,1.041l-0.138,2.531c-0.007,0.044-0.007,0.045-0.004,0.08
			c0.004,0.043-0.019,0.089-0.057,0.11c-0.019,0.009-0.063,0.031-0.184,0.065c-0.05,0.014-0.186,0.034-0.271,0.043
			c0,0-0.14,0.02-0.145,0.02L17.478,58.858"/>
		<path fill-rule="evenodd" clip-rule="evenodd" fill="#4E9266" d="M2.397,46.452c-0.661-0.098-1.295-0.712-1.633-1.207
			l-0.033-0.044c-0.152-0.219-0.325-0.471-0.296-0.71c0.005-0.053,0.02-0.095,0.04-0.136c0.036-0.064,0.059-0.094,0.105-0.137
			c0.181-0.158,0.481-0.155,0.747-0.152h0.064c0.17,0.002,0.343,0.016,0.515,0.042c0.383,0.058,1.08,0.227,1.467,0.718
			c0.294,0.371,0.356,0.716,0.202,1.09c-0.003,0.008-0.017,0.043-0.021,0.053c-0.002,0.005-0.026,0.042-0.029,0.045
			c-0.237,0.348-0.559,0.484-1.023,0.45C2.466,46.462,2.432,46.458,2.397,46.452"/>
		<path fill-rule="evenodd" clip-rule="evenodd" fill="#4E9266" d="M3.39,49.878c-0.045-0.006-0.09-0.017-0.134-0.026
			c-0.652-0.175-1.174-0.896-1.424-1.463l-0.044-0.1C1.722,48.144,1.656,48,1.639,47.844c-0.011-0.097,0.008-0.172,0.058-0.219
			c0.053-0.051,0.136-0.068,0.236-0.053c0.042,0.007,0.087,0.017,0.131,0.036c0.059,0.028,0.113,0.046,0.171,0.064
			c0.05,0.013,0.102,0.021,0.153,0.03c0.105,0.014,0.208,0.019,0.312,0.016c0.188-0.01,0.374,0,0.556,0.028
			c0.354,0.052,0.657,0.173,0.873,0.347c0.269,0.213,0.419,0.543,0.404,0.881c-0.015,0.306-0.171,0.579-0.426,0.748
			C3.897,49.861,3.649,49.917,3.39,49.878"/>
		<path fill-rule="evenodd" clip-rule="evenodd" fill="#4E9266" d="M5.623,52.929c-0.911-0.135-1.625-1.068-1.758-1.252
			l-0.072-0.095c-0.104-0.141-0.212-0.285-0.271-0.452c-0.048-0.14-0.012-0.224,0.025-0.271c0.069-0.083,0.209-0.115,0.376-0.09
			c0.046,0.01,0.071,0.014,0.096,0.017c0.04,0.005,0.078,0.012,0.118,0.012c0.182,0.006,0.353-0.015,0.517-0.059
			c0.396-0.104,0.803-0.133,1.147-0.081c0.188,0.029,0.36,0.081,0.507,0.153c0.347,0.171,0.589,0.499,0.653,0.868
			c0.057,0.34-0.048,0.676-0.29,0.925c-0.236,0.244-0.54,0.355-0.901,0.341C5.721,52.941,5.671,52.937,5.623,52.929"/>
		<path fill-rule="evenodd" clip-rule="evenodd" fill="#4E9266" d="M6.485,46.636c-0.216-0.031-0.415-0.128-0.576-0.279
			c-0.455-0.42-0.559-1.147-0.579-1.358c-0.015-0.154-0.053-0.3-0.115-0.451c-0.023-0.057-0.051-0.11-0.085-0.162
			c-0.063-0.108-0.103-0.247-0.048-0.345c0.024-0.05,0.084-0.104,0.218-0.11c0.053-0.002,0.108,0.002,0.162,0.01
			c0.099,0.015,0.195,0.045,0.292,0.074l0.108,0.03c0.599,0.163,1.393,0.574,1.658,1.194c0.128,0.298,0.128,0.588,0,0.86
			C7.332,46.498,6.936,46.707,6.485,46.636"/>
		<path fill-rule="evenodd" clip-rule="evenodd" fill="#4E9266" d="M9.605,49.588c-0.35-0.052-0.659-0.258-0.846-0.566
			c-0.351-0.578-0.264-1.345-0.209-1.645c0.029-0.171,0.036-0.342,0.017-0.519c-0.009-0.07-0.024-0.138-0.046-0.204
			c-0.04-0.163-0.021-0.306,0.049-0.381c0.037-0.041,0.106-0.083,0.231-0.066c0.213,0.052,0.371,0.149,0.51,0.238l0.107,0.065
			c0.595,0.359,1.323,1.047,1.42,1.797c0.048,0.359-0.041,0.67-0.264,0.926C10.331,49.515,9.979,49.644,9.605,49.588"/>
		<path fill-rule="evenodd" clip-rule="evenodd" fill="#4E9266" d="M10.565,56.001c-0.189-2.637-1.332-5.196-3.056-7.194
			c-0.799-0.928-1.758-1.701-2.795-2.246c-0.013-0.002-0.028-0.008-0.037-0.015c-0.035-0.013-0.072-0.025-0.112-0.031
			c-0.141-0.022-0.284,0.036-0.369,0.15c-0.129,0.174-0.096,0.421,0.081,0.551c0.426,0.32,0.808,0.642,1.2,1.019
			c0.38,0.365,0.732,0.754,1.053,1.151c0.542,0.674,1.019,1.43,1.415,2.24c0.107,0.256,0.197,0.49,0.273,0.714
			c0.692,2.001,0.844,4.177,0.444,6.294c-0.004,0.031,0.002,0.062,0.02,0.084c0.018,0.025,0.044,0.042,0.073,0.048l1.506,0.239
			c0.031,0.005,0.061-0.002,0.086-0.022c0.024-0.019,0.04-0.045,0.043-0.077l0.087-0.59C10.595,57.548,10.622,56.771,10.565,56.001"
			/>
		<path fill-rule="evenodd" clip-rule="evenodd" fill="#4E9266" d="M18.848,54.372c0.004,0.029-0.002,0.06-0.017,0.082
			c-0.015,0.024-0.037,0.038-0.061,0.038l-9.04,0.521c-0.046,0.003-0.088-0.036-0.099-0.095c0-0.002-0.144-1.102-0.144-1.102
			c-0.008-0.062,0.025-0.114,0.072-0.121l8.941-1.265c0.024-0.005,0.048,0.004,0.069,0.024c0.016,0.016,0.03,0.042,0.034,0.068
			C18.607,52.524,18.848,54.372,18.848,54.372"/>
		<path fill="#4E9266" d="M20.47,43.511"/>
		<path fill="#4E9266" d="M24.685,39.909v-0.036c0-0.004-0.006-0.011-0.011-0.011l-1.219,0.001h-0.791
			c-0.02,0-0.038-0.011-0.051-0.026c-0.013-0.014-0.022-0.033-0.019-0.054c0.002-0.03,0.006-0.055,0.011-0.085l0.004-0.013
			c0.009-0.044,0.009-0.071-0.008-0.096c-0.02-0.029-0.053-0.044-0.099-0.044c-0.019,0-0.037,0.002-0.053,0.004l-0.11,0.01
			c-0.088,0.009-0.179,0.018-0.244,0.02c-0.017,0-0.028,0.013-0.028,0.028v0.019c0,0.019,0,0.02,0.001,0.048
			c0.002,0.019,0.002,0.055,0.001,0.113v0.005c0,0.038-0.032,0.071-0.072,0.071h-1.024c0,0-0.958-0.004-0.964-0.004
			c-0.004,0-0.007,0.004-0.009,0.006c-0.003,0-0.004,0.006-0.004,0.009v0.205l-0.003,0.656v0.011
			c-0.003,0.025-0.007,0.049-0.012,0.073l-0.003,0.014c-0.01,0.045-0.012,0.07,0.006,0.096c0.02,0.028,0.055,0.044,0.101,0.044
			c0.018,0,0.035,0,0.051-0.005l0.11-0.01c0.088-0.009,0.178-0.018,0.246-0.019c0.014-0.003,0.026-0.013,0.026-0.03v-0.02
			c0-0.016,0-0.017-0.002-0.044c0-0.02,0-0.058,0-0.077v-0.317c0-0.038,0.032-0.07,0.072-0.07h3.503
			c0.039,0,0.071,0.033,0.071,0.072v0.313c0,0.037-0.032,0.07-0.07,0.071l-0.323,0.001c-0.006,0-0.012,0.001-0.017,0.003
			s-0.007,0.006-0.009,0.011c-0.002,0.019-0.013,0.037-0.025,0.048c-0.01,0.009-0.023,0.017-0.038,0.022
			c-0.042,0.017-0.099,0.027-0.166,0.027l-0.255,0.002h-0.086h-0.059c-0.018-0.002-0.038-0.009-0.051-0.023
			c-0.013-0.015-0.019-0.033-0.019-0.052l0.004-0.09c0.001-0.011,0.003-0.02,0.009-0.029v-0.003
			c0.017-0.029,0.034-0.066,0.026-0.105c-0.005-0.018-0.013-0.022-0.018-0.026c-0.008-0.004-0.019-0.004-0.027-0.004H22.58
			c-0.005,0-0.013,0.003-0.017,0.009c-0.011,0.013-0.015,0.039-0.01,0.1l0.001,0.014l0.001,0.299l0,0.022l0.001,0.017
			c0,0.008,0.001,0.018,0.003,0.023c0.001,0.02,0.005,0.032,0.012,0.047c0.017,0.063,0.059,0.133,0.108,0.174
			c0.025,0.019,0.05,0.036,0.077,0.05c0.021,0.01,0.033,0.03,0.039,0.047c0.005,0.022-0.001,0.045-0.015,0.063l-0.084,0.104
			c-0.001,0-0.004,0.001-0.004,0.006c-0.013,0.024-0.038,0.038-0.063,0.038h-0.551c-0.022,0-0.042-0.01-0.055-0.026
			c-0.015-0.018-0.019-0.039-0.015-0.061v-0.009c0-0.005-0.001-0.015-0.008-0.021l-0.025-0.022c-0.073-0.066-0.15-0.128-0.223-0.186
			l-0.042-0.034c-0.017-0.015-0.026-0.039-0.026-0.062c0-0.022,0.015-0.042,0.034-0.055c0.015-0.01,0.028-0.019,0.045-0.028
			l0.065-0.043c0.028-0.018,0.054-0.032,0.083-0.045l0.012-0.005c0.028-0.013,0.069-0.033,0.082-0.07
			c0.019-0.054-0.008-0.091-0.061-0.145l-0.013-0.014c-0.084-0.083-0.179-0.179-0.236-0.245c-0.006-0.005-0.013-0.009-0.021-0.009
			c-0.006,0-0.012,0-0.017,0.006l-0.015,0.012c-0.012,0.006-0.014,0.008-0.03,0.024c-0.012,0.01-0.031,0.024-0.055,0.042
			l-0.044,0.029c-0.042,0.03-0.079,0.052-0.103,0.068c-0.226,0.136-0.448,0.224-0.645,0.258c-0.017,0.001-0.032,0.003-0.049,0.006
			c-0.003,0-0.023,0.001-0.023,0.001c-0.013,0.002-0.023,0.014-0.021,0.031c0.004,0.052,0.008,0.107,0.013,0.159
			c0.007,0.086,0.012,0.167,0.018,0.251c0.003,0.037,0.005,0.078,0.049,0.085c0.061,0.01,0.114-0.014,0.169-0.033
			c0.05-0.018,0.1-0.026,0.15-0.04c0.006-0.001,0.013-0.003,0.021-0.003c0.012,0,0.024,0.005,0.036,0.009
			c0.04,0.026,0.066,0.09,0.044,0.131c-0.013,0.025-0.037,0.042-0.064,0.042l-0.161-0.002h-0.278c-0.003,0-0.003-0.002-0.006-0.002
			h-0.003h-0.044l-0.037-0.003c-0.015-0.002-0.031-0.003-0.048-0.006l-0.013-0.004c-0.016-0.005-0.031-0.007-0.05-0.007
			c-0.018,0-0.032,0.004-0.047,0.014c-0.042,0.03-0.046,0.075-0.04,0.152l0.001,0.013c0.003,0.03,0.007,0.063,0.009,0.099
			c0.01,0.091,0.019,0.179,0.021,0.241c0,0.017,0.012,0.03,0.027,0.03h0.027c0.011,0,0.015-0.001,0.039-0.003
			c0.018-0.001,0.042-0.002,0.067-0.002l0.608,0.001h0.155h0.312h0.348c0.019,0,0.037,0.007,0.051,0.02
			c0.013,0.014,0.021,0.031,0.021,0.054v0.012c0,0.019-0.008,0.038-0.021,0.05c-0.014,0.013-0.032,0.021-0.051,0.021
			c-0.129,0-0.259-0.002-0.39-0.002h-0.028l-0.014-0.002l-0.024-0.003c-0.015-0.001-0.031-0.005-0.046-0.009h-0.006
			c-0.019-0.003-0.031-0.01-0.049-0.009c-0.02,0.001-0.039,0.003-0.056,0.014c-0.045,0.031-0.047,0.075-0.04,0.154l0.001,0.012
			c0.004,0.032,0.006,0.062,0.01,0.097c0.009,0.093,0.017,0.18,0.018,0.243c0,0.018,0.015,0.029,0.031,0.029l0.024,0.001
			c0.011,0,0.017-0.001,0.041-0.003c0.016-0.001,0.04-0.001,0.067-0.001h0.309h0.151c0.04,0,0.072,0.031,0.072,0.072v0.015
			c0,0.021-0.008,0.038-0.021,0.05c-0.014,0.014-0.032,0.022-0.051,0.022l-1.324-0.004h-0.057l-0.037-0.003
			c-0.015-0.002-0.031-0.005-0.048-0.008l-0.013-0.002c-0.016-0.006-0.031-0.009-0.05-0.009c-0.018,0-0.032,0.005-0.047,0.014
			c-0.042,0.03-0.046,0.077-0.04,0.152l0.001,0.011c0.003,0.034,0.007,0.066,0.009,0.101c0.01,0.091,0.019,0.179,0.021,0.243
			c0,0.015,0.012,0.027,0.027,0.027h0.027c0.011,0,0.015,0,0.039-0.003c0.018,0,0.042,0,0.067,0h0.608h3.09
			c0.015,0,0.028-0.011,0.028-0.025v-0.467c0-0.014-0.014-0.029-0.028-0.029l-1.612,0.003c-0.041,0-0.073-0.031-0.073-0.072v-0.015
			c0-0.021,0.008-0.036,0.021-0.05c0.015-0.015,0.031-0.021,0.051-0.021h0.651c0.013,0,0.026-0.014,0.026-0.028v-0.467
			c0-0.014-0.013-0.026-0.026-0.026h-0.65c-0.019,0-0.038-0.008-0.05-0.021c-0.015-0.013-0.023-0.031-0.023-0.053l0.001-0.015
			c0.002-0.037,0.033-0.069,0.073-0.069h1.611c0.015,0,0.028-0.013,0.028-0.029V41.66c0-0.017-0.014-0.028-0.028-0.028h-0.759
			c-0.03,0-0.056-0.018-0.066-0.044c-0.011-0.025-0.006-0.055,0.013-0.076c0.01-0.01,0.016-0.021,0.019-0.034
			c0.01-0.024,0.039-0.043,0.069-0.045c0.023,0,0.047-0.001,0.07-0.004c0.075-0.007,0.189-0.023,0.305-0.086
			c0.06-0.03,0.112-0.069,0.156-0.116c0.047-0.05,0.085-0.11,0.11-0.174c0.004-0.009,0.007-0.018,0.011-0.028
			c0.009-0.032,0.036-0.05,0.068-0.05h0.387c0.017,0,0.027-0.013,0.027-0.027V39.909z"/>
		<path fill="#4E9266" d="M20.782,43.798l-0.081-0.077c-0.068-0.061-0.133-0.123-0.179-0.167c-0.004-0.005-0.013-0.011-0.019-0.011
			c-0.008,0-0.015,0.003-0.019,0.008l-0.016,0.014c-0.013,0.01-0.014,0.014-0.035,0.031c-0.016,0.021-0.046,0.044-0.081,0.078
			l-0.213,0.188c-0.045,0.038-0.091,0.076-0.147,0.123l-0.048,0.039c-0.014,0.009-0.014,0.024-0.004,0.037l0.29,0.368
			c0.004,0.005,0.011,0.009,0.021,0.009c0.006,0,0.013-0.001,0.017-0.007l0.023-0.017c0.069-0.057,0.144-0.118,0.209-0.177
			l0.019-0.015c0.063-0.054,0.123-0.108,0.184-0.16c0.025-0.018,0.048-0.034,0.074-0.048l0.012-0.008
			c0.039-0.021,0.059-0.04,0.065-0.068C20.866,43.886,20.839,43.851,20.782,43.798"/>
		<path fill="#4E9266" d="M24.815,44.25l-0.002-0.006c-0.027-0.098-0.075-0.189-0.138-0.273c-0.055-0.075-0.119-0.144-0.198-0.213
			l-0.092-0.082c-0.027-0.026-0.063-0.057-0.108-0.057c-0.059,0.002-0.084,0.042-0.108,0.108l-0.008,0.018
			c-0.052,0.139-0.101,0.248-0.132,0.314c-0.007,0.017-0.005,0.029,0.008,0.037l0.016,0.006c0.008,0.006,0.01,0.01,0.028,0.019
			c0.022,0.009,0.055,0.034,0.07,0.048c0.014,0.012,0.027,0.021,0.037,0.03c0.058,0.054,0.1,0.115,0.119,0.175l0.004,0.012
			c0.002,0.003,0.005,0.015,0.005,0.015c0.002,0.01,0.013,0.016,0.023,0.016c0.002,0,0.006,0,0.007,0l0.457-0.094
			c0.005,0,0.011-0.004,0.015-0.009c0.005-0.008,0.008-0.02,0.005-0.027C24.821,44.273,24.819,44.263,24.815,44.25"/>
		<path fill="#4E9266" d="M22.039,43.824c-0.003-0.031-0.007-0.065-0.009-0.097v-0.013c-0.001-0.031-0.004-0.077-0.034-0.106
			c-0.021-0.019-0.042-0.027-0.067-0.027c-0.031,0-0.061,0.014-0.088,0.027l-0.017,0.006c-0.135,0.058-0.247,0.102-0.319,0.125
			c-0.015,0.007-0.022,0.019-0.019,0.034l0.003,0.017c0.003,0.011,0.006,0.012,0.012,0.037c0.01,0.027,0.021,0.086,0.022,0.097
			l0.013,0.07c0.019,0.111,0.034,0.23,0.049,0.366l0.003,0.057c0.004,0.014,0.013,0.023,0.026,0.025
			c0.009-0.002,0.07-0.007,0.471-0.035c0.015-0.006,0.025-0.018,0.023-0.033l-0.003-0.032
			C22.088,44.169,22.063,43.991,22.039,43.824"/>
		<path fill="#4E9266" d="M23.343,44.245c-0.065-0.164-0.14-0.33-0.214-0.481c-0.012-0.032-0.023-0.063-0.034-0.093l-0.004-0.01
			c-0.011-0.033-0.025-0.075-0.064-0.095c-0.015-0.004-0.028-0.01-0.043-0.01c-0.043,0-0.076,0.03-0.107,0.055l-0.011,0.01
			c-0.112,0.093-0.207,0.167-0.271,0.21c-0.013,0.008-0.019,0.024-0.009,0.037l0.009,0.015c0.007,0.01,0.009,0.012,0.022,0.032
			c0.017,0.022,0.042,0.074,0.049,0.088l0.031,0.065c0.052,0.101,0.101,0.212,0.152,0.343l0.022,0.052
			c0.003,0.012,0.011,0.018,0.022,0.018c0.005,0,0.007,0,0.014-0.005l0.434-0.164c0.014-0.007,0.021-0.022,0.014-0.036
			L23.343,44.245z"/>
		<path fill="#4E9266" d="M33.637,41.457c0.075,0.021,0.148,0.05,0.214,0.073c0.081,0.03,0.145,0.059,0.191,0.083
			c0.01,0.006,0.019,0.01,0.025,0.014c0,0.001,0.005,0.001,0.008,0.001c0.004,0,0.011,0,0.02-0.013l0.253-0.362
			c0.004-0.005,0.004-0.011,0.004-0.017c0-0.01-0.01-0.019-0.018-0.025c-0.024-0.017-0.045-0.029-0.062-0.037
			c-0.093-0.049-0.177-0.08-0.268-0.115c-0.083-0.031-0.168-0.061-0.261-0.087c-0.092-0.03-0.179-0.053-0.265-0.074
			c-0.051-0.012-0.095-0.022-0.139-0.03l-0.061-0.014l-0.029-0.003h-0.004c-0.012,0-0.024,0.009-0.028,0.024
			c-0.042,0.124-0.085,0.274-0.11,0.434c0,0.012,0.007,0.024,0.021,0.026c0.019,0.002,0.046,0.004,0.074,0.01
			C33.325,41.367,33.466,41.404,33.637,41.457"/>
		<path fill="#4E9266" d="M36.799,41.165l-0.407-0.228c-0.005-0.002-0.011-0.004-0.016-0.004c-0.008,0-0.018,0.004-0.022,0.013
			l-0.009,0.016l-0.015,0.023l-0.021,0.035c-0.027,0.04-0.059,0.086-0.097,0.14c-0.131,0.177-0.281,0.359-0.446,0.544
			c-0.169,0.186-0.336,0.355-0.501,0.503c-0.196,0.174-0.377,0.312-0.551,0.416c-0.394,0.234-0.83,0.438-1.295,0.602l-0.056,0.019
			l-0.013,0.005l-0.024,0.005c-0.012,0.002-0.028,0.005-0.044,0.006l-0.015,0.001c-0.04,0.004-0.066,0.009-0.084,0.035
			c-0.027,0.041-0.018,0.085,0.009,0.151l0.006,0.017c0.016,0.044,0.037,0.089,0.055,0.134l0.002,0.008
			c0.025,0.062,0.053,0.127,0.072,0.176c0.003,0.013,0.015,0.021,0.03,0.021c0,0,0.003,0,0.006-0.003l0.02-0.004
			c0.018-0.006,0.018-0.006,0.046-0.018c0.019-0.006,0.048-0.018,0.077-0.026l0.021-0.007l0.097-0.033
			c0.169-0.064,0.342-0.13,0.512-0.208c0.255-0.111,0.501-0.234,0.728-0.362l0.087-0.051c0.03-0.018,0.063-0.036,0.091-0.055
			c0.058-0.038,0.115-0.076,0.174-0.119c0.108-0.081,0.215-0.164,0.326-0.26c0.194-0.168,0.388-0.356,0.584-0.571
			c0.193-0.213,0.363-0.418,0.516-0.629c0.044-0.057,0.077-0.106,0.108-0.154l0.029-0.044l0.013-0.02l0.017-0.03
			c0.005-0.009,0.007-0.02,0.004-0.028C36.807,41.172,36.805,41.167,36.799,41.165"/>
		<path fill="#4E9266" d="M50.521,41.218c0.016,0.001,0.043,0.005,0.072,0.01c0.122,0.021,0.263,0.058,0.433,0.112
			c0.076,0.025,0.147,0.047,0.215,0.072c0.08,0.031,0.145,0.06,0.19,0.082c0.01,0.004,0.02,0.014,0.024,0.017
			c0.002,0,0.006,0.002,0.008,0.002c0.004,0,0.01,0,0.021-0.015l0.254-0.362c0.004-0.003,0.006-0.011,0.004-0.018
			c-0.002-0.009-0.009-0.019-0.02-0.023c-0.024-0.018-0.045-0.029-0.06-0.037c-0.094-0.049-0.179-0.083-0.27-0.116
			c-0.081-0.03-0.166-0.058-0.259-0.089c-0.093-0.027-0.18-0.049-0.265-0.071c-0.052-0.012-0.096-0.022-0.139-0.03l-0.061-0.014
			l-0.028-0.002c-0.001,0-0.004-0.002-0.004-0.002c-0.014,0-0.028,0.011-0.029,0.026c-0.042,0.125-0.085,0.273-0.106,0.432
			C50.502,41.204,50.506,41.218,50.521,41.218"/>
		<path fill="#4E9266" d="M50.686,42.167c0.082,0.031,0.146,0.061,0.192,0.083c0.009,0.004,0.019,0.01,0.024,0.015
			c0.002,0.001,0.005,0.001,0.009,0.001c0.002,0,0.008,0,0.02-0.016l0.253-0.36c0.004-0.004,0.005-0.01,0.004-0.016
			c-0.002-0.01-0.008-0.021-0.02-0.027c-0.023-0.014-0.042-0.022-0.06-0.032c-0.094-0.05-0.177-0.085-0.269-0.118
			c-0.082-0.03-0.167-0.061-0.26-0.088c-0.093-0.028-0.18-0.05-0.265-0.074c-0.049-0.012-0.095-0.021-0.138-0.029l-0.061-0.014
			l-0.029-0.002h-0.004c-0.013,0-0.026,0.007-0.029,0.024c-0.041,0.125-0.086,0.274-0.107,0.429
			c-0.001,0.014,0.004,0.029,0.019,0.029c0.019,0.003,0.043,0.004,0.075,0.011c0.12,0.021,0.262,0.057,0.431,0.11
			C50.549,42.119,50.621,42.144,50.686,42.167"/>
		<path fill="#4E9266" d="M53.733,41.165l-0.41-0.228c-0.004-0.002-0.009-0.004-0.016-0.004c-0.008,0-0.016,0.004-0.02,0.013
			l-0.008,0.016l-0.016,0.023l-0.021,0.035c-0.03,0.04-0.061,0.086-0.098,0.14c-0.13,0.177-0.282,0.359-0.447,0.544
			c-0.166,0.186-0.335,0.355-0.499,0.503c-0.198,0.174-0.376,0.312-0.552,0.416c-0.395,0.234-0.831,0.438-1.296,0.602l-0.057,0.019
			l-0.013,0.005l-0.022,0.005c-0.015,0.002-0.03,0.005-0.046,0.006l-0.014,0.001c-0.042,0.004-0.066,0.009-0.083,0.035
			c-0.029,0.041-0.02,0.085,0.005,0.151l0.008,0.017c0.018,0.044,0.035,0.089,0.053,0.134l0.005,0.008
			c0.026,0.062,0.052,0.127,0.071,0.176c0.003,0.013,0.015,0.021,0.027,0.021c0.004,0,0.006,0,0.009-0.003l0.02-0.004
			c0.017-0.006,0.017-0.006,0.046-0.018c0.017-0.006,0.046-0.018,0.073-0.026l0.021-0.007l0.097-0.033
			c0.172-0.064,0.344-0.13,0.515-0.208c0.253-0.111,0.499-0.234,0.725-0.362l0.089-0.051c0.031-0.018,0.062-0.036,0.092-0.055
			c0.059-0.038,0.116-0.076,0.176-0.119c0.106-0.081,0.213-0.164,0.326-0.26c0.194-0.168,0.385-0.356,0.582-0.571
			c0.194-0.213,0.363-0.418,0.516-0.629c0.042-0.057,0.076-0.106,0.109-0.154l0.025-0.044l0.014-0.02l0.019-0.03
			c0.004-0.009,0.008-0.02,0.004-0.028C53.742,41.172,53.739,41.167,53.733,41.165"/>
		<path fill="#4E9266" d="M42.127,41.025c-0.006-0.01-0.015-0.025-0.021-0.03c-0.02-0.02-0.042-0.046-0.085-0.073
			c-0.049-0.027-0.105-0.042-0.167-0.042H41.84c-0.105,0-0.215,0.003-0.311,0.006c-0.042,0.002-0.083,0.004-0.123,0.004
			l-0.247,0.008l-0.479,0.013c-0.421,0.011-0.867,0.02-1.314,0.02c-0.211,0-0.402-0.001-0.587-0.005l-0.08-0.004h-0.013
			l-0.023-0.004c-0.015-0.003-0.028-0.005-0.045-0.01l-0.015-0.006c-0.016-0.001-0.033-0.005-0.051-0.005
			c-0.017,0-0.03,0.003-0.042,0.011c-0.043,0.027-0.05,0.074-0.046,0.149v0.014c0.001,0.035,0.003,0.07,0.004,0.108l0.001,0.014
			c0.004,0.081,0.008,0.162,0.004,0.221c0,0.016,0.014,0.027,0.03,0.028l0.022,0.002c0.005,0,0.01,0,0.017,0s0.014,0,0.031,0h0.013
			c0.018,0,0.043,0,0.064,0.001l0.146,0.004c0.148,0.003,0.305,0.005,0.473,0.005c0.084,0,0.16,0,0.231-0.001
			c0.298-0.003,0.622-0.006,1.021-0.018c0,0,0.71-0.022,0.713-0.022c0.029,0,0.056,0.016,0.068,0.042
			c0.012,0.023,0.007,0.057-0.011,0.078c-0.088,0.097-0.18,0.2-0.284,0.311c-0.057,0.058-0.114,0.118-0.173,0.175l-0.418,0.427
			c-0.006,0.005-0.006,0.013-0.006,0.02c0,0.006,0,0.014,0.006,0.02l0.33,0.327c0.008,0.006,0.013,0.008,0.021,0.008
			c0.007,0,0.013-0.005,0.02-0.008l0.417-0.424c0.057-0.058,0.112-0.116,0.168-0.175c0.116-0.125,0.224-0.241,0.325-0.355
			l0.081-0.093l0.053-0.063l0.07-0.087c0.04-0.049,0.092-0.114,0.133-0.176c0.046-0.067,0.077-0.122,0.094-0.17
			c0.017-0.05,0.024-0.098,0.021-0.146c0-0.021-0.004-0.041-0.01-0.061C42.135,41.048,42.132,41.04,42.127,41.025"/>
		<path fill="#4E9266" d="M41.007,43.473c-0.015-0.024-0.032-0.049-0.048-0.075c-0.064-0.096-0.139-0.199-0.221-0.302
			c-0.155-0.189-0.329-0.373-0.52-0.542c-0.191-0.173-0.393-0.326-0.603-0.459c-0.016-0.011-0.023-0.015-0.03-0.02l-0.029-0.022
			c-0.016-0.011-0.026-0.022-0.042-0.034l-0.01-0.009c-0.025-0.021-0.05-0.045-0.085-0.045H39.41
			c-0.053,0.007-0.081,0.045-0.108,0.114l-0.019,0.045c-0.042,0.104-0.087,0.212-0.123,0.283c-0.007,0.014-0.002,0.031,0.01,0.039
			l0.019,0.009c0.011,0.005,0.014,0.009,0.036,0.019c0.014,0.004,0.033,0.016,0.06,0.033l0.063,0.036
			c0.085,0.057,0.155,0.105,0.201,0.135c0.386,0.283,0.726,0.634,0.98,1.016c0.011,0.017,0.021,0.032,0.034,0.05l0.011,0.016
			l0.028,0.048c0.005,0.006,0.013,0.012,0.024,0.012c0.003,0,0.008,0,0.015-0.003l0.397-0.24c0.008-0.003,0.011-0.01,0.013-0.017
			c0-0.007,0-0.016-0.003-0.021L41.007,43.473z"/>
		<path fill="#4E9266" d="M45.193,41.105h-0.089c-0.103,0-0.209,0-0.281-0.007c-0.016,0-0.028,0.012-0.03,0.026l-0.001,0.018
			c-0.002,0.018-0.002,0.018-0.004,0.045c0,0.015-0.002,0.037-0.006,0.071L44.77,41.34c-0.018,0.124-0.039,0.225-0.054,0.288
			c-0.072,0.305-0.185,0.551-0.333,0.736c-0.155,0.197-0.369,0.347-0.634,0.449c-0.031,0.012-0.059,0.022-0.088,0.031l-0.039,0.013
			l-0.022,0.004c-0.011,0.006-0.02,0.02-0.016,0.037l0.133,0.445c0.004,0.011,0.013,0.021,0.027,0.021c0.004,0,0.006,0,0.009-0.002
			l0.024-0.008l0.052-0.017c0.039-0.012,0.075-0.025,0.112-0.041c0.16-0.063,0.306-0.139,0.434-0.225
			c0.143-0.098,0.268-0.21,0.376-0.336c0.105-0.122,0.195-0.264,0.27-0.419c0.126-0.257,0.211-0.547,0.268-0.911l0.004-0.037
			l0.007-0.021l0.004-0.023c0.006-0.016,0.01-0.032,0.015-0.048l0.003-0.014c0.017-0.043,0.02-0.071,0.006-0.101
			C45.306,41.121,45.268,41.105,45.193,41.105"/>
		<path fill="#4E9266" d="M47.964,42.074l-0.423-0.199c-0.002-0.002-0.005-0.004-0.01-0.004c-0.011,0-0.019,0.005-0.024,0.015
			l-0.009,0.017l-0.012,0.031l-0.022,0.034c-0.025,0.048-0.055,0.095-0.086,0.146c-0.125,0.19-0.267,0.377-0.434,0.549
			c-0.086,0.093-0.169,0.169-0.251,0.24c-0.046,0.037-0.091,0.072-0.133,0.103l-0.04,0.027c-0.011,0.009-0.027,0.011-0.042,0.011
			c-0.011,0-0.021-0.002-0.033-0.007c-0.022-0.011-0.039-0.037-0.039-0.064l0.005-1.422v-0.066l0.001-0.014l0.003-0.021
			c0.002-0.018,0.005-0.033,0.007-0.049l0.003-0.013c0.009-0.044,0.01-0.071-0.007-0.097c-0.02-0.029-0.053-0.043-0.099-0.043
			c-0.019,0-0.036,0.002-0.052,0.004l-0.116,0.01c-0.085,0.01-0.175,0.018-0.24,0.02c-0.017,0.002-0.028,0.012-0.028,0.028v0.02
			c0,0.016,0,0.019,0.003,0.046c0.001,0.016,0.001,0.04,0.001,0.077v0.673v0.801v0.255c0,0.053,0,0.125,0.012,0.193
			c0.01,0.063,0.027,0.119,0.051,0.166c0.025,0.045,0.054,0.082,0.095,0.113c0.021,0.017,0.046,0.034,0.069,0.044
			c0.024,0.01,0.048,0.018,0.073,0.021c0.022,0.005,0.044,0.006,0.066,0.006c0.029,0,0.057-0.003,0.088-0.009
			c0.048-0.011,0.106-0.031,0.167-0.066c0.063-0.029,0.125-0.067,0.171-0.099l0.106-0.072c0.025-0.017,0.06-0.041,0.09-0.061
			c0.031-0.021,0.061-0.045,0.088-0.066c0.109-0.087,0.213-0.183,0.324-0.296c0.204-0.209,0.378-0.431,0.534-0.672
			c0.038-0.06,0.071-0.114,0.1-0.17l0.034-0.066l0.016-0.031c0.003-0.007,0.003-0.015,0.003-0.024
			C47.975,42.082,47.97,42.077,47.964,42.074"/>
		<path fill="#4E9266" d="M55.534,41.768c0.007,0.095,0.012,0.183,0.015,0.249c0,0.017,0.01,0.028,0.026,0.028h0.034h0.032
			c0.007-0.001,0.014-0.001,0.023-0.001c0.016,0,0.033,0.001,0.052,0.001l0.373,0.016c0.131,0.007,0.268,0.011,0.408,0.013h0.104
			c0.114,0,0.226-0.001,0.32-0.003c0.276-0.006,0.549-0.014,0.83-0.025l0.157-0.004c0.008,0,0.015-0.002,0.019-0.008
			c0.006-0.005,0.007-0.015,0.007-0.021l-0.014-0.465c-0.002-0.015-0.015-0.027-0.029-0.027l-0.552,0.019
			c-0.243,0.009-0.496,0.017-0.741,0.017h-0.024c-0.115,0-0.239-0.005-0.38-0.012c-0.071-0.003-0.418-0.02-0.427-0.02l-0.015-0.003
			l-0.024-0.003c-0.015-0.003-0.029-0.005-0.046-0.009l-0.014-0.002c-0.018-0.005-0.034-0.01-0.052-0.01s-0.033,0.004-0.047,0.013
			c-0.045,0.03-0.049,0.075-0.044,0.15L55.534,41.768z"/>
		<path fill="#4E9266" d="M58.308,43.248c0-0.016-0.013-0.026-0.027-0.026l-0.727,0.011c-0.171,0-0.337,0-0.507,0.002
			c-0.018,0-0.036-0.007-0.05-0.02c-0.014-0.013-0.021-0.031-0.021-0.051l-0.002-0.344l0.002-0.169l0.003-0.159
			c0.002-0.027,0.007-0.056,0.011-0.083l0.003-0.015c0.009-0.041,0.012-0.069-0.008-0.097c-0.021-0.027-0.054-0.043-0.099-0.043
			c-0.019,0-0.035,0.004-0.052,0.005l-0.112,0.011c-0.086,0.007-0.178,0.018-0.245,0.02c-0.015,0.001-0.026,0.013-0.026,0.028v0.019
			c0,0.018,0,0.02,0.002,0.047c0.002,0.015,0.002,0.042,0.002,0.077v0.191v0.512c0,0.021-0.01,0.038-0.021,0.053
			c-0.014,0.014-0.033,0.018-0.052,0.018c-0.341,0-0.646-0.002-0.926-0.01h-0.046l-0.016-0.003l-0.021-0.005
			c-0.017,0-0.033-0.006-0.047-0.009l-0.015-0.001c-0.016-0.005-0.033-0.009-0.051-0.009c-0.019,0-0.031,0.004-0.043,0.012
			c-0.045,0.03-0.052,0.075-0.045,0.151l0.002,0.014c0,0.027,0.002,0.055,0.006,0.083v0.024c0.006,0.09,0.012,0.172,0.014,0.234
			c0,0.016,0.012,0.029,0.028,0.031h0.033c0.007,0,0.015,0,0.032-0.002h0.031h0.045l0.479,0.007
			c0.251,0.002,0.511,0.002,0.773,0.002c0.46,0,0.938-0.002,1.467-0.009l0.203-0.005c0.015,0,0.028-0.013,0.026-0.026L58.308,43.248
			z"/>
		<path fill="#4E9266" d="M18.027,39.869h-2.36l-1.58-0.001l-0.06-0.001h-0.016l-0.024-0.002c-0.013-0.004-0.029-0.007-0.044-0.011
			l-0.015,0c-0.017-0.004-0.033-0.008-0.049-0.008c-0.019,0-0.034,0.004-0.048,0.015c-0.042,0.031-0.046,0.072-0.04,0.151
			l0.013,0.112c0.007,0.092,0.016,0.179,0.019,0.244c0.001,0.016,0.013,0.026,0.029,0.026h0.026c0.01,0,0.016,0,0.038-0.001
			c0.017-0.003,0.042-0.003,0.068-0.003h0.81h3.231c0.017,0,0.029-0.011,0.029-0.026v-0.467
			C18.056,39.883,18.044,39.869,18.027,39.869"/>
		<path fill="#4E9266" d="M15.394,41.025l0.011-0.043l0.013-0.053l0.004-0.011c0.009-0.035,0.021-0.079,0.001-0.117
			c-0.021-0.033-0.053-0.051-0.1-0.051c-0.016,0-0.034,0-0.049,0.003l-0.017,0.002c-0.153,0.015-0.269,0.021-0.341,0.023
			c-0.016,0-0.027,0.011-0.027,0.024l-0.002,0.018c-0.001,0.013-0.001,0.013-0.001,0.034c0.001,0.017-0.001,0.037-0.004,0.065
			l-0.006,0.034c-0.003,0.019-0.005,0.037-0.009,0.055c-0.024,0.123-0.066,0.25-0.124,0.381c-0.155,0.344-0.408,0.685-0.737,0.981
			c-0.331,0.302-0.693,0.519-1.046,0.631c-0.04,0.013-0.083,0.024-0.126,0.033l-0.054,0.012l-0.02,0.004
			c-0.013,0.001-0.022,0.017-0.019,0.031l0.079,0.46c0.002,0.014,0.015,0.021,0.028,0.021h0.001h0.005l0.061-0.011l0.042-0.01
			c0.057-0.014,0.113-0.03,0.168-0.048c0.209-0.066,0.411-0.161,0.621-0.287c0.383-0.229,0.727-0.527,1.018-0.884
			c0.151-0.186,0.277-0.376,0.38-0.573c0.118-0.226,0.197-0.443,0.239-0.664L15.394,41.025z"/>
		<path fill="#4E9266" d="M17.966,44.225v-0.564v-1.397c0-0.014-0.009-0.015-0.013-0.015h-2.025c-0.016,0-0.028,0.01-0.028,0.027
			v0.465c0,0.017,0.013,0.028,0.028,0.028l1.448-0.001c0.019,0,0.036,0.006,0.05,0.021c0.013,0.013,0.022,0.03,0.022,0.05
			l-0.002,0.582c0,0.022-0.01,0.041-0.023,0.052c-0.014,0.012-0.031,0.021-0.05,0.021l-0.144-0.001h-1.302
			c-0.016,0-0.028,0.011-0.028,0.029v0.468c0,0.012,0.013,0.025,0.028,0.025l0.957-0.001c0.177,0,0.338,0.001,0.488,0.001
			c0.038,0.002,0.07,0.034,0.07,0.071l-0.001,0.09v0.017l-0.003,0.025c-0.002,0.02-0.003,0.039-0.009,0.059l-0.003,0.014
			c-0.009,0.044-0.01,0.07,0.009,0.098c0.019,0.029,0.051,0.042,0.099,0.042c0.017,0,0.037-0.001,0.052-0.003l0.014-0.001
			c0.03-0.003,0.062-0.005,0.091-0.009h0.007c0.092-0.01,0.18-0.018,0.243-0.021c0.017,0,0.03-0.011,0.03-0.031v-0.017
			c0-0.015,0-0.015-0.004-0.046C17.966,44.287,17.966,44.261,17.966,44.225"/>
		<path fill="#4E9266" d="M15.7,44.225v-0.333v-1.647c0-0.015-0.011-0.026-0.026-0.026h-0.466c-0.017,0-0.029,0.011-0.029,0.026
			l0.002,1.208l-0.004,0.709c0,0.015,0,0.022,0,0.026c0,0.002-0.002,0.019-0.002,0.019l-0.001,0.023
			c-0.004,0.015-0.006,0.031-0.008,0.046l-0.004,0.014c-0.01,0.044-0.012,0.07,0.008,0.098c0.02,0.029,0.053,0.042,0.1,0.042
			c0.018,0,0.034-0.001,0.052-0.003l0.109-0.01c0.093-0.01,0.18-0.018,0.246-0.021c0.017,0,0.028-0.011,0.028-0.031v-0.017
			c0-0.015,0-0.015-0.002-0.046C15.7,44.287,15.7,44.261,15.7,44.225"/>
		<path fill="#4E9266" d="M28.506,41.556l-0.029-0.012c-0.112-0.041-0.228-0.085-0.304-0.122c-0.005-0.001-0.009-0.001-0.012-0.001
			c-0.013,0-0.02,0.007-0.025,0.015l-0.01,0.019c-0.006,0.01-0.006,0.013-0.017,0.036c-0.007,0.017-0.018,0.038-0.031,0.063
			l-0.041,0.069c-0.047,0.083-0.103,0.167-0.162,0.252c-0.354,0.515-0.785,0.93-1.246,1.2c-0.027,0.019-0.054,0.034-0.083,0.048
			l-0.037,0.02l-0.019,0.01c-0.014,0.007-0.018,0.022-0.013,0.035l0.212,0.417c0.006,0.01,0.015,0.014,0.026,0.014
			c0.004,0,0.009-0.001,0.013-0.004l0.07-0.035c0.034-0.02,0.066-0.04,0.101-0.058c0.129-0.079,0.258-0.167,0.383-0.262
			c0.232-0.179,0.457-0.395,0.669-0.639c0.207-0.235,0.388-0.489,0.542-0.747l0.021-0.034l0.025-0.034
			c0.008-0.013,0.018-0.026,0.028-0.042l0.009-0.009c0.021-0.027,0.047-0.056,0.044-0.096
			C28.615,41.604,28.576,41.582,28.506,41.556"/>
		<path fill="#4E9266" d="M30.944,43.214l-0.168-0.254l-0.34-0.505l-0.347-0.52c-0.002-0.001-0.003-0.006-0.005-0.01l-0.009-0.015
			l-0.011-0.02c-0.007-0.014-0.014-0.029-0.02-0.045l-0.005-0.013c-0.016-0.042-0.029-0.064-0.059-0.074
			c-0.01-0.005-0.015-0.008-0.021-0.008c-0.05-0.005-0.094,0.031-0.127,0.059l-0.086,0.071c-0.071,0.058-0.138,0.115-0.19,0.153
			c-0.013,0.008-0.016,0.027-0.007,0.04l0.01,0.015c0.009,0.013,0.01,0.014,0.028,0.038c0.009,0.012,0.025,0.03,0.044,0.063
			l0.235,0.347c0.212,0.315,0.434,0.643,0.646,0.965l0.065,0.104c0.006,0.009,0.012,0.012,0.019,0.013c0.008,0,0.013,0,0.02-0.004
			l0.397-0.243c0.007-0.004,0.011-0.008,0.013-0.016c0.002-0.007,0-0.016-0.004-0.024L30.944,43.214z"/>
		<path fill="#4E9266" d="M30.379,41.457c-0.319,0-0.578-0.259-0.578-0.578c0-0.321,0.258-0.577,0.578-0.577
			c0.318,0,0.577,0.256,0.577,0.577C30.956,41.198,30.697,41.457,30.379,41.457 M30.379,40.619c-0.143,0-0.258,0.117-0.258,0.26
			c0,0.142,0.115,0.258,0.258,0.258c0.144,0,0.259-0.116,0.259-0.258C30.638,40.736,30.522,40.619,30.379,40.619"/>
		<path fill="#C58045" d="M29.056,7.492c0.022,0.019,0.045,0.033,0.069,0.05c0.074,0.05,0.147,0.103,0.219,0.164
			c0.013,0.009,0.027,0.018,0.04,0.027c0.122,0.005,0.251,0.005,0.386,0.005l0.167,0.002c0.066,0,0.133,0.001,0.206,0.002
			l0.073,0.001c0.021,0.001,0.044,0.001,0.066,0.003c0.088-0.046,0.215-0.107,0.364-0.131c0.08-0.017,0.164-0.024,0.255-0.024h0.003
			c0.029-0.014,0.062-0.031,0.097-0.045c0.045-0.17,0.104-0.317,0.147-0.415c0.179-0.407,0.365-0.613,0.632-0.882l0.045-0.046
			c0.215-0.218,0.657-0.667,1.315-0.667c0.221,0,0.438,0.05,0.646,0.149c0.584,0.287,1.028,0.65,1.357,1.117
			c0.009-0.038,0.017-0.074,0.031-0.11c0.004-0.013,0.009-0.026,0.011-0.038c0.011-0.037-0.002-0.066-0.024-0.089
			c0.11-0.29,0.304-0.807,0.404-1.097c0.072-0.024,0.146-0.044,0.22-0.068c0.008-0.002,0.016-0.007,0.024-0.008
			c0.016-0.004,0.03-0.009,0.046-0.014c0.021,0.002,0.036-0.005,0.056-0.005c0.401-0.02,0.408-0.447,0.695-0.679
			c0.14-0.113,0.213-0.285,0.235-0.482c0.068-0.606-0.34-1.456-0.799-1.581c-0.156-0.125-0.34-0.226-0.555-0.292
			c-0.014-0.009-0.024-0.023-0.043-0.029c-0.196-0.057-0.376-0.059-0.559-0.005c-0.017-0.004-0.033-0.009-0.05-0.015
			c-0.067-0.02-0.129-0.049-0.185-0.084c-0.034-0.029-0.066-0.061-0.099-0.092c-0.052-0.242-0.205-0.454-0.421-0.624
			c-0.468-0.285-0.98-0.462-1.595-0.497c-0.049-0.003-0.102-0.004-0.154-0.006c-0.055,0.002-0.112-0.002-0.167,0.003
			c-0.017-0.003-0.035-0.003-0.051-0.006c-0.164,0.001-0.329,0.013-0.484,0.04c-0.309,0.118-0.588,0.305-0.754,0.548
			c-0.007,0.013-0.019,0.018-0.028,0.029c-0.003,0.004-0.006,0.009-0.007,0.016c-0.011,0.029-0.029,0.055-0.049,0.076
			c-0.004,0.035-0.006,0.071-0.007,0.107c-0.039,0.013-0.078,0.022-0.12,0.027c-0.186-0.134-0.416-0.21-0.652-0.186
			c-0.116-0.039-0.232-0.042-0.336-0.006c-0.074-0.01-0.146-0.009-0.222,0.019c-0.012,0.003-0.022,0.007-0.035,0.012
			c-0.118-0.031-0.226-0.013-0.333,0.031c-0.333,0.077-0.563,0.34-0.679,0.638C28.26,2.656,28.185,3.034,28.366,3.3
			c-0.051,0.343,0.268,0.777,0.659,0.875c0.039,0.04,0.088,0.07,0.141,0.099c0.003,0.03,0.019,0.059,0.066,0.074
			c0.036,0.011,0.07,0.023,0.105,0.038c0.048,0.061,0.083,0.129,0.094,0.209c-0.056,0.248-0.105,0.494-0.15,0.741
			c-0.096,0.192-0.167,0.396-0.207,0.605C29.068,5.968,28.878,6.975,28.873,7c-0.014,0.084-0.021,0.167-0.021,0.25
			c0.047,0.053,0.089,0.104,0.125,0.147C29.005,7.431,29.03,7.467,29.056,7.492"/>
	</g>
</g>
</svg>
